\relax 
\bibstyle{plain}
\bibcite{yuchenxiao}{1}
\bibcite{Xiao2014}{2}
\bibcite{Ma2015}{3}
\newlabel{eq:pro1}{{1}{2}}
\@writefile{lof}{\contentsline {figure}{\numberline {1}{\ignorespaces Partition on samples(left), and features(right) }}{2}}
\newlabel{fig:compareRcv}{{1}{2}}
\newlabel{ass:selfc}{{1}{2}}
\newlabel{ass:selfc}{{2}{2}}
\@writefile{loa}{\contentsline {algorithm}{\numberline {1}{\ignorespaces High-level DiSCO algorithm}}{2}}
\@writefile{loa}{\contentsline {algorithm}{\numberline {2}{\ignorespaces Distributed DiSCO-F: PCG algorithm -- data partitioned by features}}{2}}
\newlabel{A2}{{2}{2}}
\newlabel{tab:addlabel}{{}{2}}
\@writefile{lot}{\contentsline {table}{\numberline {1}{\ignorespaces Counts of computation and communication, during one PCG iteration.}}{2}}
\@writefile{lof}{\contentsline {figure}{\numberline {2}{\ignorespaces Comparison of DiSCO-S, DiSCO-F and CoCoA+ on various datasets. }}{2}}
\newlabel{fig:compareRcv}{{2}{2}}
