PWD /Users/Schemmy/Dropbox/PhD_Lehigh_3/NIPS/Poster
INPUT /usr/local/texlive/2014/texmf.cnf
INPUT /usr/local/texlive/2014/texmf-dist/web2c/texmf.cnf
INPUT /usr/local/texlive/2014/texmf-var/web2c/pdftex/pdflatex.fmt
INPUT poster.tex
OUTPUT poster.log
INPUT baposter.cls
INPUT baposter.cls
INPUT /usr/local/texlive/2014/texmf-dist/tex/latex/base/article.cls
INPUT /usr/local/texlive/2014/texmf-dist/tex/latex/base/article.cls
INPUT /usr/local/texlive/2014/texmf-dist/tex/latex/base/size10.clo
INPUT /usr/local/texlive/2014/texmf-dist/tex/latex/base/size10.clo
INPUT /usr/local/texlive/2014/texmf-dist/tex/latex/xkeyval/xkeyval.sty
INPUT /usr/local/texlive/2014/texmf-dist/tex/latex/xkeyval/xkeyval.sty
INPUT /usr/local/texlive/2014/texmf-dist/tex/generic/xkeyval/xkeyval.tex
INPUT /usr/local/texlive/2014/texmf-dist/tex/generic/xkeyval/keyval.tex
INPUT /usr/local/texlive/2014/texmf-dist/tex/latex/tools/calc.sty
INPUT /usr/local/texlive/2014/texmf-dist/tex/latex/tools/calc.sty
INPUT /usr/local/texlive/2014/texmf-dist/tex/latex/xcolor/xcolor.sty
INPUT /usr/local/texlive/2014/texmf-dist/tex/latex/xcolor/xcolor.sty
INPUT /usr/local/texlive/2014/texmf-dist/tex/latex/latexconfig/color.cfg
INPUT /usr/local/texlive/2014/texmf-dist/tex/latex/latexconfig/color.cfg
INPUT /usr/local/texlive/2014/texmf-dist/tex/latex/pdftex-def/pdftex.def
INPUT /usr/local/texlive/2014/texmf-dist/tex/latex/pdftex-def/pdftex.def
INPUT /usr/local/texlive/2014/texmf-dist/tex/generic/oberdiek/infwarerr.sty
INPUT /usr/local/texlive/2014/texmf-dist/tex/generic/oberdiek/infwarerr.sty
INPUT /usr/local/texlive/2014/texmf-dist/tex/generic/oberdiek/ltxcmds.sty
INPUT /usr/local/texlive/2014/texmf-dist/tex/generic/oberdiek/ltxcmds.sty
INPUT /usr/local/texlive/2014/texmf-dist/tex/latex/pgf/frontendlayer/tikz.sty
INPUT /usr/local/texlive/2014/texmf-dist/tex/latex/pgf/frontendlayer/tikz.sty
INPUT /usr/local/texlive/2014/texmf-dist/tex/latex/pgf/basiclayer/pgf.sty
INPUT /usr/local/texlive/2014/texmf-dist/tex/latex/pgf/basiclayer/pgf.sty
INPUT /usr/local/texlive/2014/texmf-dist/tex/latex/pgf/utilities/pgfrcs.sty
INPUT /usr/local/texlive/2014/texmf-dist/tex/latex/pgf/utilities/pgfrcs.sty
INPUT /usr/local/texlive/2014/texmf-dist/tex/generic/pgf/utilities/pgfutil-common.tex
INPUT /usr/local/texlive/2014/texmf-dist/tex/generic/pgf/utilities/pgfutil-common-lists.tex
INPUT /usr/local/texlive/2014/texmf-dist/tex/generic/pgf/utilities/pgfutil-latex.def
INPUT /usr/local/texlive/2014/texmf-dist/tex/latex/ms/everyshi.sty
INPUT /usr/local/texlive/2014/texmf-dist/tex/latex/ms/everyshi.sty
INPUT /usr/local/texlive/2014/texmf-dist/tex/generic/pgf/utilities/pgfrcs.code.tex
INPUT /usr/local/texlive/2014/texmf-dist/tex/generic/pgf/utilities/pgfrcs.code.tex
INPUT /usr/local/texlive/2014/texmf-dist/tex/latex/pgf/basiclayer/pgfcore.sty
INPUT /usr/local/texlive/2014/texmf-dist/tex/latex/pgf/basiclayer/pgfcore.sty
INPUT /usr/local/texlive/2014/texmf-dist/tex/latex/graphics/graphicx.sty
INPUT /usr/local/texlive/2014/texmf-dist/tex/latex/graphics/graphicx.sty
INPUT /usr/local/texlive/2014/texmf-dist/tex/latex/graphics/graphics.sty
INPUT /usr/local/texlive/2014/texmf-dist/tex/latex/graphics/graphics.sty
INPUT /usr/local/texlive/2014/texmf-dist/tex/latex/graphics/trig.sty
INPUT /usr/local/texlive/2014/texmf-dist/tex/latex/graphics/trig.sty
INPUT /usr/local/texlive/2014/texmf-dist/tex/latex/latexconfig/graphics.cfg
INPUT /usr/local/texlive/2014/texmf-dist/tex/latex/latexconfig/graphics.cfg
INPUT /usr/local/texlive/2014/texmf-dist/tex/latex/pgf/systemlayer/pgfsys.sty
INPUT /usr/local/texlive/2014/texmf-dist/tex/latex/pgf/systemlayer/pgfsys.sty
INPUT /usr/local/texlive/2014/texmf-dist/tex/generic/pgf/systemlayer/pgfsys.code.tex
INPUT /usr/local/texlive/2014/texmf-dist/tex/generic/pgf/systemlayer/pgfsys.code.tex
INPUT /usr/local/texlive/2014/texmf-dist/tex/generic/pgf/utilities/pgfkeys.code.tex
INPUT /usr/local/texlive/2014/texmf-dist/tex/generic/pgf/utilities/pgfkeysfiltered.code.tex
INPUT /usr/local/texlive/2014/texmf-dist/tex/generic/pgf/systemlayer/pgf.cfg
INPUT /usr/local/texlive/2014/texmf-dist/tex/generic/pgf/systemlayer/pgfsys-pdftex.def
INPUT /usr/local/texlive/2014/texmf-dist/tex/generic/pgf/systemlayer/pgfsys-pdftex.def
INPUT /usr/local/texlive/2014/texmf-dist/tex/generic/pgf/systemlayer/pgfsys-common-pdf.def
INPUT /usr/local/texlive/2014/texmf-dist/tex/generic/pgf/systemlayer/pgfsyssoftpath.code.tex
INPUT /usr/local/texlive/2014/texmf-dist/tex/generic/pgf/systemlayer/pgfsyssoftpath.code.tex
INPUT /usr/local/texlive/2014/texmf-dist/tex/generic/pgf/systemlayer/pgfsysprotocol.code.tex
INPUT /usr/local/texlive/2014/texmf-dist/tex/generic/pgf/systemlayer/pgfsysprotocol.code.tex
INPUT /usr/local/texlive/2014/texmf-dist/tex/generic/pgf/basiclayer/pgfcore.code.tex
INPUT /usr/local/texlive/2014/texmf-dist/tex/generic/pgf/basiclayer/pgfcore.code.tex
INPUT /usr/local/texlive/2014/texmf-dist/tex/generic/pgf/math/pgfmath.code.tex
INPUT /usr/local/texlive/2014/texmf-dist/tex/generic/pgf/math/pgfmathcalc.code.tex
INPUT /usr/local/texlive/2014/texmf-dist/tex/generic/pgf/math/pgfmathutil.code.tex
INPUT /usr/local/texlive/2014/texmf-dist/tex/generic/pgf/math/pgfmathparser.code.tex
INPUT /usr/local/texlive/2014/texmf-dist/tex/generic/pgf/math/pgfmathfunctions.code.tex
INPUT /usr/local/texlive/2014/texmf-dist/tex/generic/pgf/math/pgfmathfunctions.basic.code.tex
INPUT /usr/local/texlive/2014/texmf-dist/tex/generic/pgf/math/pgfmathfunctions.trigonometric.code.tex
INPUT /usr/local/texlive/2014/texmf-dist/tex/generic/pgf/math/pgfmathfunctions.random.code.tex
INPUT /usr/local/texlive/2014/texmf-dist/tex/generic/pgf/math/pgfmathfunctions.comparison.code.tex
INPUT /usr/local/texlive/2014/texmf-dist/tex/generic/pgf/math/pgfmathfunctions.base.code.tex
INPUT /usr/local/texlive/2014/texmf-dist/tex/generic/pgf/math/pgfmathfunctions.round.code.tex
INPUT /usr/local/texlive/2014/texmf-dist/tex/generic/pgf/math/pgfmathfunctions.misc.code.tex
INPUT /usr/local/texlive/2014/texmf-dist/tex/generic/pgf/math/pgfmathfunctions.integerarithmetics.code.tex
INPUT /usr/local/texlive/2014/texmf-dist/tex/generic/pgf/math/pgfmathfloat.code.tex
INPUT /usr/local/texlive/2014/texmf-dist/tex/generic/pgf/basiclayer/pgfcorepoints.code.tex
INPUT /usr/local/texlive/2014/texmf-dist/tex/generic/pgf/basiclayer/pgfcorepathconstruct.code.tex
INPUT /usr/local/texlive/2014/texmf-dist/tex/generic/pgf/basiclayer/pgfcorepathusage.code.tex
INPUT /usr/local/texlive/2014/texmf-dist/tex/generic/pgf/basiclayer/pgfcorescopes.code.tex
INPUT /usr/local/texlive/2014/texmf-dist/tex/generic/pgf/basiclayer/pgfcoregraphicstate.code.tex
INPUT /usr/local/texlive/2014/texmf-dist/tex/generic/pgf/basiclayer/pgfcoretransformations.code.tex
INPUT /usr/local/texlive/2014/texmf-dist/tex/generic/pgf/basiclayer/pgfcorequick.code.tex
INPUT /usr/local/texlive/2014/texmf-dist/tex/generic/pgf/basiclayer/pgfcoreobjects.code.tex
INPUT /usr/local/texlive/2014/texmf-dist/tex/generic/pgf/basiclayer/pgfcorepathprocessing.code.tex
INPUT /usr/local/texlive/2014/texmf-dist/tex/generic/pgf/basiclayer/pgfcorearrows.code.tex
INPUT /usr/local/texlive/2014/texmf-dist/tex/generic/pgf/basiclayer/pgfcoreshade.code.tex
INPUT /usr/local/texlive/2014/texmf-dist/tex/generic/pgf/basiclayer/pgfcoreimage.code.tex
INPUT /usr/local/texlive/2014/texmf-dist/tex/generic/pgf/basiclayer/pgfcoreexternal.code.tex
INPUT /usr/local/texlive/2014/texmf-dist/tex/generic/pgf/basiclayer/pgfcorelayers.code.tex
INPUT /usr/local/texlive/2014/texmf-dist/tex/generic/pgf/basiclayer/pgfcoretransparency.code.tex
INPUT /usr/local/texlive/2014/texmf-dist/tex/generic/pgf/basiclayer/pgfcorepatterns.code.tex
INPUT /usr/local/texlive/2014/texmf-dist/tex/generic/pgf/modules/pgfmoduleshapes.code.tex
INPUT /usr/local/texlive/2014/texmf-dist/tex/generic/pgf/modules/pgfmoduleplot.code.tex
INPUT /usr/local/texlive/2014/texmf-dist/tex/latex/pgf/compatibility/pgfcomp-version-0-65.sty
INPUT /usr/local/texlive/2014/texmf-dist/tex/latex/pgf/compatibility/pgfcomp-version-0-65.sty
INPUT /usr/local/texlive/2014/texmf-dist/tex/latex/pgf/compatibility/pgfcomp-version-1-18.sty
INPUT /usr/local/texlive/2014/texmf-dist/tex/latex/pgf/compatibility/pgfcomp-version-1-18.sty
INPUT /usr/local/texlive/2014/texmf-dist/tex/latex/pgf/utilities/pgffor.sty
INPUT /usr/local/texlive/2014/texmf-dist/tex/latex/pgf/utilities/pgffor.sty
INPUT /usr/local/texlive/2014/texmf-dist/tex/latex/pgf/utilities/pgfkeys.sty
INPUT /usr/local/texlive/2014/texmf-dist/tex/latex/pgf/utilities/pgfkeys.sty
INPUT /usr/local/texlive/2014/texmf-dist/tex/generic/pgf/utilities/pgfkeys.code.tex
INPUT /usr/local/texlive/2014/texmf-dist/tex/generic/pgf/utilities/pgfkeys.code.tex
INPUT /usr/local/texlive/2014/texmf-dist/tex/latex/pgf/math/pgfmath.sty
INPUT /usr/local/texlive/2014/texmf-dist/tex/latex/pgf/math/pgfmath.sty
INPUT /usr/local/texlive/2014/texmf-dist/tex/generic/pgf/math/pgfmath.code.tex
INPUT /usr/local/texlive/2014/texmf-dist/tex/generic/pgf/math/pgfmath.code.tex
INPUT /usr/local/texlive/2014/texmf-dist/tex/generic/pgf/utilities/pgffor.code.tex
INPUT /usr/local/texlive/2014/texmf-dist/tex/generic/pgf/utilities/pgffor.code.tex
INPUT /usr/local/texlive/2014/texmf-dist/tex/generic/pgf/math/pgfmath.code.tex
INPUT /usr/local/texlive/2014/texmf-dist/tex/generic/pgf/frontendlayer/tikz/tikz.code.tex
INPUT /usr/local/texlive/2014/texmf-dist/tex/generic/pgf/frontendlayer/tikz/tikz.code.tex
INPUT /usr/local/texlive/2014/texmf-dist/tex/generic/pgf/libraries/pgflibraryplothandlers.code.tex
INPUT /usr/local/texlive/2014/texmf-dist/tex/generic/pgf/libraries/pgflibraryplothandlers.code.tex
INPUT /usr/local/texlive/2014/texmf-dist/tex/generic/pgf/modules/pgfmodulematrix.code.tex
INPUT /usr/local/texlive/2014/texmf-dist/tex/generic/pgf/frontendlayer/tikz/libraries/tikzlibrarytopaths.code.tex
INPUT /usr/local/texlive/2014/texmf-dist/tex/generic/pgf/frontendlayer/tikz/libraries/tikzlibrarytopaths.code.tex
INPUT /usr/local/texlive/2014/texmf-dist/tex/latex/base/ifthen.sty
INPUT /usr/local/texlive/2014/texmf-dist/tex/latex/base/ifthen.sty
INPUT /usr/local/texlive/2014/texmf-dist/tex/latex/base/fontenc.sty
INPUT /usr/local/texlive/2014/texmf-dist/tex/latex/base/fontenc.sty
INPUT /usr/local/texlive/2014/texmf-dist/tex/latex/base/t1enc.def
INPUT /usr/local/texlive/2014/texmf-dist/tex/latex/base/t1enc.def
INPUT /usr/local/texlive/2014/texmf-dist/fonts/map/fontname/texfonts.map
INPUT /usr/local/texlive/2014/texmf-dist/fonts/map/fontname/texfonts.map
INPUT /usr/local/texlive/2014/texmf-dist/fonts/tfm/jknappen/ec/ecrm1000.tfm
INPUT /usr/local/texlive/2014/texmf-dist/tex/generic/pgf/frontendlayer/tikz/libraries/tikzlibrarydecorations.code.tex
INPUT /usr/local/texlive/2014/texmf-dist/tex/generic/pgf/frontendlayer/tikz/libraries/tikzlibrarydecorations.code.tex
INPUT /usr/local/texlive/2014/texmf-dist/tex/generic/pgf/modules/pgfmoduledecorations.code.tex
INPUT /usr/local/texlive/2014/texmf-dist/tex/latex/geometry/geometry.sty
INPUT /usr/local/texlive/2014/texmf-dist/tex/latex/geometry/geometry.sty
INPUT /usr/local/texlive/2014/texmf-dist/tex/generic/oberdiek/ifpdf.sty
INPUT /usr/local/texlive/2014/texmf-dist/tex/generic/oberdiek/ifpdf.sty
INPUT /usr/local/texlive/2014/texmf-dist/tex/generic/oberdiek/ifvtex.sty
INPUT /usr/local/texlive/2014/texmf-dist/tex/generic/oberdiek/ifvtex.sty
INPUT /usr/local/texlive/2014/texmf-dist/tex/generic/ifxetex/ifxetex.sty
INPUT /usr/local/texlive/2014/texmf-dist/tex/generic/ifxetex/ifxetex.sty
INPUT /usr/local/texlive/2014/texmf-dist/tex/latex/pgf/utilities/pgfpages.sty
INPUT /usr/local/texlive/2014/texmf-dist/tex/latex/pgf/utilities/pgfpages.sty
INPUT /usr/local/texlive/2014/texmf-dist/tex/latex/psnfss/times.sty
INPUT /usr/local/texlive/2014/texmf-dist/tex/latex/psnfss/times.sty
INPUT /usr/local/texlive/2014/texmf-dist/tex/latex/url/url.sty
INPUT /usr/local/texlive/2014/texmf-dist/tex/latex/url/url.sty
INPUT /usr/local/texlive/2014/texmf-dist/tex/latex/tools/array.sty
INPUT /usr/local/texlive/2014/texmf-dist/tex/latex/tools/array.sty
INPUT /usr/local/texlive/2014/texmf-dist/tex/latex/amscls/amsthm.sty
INPUT /usr/local/texlive/2014/texmf-dist/tex/latex/amscls/amsthm.sty
INPUT /usr/local/texlive/2014/texmf-dist/tex/latex/oberdiek/epstopdf.sty
INPUT /usr/local/texlive/2014/texmf-dist/tex/latex/oberdiek/epstopdf.sty
INPUT /usr/local/texlive/2014/texmf-dist/tex/latex/oberdiek/epstopdf-base.sty
INPUT /usr/local/texlive/2014/texmf-dist/tex/latex/oberdiek/epstopdf-base.sty
INPUT /usr/local/texlive/2014/texmf-dist/tex/latex/oberdiek/grfext.sty
INPUT /usr/local/texlive/2014/texmf-dist/tex/latex/oberdiek/grfext.sty
INPUT /usr/local/texlive/2014/texmf-dist/tex/generic/oberdiek/kvdefinekeys.sty
INPUT /usr/local/texlive/2014/texmf-dist/tex/generic/oberdiek/kvdefinekeys.sty
INPUT /usr/local/texlive/2014/texmf-dist/tex/latex/oberdiek/kvoptions.sty
INPUT /usr/local/texlive/2014/texmf-dist/tex/latex/oberdiek/kvoptions.sty
INPUT /usr/local/texlive/2014/texmf-dist/tex/generic/oberdiek/kvsetkeys.sty
INPUT /usr/local/texlive/2014/texmf-dist/tex/generic/oberdiek/kvsetkeys.sty
INPUT /usr/local/texlive/2014/texmf-dist/tex/generic/oberdiek/etexcmds.sty
INPUT /usr/local/texlive/2014/texmf-dist/tex/generic/oberdiek/etexcmds.sty
INPUT /usr/local/texlive/2014/texmf-dist/tex/generic/oberdiek/ifluatex.sty
INPUT /usr/local/texlive/2014/texmf-dist/tex/generic/oberdiek/ifluatex.sty
INPUT /usr/local/texlive/2014/texmf-dist/tex/generic/oberdiek/pdftexcmds.sty
INPUT /usr/local/texlive/2014/texmf-dist/tex/generic/oberdiek/pdftexcmds.sty
INPUT /usr/local/texlive/2014/texmf-dist/tex/latex/latexconfig/epstopdf-sys.cfg
INPUT /usr/local/texlive/2014/texmf-dist/tex/latex/latexconfig/epstopdf-sys.cfg
INPUT /usr/local/texlive/2014/texmf-dist/tex/latex/amsmath/amsmath.sty
INPUT /usr/local/texlive/2014/texmf-dist/tex/latex/amsmath/amsmath.sty
INPUT /usr/local/texlive/2014/texmf-dist/tex/latex/amsmath/amstext.sty
INPUT /usr/local/texlive/2014/texmf-dist/tex/latex/amsmath/amstext.sty
INPUT /usr/local/texlive/2014/texmf-dist/tex/latex/amsmath/amsgen.sty
INPUT /usr/local/texlive/2014/texmf-dist/tex/latex/amsmath/amsgen.sty
INPUT /usr/local/texlive/2014/texmf-dist/tex/latex/amsmath/amsbsy.sty
INPUT /usr/local/texlive/2014/texmf-dist/tex/latex/amsmath/amsbsy.sty
INPUT /usr/local/texlive/2014/texmf-dist/tex/latex/amsmath/amsopn.sty
INPUT /usr/local/texlive/2014/texmf-dist/tex/latex/amsmath/amsopn.sty
INPUT /usr/local/texlive/2014/texmf-dist/tex/latex/amsfonts/amssymb.sty
INPUT /usr/local/texlive/2014/texmf-dist/tex/latex/amsfonts/amssymb.sty
INPUT /usr/local/texlive/2014/texmf-dist/tex/latex/amsfonts/amsfonts.sty
INPUT /usr/local/texlive/2014/texmf-dist/tex/latex/amsfonts/amsfonts.sty
INPUT /usr/local/texlive/2014/texmf-dist/tex/latex/relsize/relsize.sty
INPUT /usr/local/texlive/2014/texmf-dist/tex/latex/relsize/relsize.sty
INPUT /usr/local/texlive/2014/texmf-dist/tex/latex/multirow/multirow.sty
INPUT /usr/local/texlive/2014/texmf-dist/tex/latex/multirow/multirow.sty
INPUT /usr/local/texlive/2014/texmf-dist/tex/latex/booktabs/booktabs.sty
INPUT /usr/local/texlive/2014/texmf-dist/tex/latex/booktabs/booktabs.sty
INPUT /usr/local/texlive/2014/texmf-dist/tex/latex/rotating/rotating.sty
INPUT /usr/local/texlive/2014/texmf-dist/tex/latex/rotating/rotating.sty
INPUT /usr/local/texlive/2014/texmf-dist/tex/latex/tools/multicol.sty
INPUT /usr/local/texlive/2014/texmf-dist/tex/latex/tools/multicol.sty
INPUT /usr/local/texlive/2014/texmf-dist/tex/latex/base/fontenc.sty
INPUT /usr/local/texlive/2014/texmf-dist/tex/latex/base/fontenc.sty
INPUT /usr/local/texlive/2014/texmf-dist/tex/latex/base/t1enc.def
INPUT /usr/local/texlive/2014/texmf-dist/tex/latex/base/t1enc.def
INPUT /usr/local/texlive/2014/texmf-dist/tex/latex/ae/ae.sty
INPUT /usr/local/texlive/2014/texmf-dist/tex/latex/ae/ae.sty
INPUT /usr/local/texlive/2014/texmf-dist/tex/latex/base/fontenc.sty
INPUT /usr/local/texlive/2014/texmf-dist/tex/latex/base/fontenc.sty
INPUT /usr/local/texlive/2014/texmf-dist/tex/latex/base/t1enc.def
INPUT /usr/local/texlive/2014/texmf-dist/tex/latex/base/t1enc.def
INPUT /usr/local/texlive/2014/texmf-dist/tex/latex/ae/t1aer.fd
INPUT /usr/local/texlive/2014/texmf-dist/tex/latex/ae/t1aer.fd
INPUT /usr/local/texlive/2014/texmf-dist/fonts/tfm/public/ae/aer10.tfm
INPUT /usr/local/texlive/2014/texmf-dist/tex/latex/graphics/epsfig.sty
INPUT /usr/local/texlive/2014/texmf-dist/tex/latex/graphics/epsfig.sty
INPUT /usr/local/texlive/2014/texmf-dist/tex/latex/tools/layout.sty
INPUT /usr/local/texlive/2014/texmf-dist/tex/latex/tools/layout.sty
INPUT everything.tex
INPUT everything.tex
INPUT /usr/local/texlive/2014/texmf-dist/tex/latex/algorithms/algorithmic.sty
INPUT /usr/local/texlive/2014/texmf-dist/tex/latex/algorithms/algorithmic.sty
INPUT /usr/local/texlive/2014/texmf-dist/tex/latex/algorithms/algorithm.sty
INPUT /usr/local/texlive/2014/texmf-dist/tex/latex/algorithms/algorithm.sty
INPUT /usr/local/texlive/2014/texmf-dist/tex/latex/float/float.sty
INPUT /usr/local/texlive/2014/texmf-dist/tex/latex/float/float.sty
INPUT /usr/local/texlive/2014/texmf-dist/tex/latex/tools/verbatim.sty
INPUT /usr/local/texlive/2014/texmf-dist/tex/latex/tools/verbatim.sty
INPUT poster.aux
INPUT poster.aux
OUTPUT poster.aux
INPUT /usr/local/texlive/2014/texmf-dist/tex/context/base/supp-pdf.mkii
INPUT /usr/local/texlive/2014/texmf-dist/tex/context/base/supp-pdf.mkii
INPUT /usr/local/texlive/2014/texmf-dist/fonts/tfm/public/amsfonts/cmextra/cmex7.tfm
INPUT /usr/local/texlive/2014/texmf-dist/fonts/tfm/public/amsfonts/cmextra/cmex7.tfm
INPUT /usr/local/texlive/2014/texmf-dist/tex/latex/amsfonts/umsa.fd
INPUT /usr/local/texlive/2014/texmf-dist/tex/latex/amsfonts/umsa.fd
INPUT /usr/local/texlive/2014/texmf-dist/fonts/tfm/public/amsfonts/symbols/msam10.tfm
INPUT /usr/local/texlive/2014/texmf-dist/fonts/tfm/public/amsfonts/symbols/msam7.tfm
INPUT /usr/local/texlive/2014/texmf-dist/fonts/tfm/public/amsfonts/symbols/msam5.tfm
INPUT /usr/local/texlive/2014/texmf-dist/tex/latex/amsfonts/umsb.fd
INPUT /usr/local/texlive/2014/texmf-dist/tex/latex/amsfonts/umsb.fd
INPUT /usr/local/texlive/2014/texmf-dist/fonts/tfm/public/amsfonts/symbols/msbm10.tfm
INPUT /usr/local/texlive/2014/texmf-dist/fonts/tfm/public/amsfonts/symbols/msbm7.tfm
INPUT /usr/local/texlive/2014/texmf-dist/fonts/tfm/public/amsfonts/symbols/msbm5.tfm
INPUT /usr/local/texlive/2014/texmf-dist/tex/latex/doublestroke/Udsrom.fd
INPUT /usr/local/texlive/2014/texmf-dist/tex/latex/doublestroke/Udsrom.fd
INPUT /usr/local/texlive/2014/texmf-dist/fonts/tfm/public/doublestroke/dsrom10.tfm
INPUT /usr/local/texlive/2014/texmf-dist/fonts/tfm/public/doublestroke/dsrom8.tfm
INPUT /usr/local/texlive/2014/texmf-dist/fonts/tfm/public/doublestroke/dsrom8.tfm
INPUT logos/lehigh_university.png
INPUT ./logos/lehigh_university.png
OUTPUT poster.pdf
INPUT ./logos/lehigh_university.png
INPUT logos/coral.png
INPUT ./logos/coral.png
INPUT ./logos/coral.png
INPUT logos/ise_department.jpg
INPUT ./logos/ise_department.jpg
INPUT ./logos/ise_department.jpg
INPUT /usr/local/texlive/2014/texmf-dist/fonts/tfm/public/ae/aebx10.tfm
INPUT /usr/local/texlive/2014/texmf-dist/fonts/tfm/public/ae/aebx12.tfm
INPUT /usr/local/texlive/2014/texmf-dist/fonts/tfm/public/ae/aer17.tfm
INPUT /usr/local/texlive/2014/texmf-dist/fonts/tfm/public/ae/aecsc10.tfm
INPUT /usr/local/texlive/2014/texmf-dist/fonts/tfm/public/ae/aecsc10.tfm
INPUT /usr/local/texlive/2014/texmf-dist/fonts/tfm/public/cm/cmr17.tfm
INPUT /usr/local/texlive/2014/texmf-dist/fonts/tfm/public/cm/cmr12.tfm
INPUT /usr/local/texlive/2014/texmf-dist/fonts/tfm/public/cm/cmmi12.tfm
INPUT /usr/local/texlive/2014/texmf-dist/fonts/tfm/public/cm/cmmi12.tfm
INPUT /usr/local/texlive/2014/texmf-dist/fonts/tfm/public/cm/cmsy10.tfm
INPUT /usr/local/texlive/2014/texmf-dist/fonts/tfm/public/cm/cmsy10.tfm
INPUT /usr/local/texlive/2014/texmf-dist/fonts/tfm/public/cm/cmex10.tfm
INPUT /usr/local/texlive/2014/texmf-dist/fonts/tfm/public/cm/cmex10.tfm
INPUT /usr/local/texlive/2014/texmf-dist/fonts/tfm/public/amsfonts/symbols/msam10.tfm
INPUT /usr/local/texlive/2014/texmf-dist/fonts/tfm/public/amsfonts/symbols/msam10.tfm
INPUT /usr/local/texlive/2014/texmf-dist/fonts/tfm/public/amsfonts/symbols/msbm10.tfm
INPUT /usr/local/texlive/2014/texmf-dist/fonts/tfm/public/amsfonts/symbols/msbm10.tfm
INPUT /usr/local/texlive/2014/texmf-dist/fonts/tfm/public/doublestroke/dsrom12.tfm
INPUT /usr/local/texlive/2014/texmf-dist/fonts/tfm/public/doublestroke/dsrom12.tfm
INPUT /usr/local/texlive/2014/texmf-dist/fonts/tfm/public/ae/aer12.tfm
INPUT /usr/local/texlive/2014/texmf-dist/tex/latex/ae/t1aett.fd
INPUT /usr/local/texlive/2014/texmf-dist/tex/latex/ae/t1aett.fd
INPUT /usr/local/texlive/2014/texmf-dist/fonts/tfm/public/ae/aett12.tfm
INPUT images/partition1.png
INPUT ./images/partition1.png
INPUT ./images/partition1.png
INPUT images/partition2.png
INPUT ./images/partition2.png
INPUT ./images/partition2.png
INPUT /usr/local/texlive/2014/texmf-dist/fonts/tfm/public/ae/aecsc10.tfm
INPUT /usr/local/texlive/2014/texmf-dist/fonts/tfm/public/ae/aecsc10.tfm
INPUT /usr/local/texlive/2014/texmf-dist/fonts/tfm/public/ae/aeti10.tfm
INPUT /usr/local/texlive/2014/texmf-dist/fonts/tfm/public/ae/aeti12.tfm
INPUT /usr/local/texlive/2014/texmf-dist/fonts/tfm/public/ae/aer8.tfm
INPUT eps/kdd_32_1.eps
INPUT ./eps/kdd_32_1.eps
INPUT ./eps/kdd_32_1.eps
INPUT ./eps/kdd_32_1-eps-converted-to.pdf
INPUT ./eps/kdd_32_1-eps-converted-to.pdf
INPUT ./eps/kdd_32_1.eps
INPUT ./eps/kdd_32_1-eps-converted-to.pdf
INPUT ./eps/kdd_32_1-eps-converted-to.pdf
INPUT ./eps/kdd_32_1-eps-converted-to.pdf
INPUT eps/kdd_32_2.eps
INPUT ./eps/kdd_32_2.eps
INPUT ./eps/kdd_32_2.eps
INPUT ./eps/kdd_32_2-eps-converted-to.pdf
INPUT ./eps/kdd_32_2-eps-converted-to.pdf
INPUT ./eps/kdd_32_2.eps
INPUT ./eps/kdd_32_2-eps-converted-to.pdf
INPUT ./eps/kdd_32_2-eps-converted-to.pdf
INPUT ./eps/kdd_32_2-eps-converted-to.pdf
INPUT eps/kdd_32_3.eps
INPUT ./eps/kdd_32_3.eps
INPUT ./eps/kdd_32_3.eps
INPUT ./eps/kdd_32_3-eps-converted-to.pdf
INPUT ./eps/kdd_32_3-eps-converted-to.pdf
INPUT ./eps/kdd_32_3.eps
INPUT ./eps/kdd_32_3-eps-converted-to.pdf
INPUT ./eps/kdd_32_3-eps-converted-to.pdf
INPUT ./eps/kdd_32_3-eps-converted-to.pdf
INPUT eps/news_8_1.eps
INPUT ./eps/news_8_1.eps
INPUT ./eps/news_8_1.eps
INPUT ./eps/news_8_1-eps-converted-to.pdf
INPUT ./eps/news_8_1-eps-converted-to.pdf
INPUT ./eps/news_8_1.eps
INPUT ./eps/news_8_1-eps-converted-to.pdf
INPUT ./eps/news_8_1-eps-converted-to.pdf
INPUT ./eps/news_8_1-eps-converted-to.pdf
INPUT eps/news_8_2.eps
INPUT ./eps/news_8_2.eps
INPUT ./eps/news_8_2.eps
INPUT ./eps/news_8_2-eps-converted-to.pdf
INPUT ./eps/news_8_2-eps-converted-to.pdf
INPUT ./eps/news_8_2.eps
INPUT ./eps/news_8_2-eps-converted-to.pdf
INPUT ./eps/news_8_2-eps-converted-to.pdf
INPUT ./eps/news_8_2-eps-converted-to.pdf
INPUT eps/news_8_3.eps
INPUT ./eps/news_8_3.eps
INPUT ./eps/news_8_3.eps
INPUT ./eps/news_8_3-eps-converted-to.pdf
INPUT ./eps/news_8_3-eps-converted-to.pdf
INPUT ./eps/news_8_3.eps
INPUT ./eps/news_8_3-eps-converted-to.pdf
INPUT ./eps/news_8_3-eps-converted-to.pdf
INPUT ./eps/news_8_3-eps-converted-to.pdf
INPUT /usr/local/texlive/2014/texmf-dist/fonts/tfm/public/ae/aer9.tfm
INPUT /usr/local/texlive/2014/texmf-dist/fonts/vf/public/ae/aecsc10.vf
INPUT /usr/local/texlive/2014/texmf-dist/fonts/tfm/public/cm/cmcsc10.tfm
INPUT /usr/local/texlive/2014/texmf-dist/fonts/tfm/public/cm/cmmi10.tfm
INPUT /usr/local/texlive/2014/texmf-dist/fonts/tfm/public/cm/cmmi10.tfm
INPUT /usr/local/texlive/2014/texmf-dist/fonts/tfm/public/cm/cmu10.tfm
INPUT /usr/local/texlive/2014/texmf-var/fonts/map/pdftex/updmap/pdftex.map
INPUT /usr/local/texlive/2014/texmf-dist/fonts/vf/public/ae/aer12.vf
INPUT /usr/local/texlive/2014/texmf-dist/fonts/tfm/public/cm/cmr12.tfm
INPUT /usr/local/texlive/2014/texmf-dist/fonts/tfm/public/cm/cmmi12.tfm
INPUT /usr/local/texlive/2014/texmf-dist/fonts/tfm/public/cm/cmmi12.tfm
INPUT /usr/local/texlive/2014/texmf-dist/fonts/tfm/public/cm/cmsy10.tfm
INPUT /usr/local/texlive/2014/texmf-dist/fonts/tfm/public/cm/cmu10.tfm
INPUT /usr/local/texlive/2014/texmf-dist/fonts/vf/public/ae/aett12.vf
INPUT /usr/local/texlive/2014/texmf-dist/fonts/tfm/public/cm/cmtt12.tfm
INPUT /usr/local/texlive/2014/texmf-dist/fonts/tfm/public/cm/cmmib10.tfm
INPUT /usr/local/texlive/2014/texmf-dist/fonts/vf/public/ae/aecsc10.vf
INPUT /usr/local/texlive/2014/texmf-dist/fonts/tfm/public/cm/cmcsc10.tfm
INPUT /usr/local/texlive/2014/texmf-dist/fonts/tfm/public/cm/cmmi10.tfm
INPUT /usr/local/texlive/2014/texmf-dist/fonts/tfm/public/cm/cmmi10.tfm
INPUT /usr/local/texlive/2014/texmf-dist/fonts/vf/public/ae/aer10.vf
INPUT /usr/local/texlive/2014/texmf-dist/fonts/tfm/public/cm/cmmi10.tfm
INPUT /usr/local/texlive/2014/texmf-dist/fonts/tfm/public/cm/cmu10.tfm
INPUT /usr/local/texlive/2014/texmf-dist/fonts/vf/public/ae/aebx10.vf
INPUT /usr/local/texlive/2014/texmf-dist/fonts/tfm/public/cm/cmbx10.tfm
INPUT /usr/local/texlive/2014/texmf-dist/fonts/tfm/public/cm/cmmib10.tfm
INPUT /usr/local/texlive/2014/texmf-dist/fonts/tfm/public/cm/cmmib10.tfm
INPUT /usr/local/texlive/2014/texmf-dist/fonts/tfm/public/cm/cmbsy10.tfm
INPUT /usr/local/texlive/2014/texmf-dist/fonts/tfm/public/cm/cmbxti10.tfm
INPUT /usr/local/texlive/2014/texmf-dist/fonts/vf/public/ae/aeti10.vf
INPUT /usr/local/texlive/2014/texmf-dist/fonts/tfm/public/cm/cmti10.tfm
INPUT /usr/local/texlive/2014/texmf-dist/fonts/tfm/public/cm/cmsl10.tfm
INPUT /usr/local/texlive/2014/texmf-dist/fonts/vf/public/ae/aer8.vf
INPUT /usr/local/texlive/2014/texmf-dist/fonts/tfm/public/cm/cmr8.tfm
INPUT /usr/local/texlive/2014/texmf-dist/fonts/tfm/public/cm/cmmi8.tfm
INPUT /usr/local/texlive/2014/texmf-dist/fonts/tfm/public/cm/cmmi8.tfm
INPUT /usr/local/texlive/2014/texmf-dist/fonts/tfm/public/cm/cmsy8.tfm
INPUT /usr/local/texlive/2014/texmf-dist/fonts/tfm/public/cm/cmu10.tfm
INPUT /usr/local/texlive/2014/texmf-dist/fonts/vf/public/ae/aer9.vf
INPUT /usr/local/texlive/2014/texmf-dist/fonts/tfm/public/cm/cmr9.tfm
INPUT /usr/local/texlive/2014/texmf-dist/fonts/tfm/public/cm/cmmi9.tfm
INPUT /usr/local/texlive/2014/texmf-dist/fonts/tfm/public/cm/cmmi9.tfm
INPUT /usr/local/texlive/2014/texmf-dist/fonts/tfm/public/cm/cmsy9.tfm
INPUT /usr/local/texlive/2014/texmf-dist/fonts/tfm/public/cm/cmu10.tfm
INPUT poster.aux
INPUT /usr/local/texlive/2014/texmf-dist/fonts/type1/public/amsfonts/cm/cmbx10.pfb
INPUT /usr/local/texlive/2014/texmf-dist/fonts/type1/public/amsfonts/cm/cmcsc10.pfb
INPUT /usr/local/texlive/2014/texmf-dist/fonts/type1/public/amsfonts/cm/cmex10.pfb
INPUT /usr/local/texlive/2014/texmf-dist/fonts/type1/public/amsfonts/cm/cmmi10.pfb
INPUT /usr/local/texlive/2014/texmf-dist/fonts/type1/public/amsfonts/cm/cmmi5.pfb
INPUT /usr/local/texlive/2014/texmf-dist/fonts/type1/public/amsfonts/cm/cmmi7.pfb
INPUT /usr/local/texlive/2014/texmf-dist/fonts/type1/public/amsfonts/cm/cmmi9.pfb
INPUT /usr/local/texlive/2014/texmf-dist/fonts/type1/public/amsfonts/cm/cmr10.pfb
INPUT /usr/local/texlive/2014/texmf-dist/fonts/type1/public/amsfonts/cm/cmr12.pfb
INPUT /usr/local/texlive/2014/texmf-dist/fonts/type1/public/amsfonts/cm/cmr5.pfb
INPUT /usr/local/texlive/2014/texmf-dist/fonts/type1/public/amsfonts/cm/cmr7.pfb
INPUT /usr/local/texlive/2014/texmf-dist/fonts/type1/public/amsfonts/cm/cmr8.pfb
INPUT /usr/local/texlive/2014/texmf-dist/fonts/type1/public/amsfonts/cm/cmr9.pfb
INPUT /usr/local/texlive/2014/texmf-dist/fonts/type1/public/amsfonts/cm/cmsy10.pfb
INPUT /usr/local/texlive/2014/texmf-dist/fonts/type1/public/amsfonts/cm/cmsy5.pfb
INPUT /usr/local/texlive/2014/texmf-dist/fonts/type1/public/amsfonts/cm/cmsy7.pfb
INPUT /usr/local/texlive/2014/texmf-dist/fonts/type1/public/amsfonts/cm/cmti10.pfb
INPUT /usr/local/texlive/2014/texmf-dist/fonts/type1/public/amsfonts/cm/cmtt12.pfb
INPUT /usr/local/texlive/2014/texmf-dist/fonts/type1/public/amsfonts/symbols/msbm10.pfb
INPUT /usr/local/texlive/2014/texmf-dist/fonts/type1/public/amsfonts/symbols/msbm7.pfb
