%!PS-Adobe-2.0 EPSF-1.2
%%Creator: MATLAB, The MathWorks, Inc. Version 7.14.0.739 (R2012a). Operating System: Microsoft Windows 7.
%%Title: .\a1a_DiSCO-F.eps
%%CreationDate: 10/20/2015  21:37:54
%%DocumentNeededFonts: AvantGarde-Book
%%+ Helvetica
%%+ AvantGarde-Demi
%%DocumentProcessColors: Cyan Magenta Yellow Black
%%Extensions: CMYK
%%Pages: 1
%%BoundingBox:   -52    88   670   709
%%EndComments

%%BeginProlog
% MathWorks dictionary
/MathWorks 160 dict begin
% definition operators
/bdef {bind def} bind def
/ldef {load def} bind def
/xdef {exch def} bdef
/xstore {exch store} bdef
% operator abbreviations
/c  /clip ldef
/cc /concat ldef
/cp /closepath ldef
/gr /grestore ldef
/gs /gsave ldef
/mt /moveto ldef
/np /newpath ldef
/cm /currentmatrix ldef
/sm /setmatrix ldef
/rm /rmoveto ldef
/rl /rlineto ldef
/s {show newpath} bdef
/sc {setcmykcolor} bdef
/sr /setrgbcolor ldef
/sg /setgray ldef
/w /setlinewidth ldef
/j /setlinejoin ldef
/cap /setlinecap ldef
/rc {rectclip} bdef
/rf {rectfill} bdef
% page state control
/pgsv () def
/bpage {/pgsv save def} bdef
/epage {pgsv restore} bdef
/bplot /gsave ldef
/eplot {stroke grestore} bdef
% orientation switch
/portraitMode 0 def /landscapeMode 1 def /rotateMode 2 def
% coordinate system mappings
/dpi2point 0 def
% font control
/FontSize 0 def
/FMS {/FontSize xstore findfont [FontSize 0 0 FontSize neg 0 0]
  makefont setfont} bdef
/ISOLatin1Encoding where {pop /WindowsLatin1Encoding 256 array bdef
ISOLatin1Encoding WindowsLatin1Encoding copy pop
/.notdef/.notdef/quotesinglbase/florin/quotedblbase/ellipsis/dagger
/daggerdbl/circumflex/perthousand/Scaron/guilsinglleft/OE/.notdef/.notdef
/.notdef/.notdef/quoteleft/quoteright/quotedblleft/quotedblright/bullet
/endash/emdash/tilde/trademark/scaron/guilsinglright/oe/.notdef/.notdef
/Ydieresis WindowsLatin1Encoding 128 32 getinterval astore pop}
{/WindowsLatin1Encoding StandardEncoding bdef} ifelse
/reencode {exch dup where {pop load} {pop StandardEncoding} ifelse
  exch dup 3 1 roll findfont dup length dict begin
  { 1 index /FID ne {def}{pop pop} ifelse } forall
  /Encoding exch def currentdict end definefont pop} bdef
/isroman {findfont /CharStrings get /Agrave known} bdef
/FMSR {3 1 roll 1 index dup isroman {reencode} {pop pop} ifelse
  exch FMS} bdef
/csm {1 dpi2point div -1 dpi2point div scale neg translate
 dup landscapeMode eq {pop -90 rotate}
  {rotateMode eq {90 rotate} if} ifelse} bdef
% line types: solid, dotted, dashed, dotdash
/SO { [] 0 setdash } bdef
/DO { [.5 dpi2point mul 4 dpi2point mul] 0 setdash } bdef
/DA { [6 dpi2point mul] 0 setdash } bdef
/DD { [.5 dpi2point mul 4 dpi2point mul 6 dpi2point mul 4
  dpi2point mul] 0 setdash } bdef
% macros for lines and objects
/L {lineto stroke} bdef
/MP {3 1 roll moveto 1 sub {rlineto} repeat} bdef
/AP {{rlineto} repeat} bdef
/PDlw -1 def
/W {/PDlw currentlinewidth def setlinewidth} def
/PP {closepath eofill} bdef
/DP {closepath stroke} bdef
/MR {4 -2 roll moveto dup  0 exch rlineto exch 0 rlineto
  neg 0 exch rlineto closepath} bdef
/FR {MR stroke} bdef
/PR {MR fill} bdef
/L1i {{currentfile picstr readhexstring pop} image} bdef
/tMatrix matrix def
/MakeOval {newpath tMatrix currentmatrix pop translate scale
0 0 1 0 360 arc tMatrix setmatrix} bdef
/FO {MakeOval stroke} bdef
/PO {MakeOval fill} bdef
/PD {currentlinewidth 2 div 0 360 arc fill
   PDlw -1 eq not {PDlw w /PDlw -1 def} if} def
/FA {newpath tMatrix currentmatrix pop translate scale
  0 0 1 5 -2 roll arc tMatrix setmatrix stroke} bdef
/PA {newpath tMatrix currentmatrix pop	translate 0 0 moveto scale
  0 0 1 5 -2 roll arc closepath tMatrix setmatrix fill} bdef
/FAn {newpath tMatrix currentmatrix pop translate scale
  0 0 1 5 -2 roll arcn tMatrix setmatrix stroke} bdef
/PAn {newpath tMatrix currentmatrix pop translate 0 0 moveto scale
  0 0 1 5 -2 roll arcn closepath tMatrix setmatrix fill} bdef
/vradius 0 def /hradius 0 def /lry 0 def
/lrx 0 def /uly 0 def /ulx 0 def /rad 0 def
/MRR {/vradius xdef /hradius xdef /lry xdef /lrx xdef /uly xdef
  /ulx xdef newpath tMatrix currentmatrix pop ulx hradius add uly
  vradius add translate hradius vradius scale 0 0 1 180 270 arc 
  tMatrix setmatrix lrx hradius sub uly vradius add translate
  hradius vradius scale 0 0 1 270 360 arc tMatrix setmatrix
  lrx hradius sub lry vradius sub translate hradius vradius scale
  0 0 1 0 90 arc tMatrix setmatrix ulx hradius add lry vradius sub
  translate hradius vradius scale 0 0 1 90 180 arc tMatrix setmatrix
  closepath} bdef
/FRR {MRR stroke } bdef
/PRR {MRR fill } bdef
/MlrRR {/lry xdef /lrx xdef /uly xdef /ulx xdef /rad lry uly sub 2 div def
  newpath tMatrix currentmatrix pop ulx rad add uly rad add translate
  rad rad scale 0 0 1 90 270 arc tMatrix setmatrix lrx rad sub lry rad
  sub translate rad rad scale 0 0 1 270 90 arc tMatrix setmatrix
  closepath} bdef
/FlrRR {MlrRR stroke } bdef
/PlrRR {MlrRR fill } bdef
/MtbRR {/lry xdef /lrx xdef /uly xdef /ulx xdef /rad lrx ulx sub 2 div def
  newpath tMatrix currentmatrix pop ulx rad add uly rad add translate
  rad rad scale 0 0 1 180 360 arc tMatrix setmatrix lrx rad sub lry rad
  sub translate rad rad scale 0 0 1 0 180 arc tMatrix setmatrix
  closepath} bdef
/FtbRR {MtbRR stroke } bdef
/PtbRR {MtbRR fill } bdef
/stri 6 array def /dtri 6 array def
/smat 6 array def /dmat 6 array def
/tmat1 6 array def /tmat2 6 array def /dif 3 array def
/asub {/ind2 exch def /ind1 exch def dup dup
  ind1 get exch ind2 get sub exch } bdef
/tri_to_matrix {
  2 0 asub 3 1 asub 4 0 asub 5 1 asub
  dup 0 get exch 1 get 7 -1 roll astore } bdef
/compute_transform {
  dmat dtri tri_to_matrix tmat1 invertmatrix 
  smat stri tri_to_matrix tmat2 concatmatrix } bdef
/ds {stri astore pop} bdef
/dt {dtri astore pop} bdef
/db {2 copy /cols xdef /rows xdef mul dup 3 mul string
  currentfile exch readhexstring pop
  dup 0 3 index getinterval /rbmap xdef
  dup 2 index dup getinterval /gbmap xdef
  1 index dup 2 mul exch getinterval /bbmap xdef pop pop}bdef
/it {gs np dtri aload pop moveto lineto lineto cp c
  cols rows 8 compute_transform 
  rbmap gbmap bbmap true 3 colorimage gr}bdef
/il {newpath moveto lineto stroke}bdef
currentdict end def
%%EndProlog

%%BeginSetup
MathWorks begin

0 cap

end
%%EndSetup

%%Page: 1 1
%%BeginPageSetup
%%PageBoundingBox:   -52    88   670   709
MathWorks begin
bpage
%%EndPageSetup

%%BeginObject: obj1
bplot

/dpi2point 12 def
portraitMode -0636 8460 csm

    8   -48  8679  7447 MR c np
88 dict begin %Colortable dictionary
/c0 { 0.000000 0.000000 0.000000 sr} bdef
/c1 { 1.000000 1.000000 1.000000 sr} bdef
/c2 { 0.900000 0.000000 0.000000 sr} bdef
/c3 { 0.000000 0.820000 0.000000 sr} bdef
/c4 { 0.000000 0.000000 0.800000 sr} bdef
/c5 { 0.910000 0.820000 0.320000 sr} bdef
/c6 { 1.000000 0.260000 0.820000 sr} bdef
/c7 { 0.000000 0.820000 0.820000 sr} bdef
c0
1 j
1 sg
   0    0 8640 7408 PR
12 w
0 5875 7105 0 0 -5875 1361 6507 4 MP
PP
-7105 0 0 5875 7105 0 0 -5875 1361 6507 5 MP stroke
8 w
DO
0 sg
1361 6507 mt 1361  632 L
1361  632 mt 1361  632 L
2607 6507 mt 2607  632 L
2607  632 mt 2607  632 L
3853 6507 mt 3853  632 L
3853  632 mt 3853  632 L
5100 6507 mt 5100  632 L
5100  632 mt 5100  632 L
6346 6507 mt 6346  632 L
6346  632 mt 6346  632 L
7593 6507 mt 7593  632 L
7593  632 mt 7593  632 L
1361 6507 mt 8466 6507 L
8466 6507 mt 8466 6507 L
1361 5438 mt 8466 5438 L
8466 5438 mt 8466 5438 L
1361 4370 mt 8466 4370 L
8466 4370 mt 8466 4370 L
1361 3302 mt 8466 3302 L
8466 3302 mt 8466 3302 L
1361 2234 mt 8466 2234 L
8466 2234 mt 8466 2234 L
1361 1166 mt 8466 1166 L
8466 1166 mt 8466 1166 L
SO
12 w
1361  632 mt 8466  632 L
1361 6507 mt 8466 6507 L
8466 6507 mt 8466  632 L
1361 6507 mt 1361  632 L
1361 6507 mt 8466 6507 L
1361 6507 mt 1361  632 L
1361 6507 mt 1361 6649 L
1361  632 mt 1361  489 L
%%IncludeResource: font AvantGarde-Book
/AvantGarde-Book /WindowsLatin1Encoding 300 FMSR

1278 6969 mt 
(0) s
2607 6507 mt 2607 6649 L
2607  632 mt 2607  489 L
2441 6969 mt 
(20) s
3853 6507 mt 3853 6649 L
3853  632 mt 3853  489 L
3687 6969 mt 
(40) s
5100 6507 mt 5100 6649 L
5100  632 mt 5100  489 L
4934 6969 mt 
(60) s
6346 6507 mt 6346 6649 L
6346  632 mt 6346  489 L
6180 6969 mt 
(80) s
7593 6507 mt 7593 6649 L
7593  632 mt 7593  489 L
7344 6969 mt 
(100) s
DO
1361 6507 mt 1361 6507 L
1361 6507 mt 1361 6507 L
1361 6507 mt 1361 6507 L
1361 6507 mt 1361 6507 L
1361 6507 mt 1361 6507 L
1361 6507 mt 1361 6507 L
1361 6507 mt 1361 6507 L
1361 6507 mt 1361 6507 L
1361 6507 mt 1361 6507 L
1361 6507 mt 1361 6507 L
1361 6507 mt 1361 6507 L
1361 6507 mt 1361 6507 L
1361 6507 mt 1361 6507 L
1361 6507 mt 1361 6507 L
1361 6507 mt 1361 6507 L
1361 6507 mt 1361 6507 L
1361 6507 mt 1361 6507 L
1361 6507 mt 1361 6507 L
SO
1361 6507 mt 1218 6507 L
8466 6507 mt 8608 6507 L
 510 6621 mt 
(10) s
%%IncludeResource: font AvantGarde-Book
/AvantGarde-Book /WindowsLatin1Encoding 200 FMSR

 842 6430 mt 
(-10) s
DO
1361 6507 mt 1361 6507 L
1361 6507 mt 1361 6507 L
1361 6507 mt 1361 6507 L
1361 6507 mt 1361 6507 L
1361 6507 mt 1361 6507 L
1361 6507 mt 1361 6507 L
1361 6507 mt 1361 6507 L
1361 6507 mt 1361 6507 L
1361 6507 mt 1361 6507 L
1361 6507 mt 1361 6507 L
1361 6507 mt 1361 6507 L
1361 6507 mt 1361 6507 L
1361 6507 mt 1361 6507 L
1361 6507 mt 1361 6507 L
1361 6507 mt 1361 6507 L
1361 6507 mt 1361 6507 L
1361 6507 mt 1361 6507 L
1361 6507 mt 1361 6507 L
SO
1361 5438 mt 1218 5438 L
8466 5438 mt 8608 5438 L
%%IncludeResource: font AvantGarde-Book
/AvantGarde-Book /WindowsLatin1Encoding 300 FMSR

 510 5552 mt 
(10) s
%%IncludeResource: font AvantGarde-Book
/AvantGarde-Book /WindowsLatin1Encoding 200 FMSR

 842 5361 mt 
(-8) s
DO
1361 6507 mt 1361 6507 L
1361 6507 mt 1361 6507 L
1361 6507 mt 1361 6507 L
1361 6507 mt 1361 6507 L
1361 6507 mt 1361 6507 L
1361 6507 mt 1361 6507 L
1361 6507 mt 1361 6507 L
1361 6507 mt 1361 6507 L
1361 6507 mt 1361 6507 L
1361 6507 mt 1361 6507 L
1361 6507 mt 1361 6507 L
1361 6507 mt 1361 6507 L
1361 6507 mt 1361 6507 L
1361 6507 mt 1361 6507 L
1361 6507 mt 1361 6507 L
1361 6507 mt 1361 6507 L
1361 6507 mt 1361 6507 L
1361 6507 mt 1361 6507 L
SO
1361 4370 mt 1218 4370 L
8466 4370 mt 8608 4370 L
%%IncludeResource: font AvantGarde-Book
/AvantGarde-Book /WindowsLatin1Encoding 300 FMSR

 510 4484 mt 
(10) s
%%IncludeResource: font AvantGarde-Book
/AvantGarde-Book /WindowsLatin1Encoding 200 FMSR

 842 4293 mt 
(-6) s
DO
1361 6507 mt 1361 6507 L
1361 6507 mt 1361 6507 L
1361 6507 mt 1361 6507 L
1361 6507 mt 1361 6507 L
1361 6507 mt 1361 6507 L
1361 6507 mt 1361 6507 L
1361 6507 mt 1361 6507 L
1361 6507 mt 1361 6507 L
1361 6507 mt 1361 6507 L
1361 6507 mt 1361 6507 L
1361 6507 mt 1361 6507 L
1361 6507 mt 1361 6507 L
1361 6507 mt 1361 6507 L
1361 6507 mt 1361 6507 L
1361 6507 mt 1361 6507 L
1361 6507 mt 1361 6507 L
1361 6507 mt 1361 6507 L
1361 6507 mt 1361 6507 L
SO
1361 3302 mt 1218 3302 L
8466 3302 mt 8608 3302 L
%%IncludeResource: font AvantGarde-Book
/AvantGarde-Book /WindowsLatin1Encoding 300 FMSR

 510 3416 mt 
(10) s
%%IncludeResource: font AvantGarde-Book
/AvantGarde-Book /WindowsLatin1Encoding 200 FMSR

 842 3225 mt 
(-4) s
DO
1361 6507 mt 1361 6507 L
1361 6507 mt 1361 6507 L
1361 6507 mt 1361 6507 L
1361 6507 mt 1361 6507 L
1361 6507 mt 1361 6507 L
1361 6507 mt 1361 6507 L
1361 6507 mt 1361 6507 L
1361 6507 mt 1361 6507 L
1361 6507 mt 1361 6507 L
1361 6507 mt 1361 6507 L
1361 6507 mt 1361 6507 L
1361 6507 mt 1361 6507 L
1361 6507 mt 1361 6507 L
1361 6507 mt 1361 6507 L
1361 6507 mt 1361 6507 L
1361 6507 mt 1361 6507 L
1361 6507 mt 1361 6507 L
1361 6507 mt 1361 6507 L
SO
1361 2234 mt 1218 2234 L
8466 2234 mt 8608 2234 L
%%IncludeResource: font AvantGarde-Book
/AvantGarde-Book /WindowsLatin1Encoding 300 FMSR

 510 2348 mt 
(10) s
%%IncludeResource: font AvantGarde-Book
/AvantGarde-Book /WindowsLatin1Encoding 200 FMSR

 842 2157 mt 
(-2) s
DO
1361 6507 mt 1361 6507 L
1361 6507 mt 1361 6507 L
1361 6507 mt 1361 6507 L
1361 6507 mt 1361 6507 L
1361 6507 mt 1361 6507 L
1361 6507 mt 1361 6507 L
1361 6507 mt 1361 6507 L
1361 6507 mt 1361 6507 L
1361 6507 mt 1361 6507 L
1361 6507 mt 1361 6507 L
1361 6507 mt 1361 6507 L
1361 6507 mt 1361 6507 L
1361 6507 mt 1361 6507 L
1361 6507 mt 1361 6507 L
1361 6507 mt 1361 6507 L
1361 6507 mt 1361 6507 L
1361 6507 mt 1361 6507 L
1361 6507 mt 1361 6507 L
SO
1361 1166 mt 1218 1166 L
8466 1166 mt 8608 1166 L
%%IncludeResource: font AvantGarde-Book
/AvantGarde-Book /WindowsLatin1Encoding 300 FMSR

 510 1280 mt 
(10) s
%%IncludeResource: font AvantGarde-Book
/AvantGarde-Book /WindowsLatin1Encoding 200 FMSR

 842 1089 mt 
(0) s
DO
1361 6507 mt 1361 6507 L
1361 6507 mt 1361 6507 L
1361 6507 mt 1361 6507 L
1361 6507 mt 1361 6507 L
1361 6507 mt 1361 6507 L
1361 6507 mt 1361 6507 L
1361 6507 mt 1361 6507 L
1361 6507 mt 1361 6507 L
1361 6507 mt 1361 6507 L
1361 6507 mt 1361 6507 L
1361 6507 mt 1361 6507 L
1361 6507 mt 1361 6507 L
1361 6507 mt 1361 6507 L
1361 6507 mt 1361 6507 L
1361 6507 mt 1361 6507 L
1361 6507 mt 1361 6507 L
1361 6507 mt 1361 6507 L
1361 6507 mt 1361 6507 L
SO
1361  632 mt 8466  632 L
1361 6507 mt 8466 6507 L
8466 6507 mt 8466  632 L
1361 6507 mt 1361  632 L
gs 1361 632 7106 5876 MR c np
36 w
/c8 { 1.000000 0.000000 0.000000 sr} bdef
c8
936 841 1496 1321 1496 1289 935 881 810 456 810 258 312 162 311 0 
1361 794 9 MP stroke
/c9 { 0.000000 0.000000 1.000000 sr} bdef
c9
1111 1319 1620 1276 1496 1367 997 876 811 456 311 258 312 162 311 0 
1361 794 9 MP stroke
/c10 { 0.000000 1.000000 0.000000 sr} bdef
c10
801 1124 1683 1477 1184 1358 997 879 873 456 311 258 312 162 311 0 
1361 794 9 MP stroke
/c11 { 0.000000 1.000000 1.000000 sr} bdef
c11
907 1139 1682 1333 1185 1486 1059 880 873 456 311 258 312 162 311 0 
1361 794 9 MP stroke
DA
c8
1237 1234 1184 1389 1185 1335 1059 880 873 456 311 258 312 162 311 0 
1361 794 9 MP stroke
c9
1247 1536 1246 1477 1122 879 873 456 311 258 312 162 311 0 1361 794 8 MP stroke
c10
1181 1350 1246 1287 1184 1320 1060 881 935 456 311 258 312 162 311 0 
1361 794 9 MP stroke
SO
gr

36 w
c10
0 j
-215 124 0 -248 215 124 1218 794 4 MP
/c12 { 1.000000 1.000000 0.900000 sr} bdef
c12
gs
PP
gr
c8
DP
-215 124 0 -248 215 124 1529 794 4 MP
c12
gs
PP
gr
c8
DP
-215 124 0 -248 215 124 1841 956 4 MP
c12
gs
PP
gr
c8
DP
-215 124 0 -248 215 124 2651 1214 4 MP
c12
gs
PP
gr
c8
DP
-215 124 0 -248 215 124 3461 1670 4 MP
c12
gs
PP
gr
c8
DP
-215 124 0 -248 215 124 4396 2551 4 MP
c12
gs
PP
gr
c8
DP
-215 124 0 -248 215 124 5892 3840 4 MP
c12
gs
PP
gr
c8
DP
-215 124 0 -248 215 124 7388 5161 4 MP
c12
gs
PP
gr
c8
DP
gs 1361 632 7106 5876 MR c np
1361 794 PD
gr

-215 124 0 -248 215 124 1218 794 4 MP
c12
gs
PP
gr
c8
DP
gs 1361 632 7106 5876 MR c np
gr

0 -170 -170 0 0 170 170 0 1276 709 5 MP
c12
gs
PP
gr
c9
DP
0 -170 -170 0 0 170 170 0 2210 1129 5 MP
c12
gs
PP
gr
c9
DP
0 -170 -170 0 0 170 170 0 5514 3828 5 MP
c12
gs
PP
gr
c9
DP
gs 1361 632 7106 5876 MR c np
1361 794 PD
gr

0 -170 -170 0 0 170 170 0 1276 709 5 MP
c12
gs
PP
gr
c9
DP
gs 1361 632 7106 5876 MR c np
gr

-39 -54 39 -54 -62 0 -31 -54 -31 54 -62 0 39 54 -39 54 
62 0 31 54 31 -54 62 0 1268 740 13 MP
c12
gs
PP
gr
c10
DP
-39 -54 39 -54 -62 0 -31 -54 -31 54 -62 0 39 54 -39 54 
62 0 31 54 31 -54 62 0 4072 2495 13 MP
c12
gs
PP
gr
c10
DP
gs 1361 632 7106 5876 MR c np
1361 794 PD
gr

-39 -54 39 -54 -62 0 -31 -54 -31 54 -62 0 39 54 -39 54 
62 0 31 54 31 -54 62 0 1268 740 13 MP
c12
gs
PP
gr
c10
DP
gs 1361 632 7106 5876 MR c np
gr

c11
1253  794 mt 1469  794 L
1361  686 mt 1361  902 L
6986 5369 mt 7202 5369 L
7094 5261 mt 7094 5477 L
1285  718 mt 1437  870 L
1437  718 mt 1285  870 L
7018 5293 mt 7170 5445 L
7170 5293 mt 7018 5445 L
gs 1361 632 7106 5876 MR c np
1361 794 PD
gr

1253  794 mt 1469  794 L
1361  686 mt 1361  902 L
1285  718 mt 1437  870 L
1437  718 mt 1285  870 L
gs 1361 632 7106 5876 MR c np
gr

0 -170 -170 0 0 170 170 0 1276 709 5 MP
c12
gs
PP
gr
c8
DP
0 -170 -170 0 0 170 170 0 1587 709 5 MP
c12
gs
PP
gr
c8
DP
0 -170 -170 0 0 170 170 0 1899 871 5 MP
c12
gs
PP
gr
c8
DP
0 -170 -170 0 0 170 170 0 2210 1129 5 MP
c12
gs
PP
gr
c8
DP
0 -170 -170 0 0 170 170 0 3083 1585 5 MP
c12
gs
PP
gr
c8
DP
0 -170 -170 0 0 170 170 0 4142 2465 5 MP
c12
gs
PP
gr
c8
DP
0 -170 -170 0 0 170 170 0 5327 3800 5 MP
c12
gs
PP
gr
c8
DP
0 -170 -170 0 0 170 170 0 6511 5189 5 MP
c12
gs
PP
gr
c8
DP
gs 1361 632 7106 5876 MR c np
DA
1361 794 PD
gr

DA
SO
0 -170 -170 0 0 170 170 0 1276 709 5 MP
c12
gs
PP
gr
c8
DP
DA
gs 1361 632 7106 5876 MR c np
SO
gr

SO
-39 -54 39 -54 -62 0 -31 -54 -31 54 -62 0 39 54 -39 54 
62 0 31 54 31 -54 62 0 1268 740 13 MP
c12
gs
PP
gr
c9
DP
-39 -54 39 -54 -62 0 -31 -54 -31 54 -62 0 39 54 -39 54 
62 0 31 54 31 -54 62 0 2202 1160 13 MP
c12
gs
PP
gr
c9
DP
-39 -54 39 -54 -62 0 -31 -54 -31 54 -62 0 39 54 -39 54 
62 0 31 54 31 -54 62 0 5443 3972 13 MP
c12
gs
PP
gr
c9
DP
gs 1361 632 7106 5876 MR c np
DA
1361 794 PD
gr

DA
SO
-39 -54 39 -54 -62 0 -31 -54 -31 54 -62 0 39 54 -39 54 
62 0 31 54 31 -54 62 0 1268 740 13 MP
c12
gs
PP
gr
c9
DP
DA
gs 1361 632 7106 5876 MR c np
SO
gr

SO
-215 124 0 -248 215 124 1218 794 4 MP
c12
gs
PP
gr
c10
DP
-215 124 0 -248 215 124 4147 2551 4 MP
c12
gs
PP
gr
c10
DP
gs 1361 632 7106 5876 MR c np
DA
1361 794 PD
gr

DA
SO
-215 124 0 -248 215 124 1218 794 4 MP
c12
gs
PP
gr
c10
DP
DA
gs 1361 632 7106 5876 MR c np
gr

0 sg
%%IncludeResource: font AvantGarde-Demi
/AvantGarde-Demi /WindowsLatin1Encoding 360 FMSR

3734  367 mt 
(a1a, DiSCO-F) s
%%IncludeResource: font AvantGarde-Book
/AvantGarde-Book /WindowsLatin1Encoding 360 FMSR

2445 7295 mt 
(Number of Communications) s
 376 5101 mt  -90 rotate
(Norm of Gradient) s
90 rotate
%%IncludeResource: font Helvetica
/Helvetica /WindowsLatin1Encoding 300 FMSR

1310 6623 mt 
( ) s
8416  747 mt 
( ) s
SO
12 w
6 w
1 sg
0 3052 1304 0 0 -3052 7094 3753 4 MP
PP
-1304 0 0 3052 1304 0 0 -3052 7094 3753 5 MP stroke
4 w
DO
SO
6 w
0 sg
7094  701 mt 8398  701 L
7094 3753 mt 8398 3753 L
8398 3753 mt 8398  701 L
7094 3753 mt 7094  701 L
7094 3753 mt 8398 3753 L
7094 3753 mt 7094  701 L
7094  701 mt 8398  701 L
7094 3753 mt 8398 3753 L
8398 3753 mt 8398  701 L
7094 3753 mt 7094  701 L
%%IncludeResource: font AvantGarde-Book
/AvantGarde-Book /WindowsLatin1Encoding 360 FMSR

7535 1068 mt 
(100) s
gs 7094 701 1305 3053 MR c np
36 w
c8
339 0 7161 936 2 MP stroke
gr

36 w
c8
gs 7077 682 509 509 MR c np
-215 124 0 -248 215 124 7188 936 4 MP
c12
gs
PP
gr
c8
DP
gr

gs 7094 701 1305 3053 MR c np
gr

0 sg
7535 1499 mt 
(200) s
gs 7094 701 1305 3053 MR c np
c9
339 0 7161 1366 2 MP stroke
gr

c9
gs 7077 1112 509 509 MR c np
0 -170 -170 0 0 170 170 0 7246 1281 5 MP
c12
gs
PP
gr
c9
DP
gr

gs 7094 701 1305 3053 MR c np
gr

0 sg
7535 1929 mt 
(300) s
gs 7094 701 1305 3053 MR c np
c10
339 0 7161 1796 2 MP stroke
gr

c10
gs 7077 1542 509 509 MR c np
-39 -54 39 -54 -62 0 -31 -54 -31 54 -62 0 39 54 -39 54 
62 0 31 54 31 -54 62 0 7238 1742 13 MP
c12
gs
PP
gr
c10
DP
gr

gs 7094 701 1305 3053 MR c np
gr

0 sg
7535 2360 mt 
(400) s
gs 7094 701 1305 3053 MR c np
c11
339 0 7161 2227 2 MP stroke
gr

c11
gs 7077 1973 509 509 MR c np
7223 2227 mt 7439 2227 L
7331 2119 mt 7331 2335 L
7255 2151 mt 7407 2303 L
7407 2151 mt 7255 2303 L
gr

gs 7094 701 1305 3053 MR c np
gr

0 sg
7535 2790 mt 
(600) s
gs 7094 701 1305 3053 MR c np
DA
c8
339 0 7161 2657 2 MP stroke
SO
gr

c8
gs 7077 2403 509 509 MR c np
0 -170 -170 0 0 170 170 0 7246 2572 5 MP
c12
gs
PP
gr
c8
DP
gr

gs 7094 701 1305 3053 MR c np
gr

0 sg
7535 3220 mt 
(800) s
gs 7094 701 1305 3053 MR c np
DA
c9
339 0 7161 3087 2 MP stroke
SO
gr

c9
gs 7077 2833 509 509 MR c np
-39 -54 39 -54 -62 0 -31 -54 -31 54 -62 0 39 54 -39 54 
62 0 31 54 31 -54 62 0 7238 3033 13 MP
c12
gs
PP
gr
c9
DP
gr

gs 7094 701 1305 3053 MR c np
gr

0 sg
7535 3651 mt 
(1000) s
gs 7094 701 1305 3053 MR c np
DA
c10
339 0 7161 3517 2 MP stroke
SO
gr

c10
gs 7077 3263 509 509 MR c np
-215 124 0 -248 215 124 7188 3517 4 MP
c12
gs
PP
gr
c10
DP
gr

gs 7094 701 1305 3053 MR c np
6 w
gr

6 w

end %%Color Dict

eplot
%%EndObject

epage
end

showpage

%%Trailer
%%EOF
