%!PS-Adobe-2.0 EPSF-1.2
%%Creator: MATLAB, The MathWorks, Inc. Version 7.14.0.739 (R2012a). Operating System: Microsoft Windows 7.
%%Title: .\a1a_DiSCO-S.eps
%%CreationDate: 10/20/2015  21:37:53
%%DocumentNeededFonts: AvantGarde-Book
%%+ Helvetica
%%+ AvantGarde-Demi
%%DocumentProcessColors: Cyan Magenta Yellow Black
%%Extensions: CMYK
%%Pages: 1
%%BoundingBox:   -52    85   670   711
%%EndComments

%%BeginProlog
% MathWorks dictionary
/MathWorks 160 dict begin
% definition operators
/bdef {bind def} bind def
/ldef {load def} bind def
/xdef {exch def} bdef
/xstore {exch store} bdef
% operator abbreviations
/c  /clip ldef
/cc /concat ldef
/cp /closepath ldef
/gr /grestore ldef
/gs /gsave ldef
/mt /moveto ldef
/np /newpath ldef
/cm /currentmatrix ldef
/sm /setmatrix ldef
/rm /rmoveto ldef
/rl /rlineto ldef
/s {show newpath} bdef
/sc {setcmykcolor} bdef
/sr /setrgbcolor ldef
/sg /setgray ldef
/w /setlinewidth ldef
/j /setlinejoin ldef
/cap /setlinecap ldef
/rc {rectclip} bdef
/rf {rectfill} bdef
% page state control
/pgsv () def
/bpage {/pgsv save def} bdef
/epage {pgsv restore} bdef
/bplot /gsave ldef
/eplot {stroke grestore} bdef
% orientation switch
/portraitMode 0 def /landscapeMode 1 def /rotateMode 2 def
% coordinate system mappings
/dpi2point 0 def
% font control
/FontSize 0 def
/FMS {/FontSize xstore findfont [FontSize 0 0 FontSize neg 0 0]
  makefont setfont} bdef
/ISOLatin1Encoding where {pop /WindowsLatin1Encoding 256 array bdef
ISOLatin1Encoding WindowsLatin1Encoding copy pop
/.notdef/.notdef/quotesinglbase/florin/quotedblbase/ellipsis/dagger
/daggerdbl/circumflex/perthousand/Scaron/guilsinglleft/OE/.notdef/.notdef
/.notdef/.notdef/quoteleft/quoteright/quotedblleft/quotedblright/bullet
/endash/emdash/tilde/trademark/scaron/guilsinglright/oe/.notdef/.notdef
/Ydieresis WindowsLatin1Encoding 128 32 getinterval astore pop}
{/WindowsLatin1Encoding StandardEncoding bdef} ifelse
/reencode {exch dup where {pop load} {pop StandardEncoding} ifelse
  exch dup 3 1 roll findfont dup length dict begin
  { 1 index /FID ne {def}{pop pop} ifelse } forall
  /Encoding exch def currentdict end definefont pop} bdef
/isroman {findfont /CharStrings get /Agrave known} bdef
/FMSR {3 1 roll 1 index dup isroman {reencode} {pop pop} ifelse
  exch FMS} bdef
/csm {1 dpi2point div -1 dpi2point div scale neg translate
 dup landscapeMode eq {pop -90 rotate}
  {rotateMode eq {90 rotate} if} ifelse} bdef
% line types: solid, dotted, dashed, dotdash
/SO { [] 0 setdash } bdef
/DO { [.5 dpi2point mul 4 dpi2point mul] 0 setdash } bdef
/DA { [6 dpi2point mul] 0 setdash } bdef
/DD { [.5 dpi2point mul 4 dpi2point mul 6 dpi2point mul 4
  dpi2point mul] 0 setdash } bdef
% macros for lines and objects
/L {lineto stroke} bdef
/MP {3 1 roll moveto 1 sub {rlineto} repeat} bdef
/AP {{rlineto} repeat} bdef
/PDlw -1 def
/W {/PDlw currentlinewidth def setlinewidth} def
/PP {closepath eofill} bdef
/DP {closepath stroke} bdef
/MR {4 -2 roll moveto dup  0 exch rlineto exch 0 rlineto
  neg 0 exch rlineto closepath} bdef
/FR {MR stroke} bdef
/PR {MR fill} bdef
/L1i {{currentfile picstr readhexstring pop} image} bdef
/tMatrix matrix def
/MakeOval {newpath tMatrix currentmatrix pop translate scale
0 0 1 0 360 arc tMatrix setmatrix} bdef
/FO {MakeOval stroke} bdef
/PO {MakeOval fill} bdef
/PD {currentlinewidth 2 div 0 360 arc fill
   PDlw -1 eq not {PDlw w /PDlw -1 def} if} def
/FA {newpath tMatrix currentmatrix pop translate scale
  0 0 1 5 -2 roll arc tMatrix setmatrix stroke} bdef
/PA {newpath tMatrix currentmatrix pop	translate 0 0 moveto scale
  0 0 1 5 -2 roll arc closepath tMatrix setmatrix fill} bdef
/FAn {newpath tMatrix currentmatrix pop translate scale
  0 0 1 5 -2 roll arcn tMatrix setmatrix stroke} bdef
/PAn {newpath tMatrix currentmatrix pop translate 0 0 moveto scale
  0 0 1 5 -2 roll arcn closepath tMatrix setmatrix fill} bdef
/vradius 0 def /hradius 0 def /lry 0 def
/lrx 0 def /uly 0 def /ulx 0 def /rad 0 def
/MRR {/vradius xdef /hradius xdef /lry xdef /lrx xdef /uly xdef
  /ulx xdef newpath tMatrix currentmatrix pop ulx hradius add uly
  vradius add translate hradius vradius scale 0 0 1 180 270 arc 
  tMatrix setmatrix lrx hradius sub uly vradius add translate
  hradius vradius scale 0 0 1 270 360 arc tMatrix setmatrix
  lrx hradius sub lry vradius sub translate hradius vradius scale
  0 0 1 0 90 arc tMatrix setmatrix ulx hradius add lry vradius sub
  translate hradius vradius scale 0 0 1 90 180 arc tMatrix setmatrix
  closepath} bdef
/FRR {MRR stroke } bdef
/PRR {MRR fill } bdef
/MlrRR {/lry xdef /lrx xdef /uly xdef /ulx xdef /rad lry uly sub 2 div def
  newpath tMatrix currentmatrix pop ulx rad add uly rad add translate
  rad rad scale 0 0 1 90 270 arc tMatrix setmatrix lrx rad sub lry rad
  sub translate rad rad scale 0 0 1 270 90 arc tMatrix setmatrix
  closepath} bdef
/FlrRR {MlrRR stroke } bdef
/PlrRR {MlrRR fill } bdef
/MtbRR {/lry xdef /lrx xdef /uly xdef /ulx xdef /rad lrx ulx sub 2 div def
  newpath tMatrix currentmatrix pop ulx rad add uly rad add translate
  rad rad scale 0 0 1 180 360 arc tMatrix setmatrix lrx rad sub lry rad
  sub translate rad rad scale 0 0 1 0 180 arc tMatrix setmatrix
  closepath} bdef
/FtbRR {MtbRR stroke } bdef
/PtbRR {MtbRR fill } bdef
/stri 6 array def /dtri 6 array def
/smat 6 array def /dmat 6 array def
/tmat1 6 array def /tmat2 6 array def /dif 3 array def
/asub {/ind2 exch def /ind1 exch def dup dup
  ind1 get exch ind2 get sub exch } bdef
/tri_to_matrix {
  2 0 asub 3 1 asub 4 0 asub 5 1 asub
  dup 0 get exch 1 get 7 -1 roll astore } bdef
/compute_transform {
  dmat dtri tri_to_matrix tmat1 invertmatrix 
  smat stri tri_to_matrix tmat2 concatmatrix } bdef
/ds {stri astore pop} bdef
/dt {dtri astore pop} bdef
/db {2 copy /cols xdef /rows xdef mul dup 3 mul string
  currentfile exch readhexstring pop
  dup 0 3 index getinterval /rbmap xdef
  dup 2 index dup getinterval /gbmap xdef
  1 index dup 2 mul exch getinterval /bbmap xdef pop pop}bdef
/it {gs np dtri aload pop moveto lineto lineto cp c
  cols rows 8 compute_transform 
  rbmap gbmap bbmap true 3 colorimage gr}bdef
/il {newpath moveto lineto stroke}bdef
currentdict end def
%%EndProlog

%%BeginSetup
MathWorks begin

0 cap

end
%%EndSetup

%%Page: 1 1
%%BeginPageSetup
%%PageBoundingBox:   -52    85   670   711
MathWorks begin
bpage
%%EndPageSetup

%%BeginObject: obj1
bplot

/dpi2point 12 def
portraitMode -0636 8484 csm

    9   -48  8678  7509 MR c np
88 dict begin %Colortable dictionary
/c0 { 0.000000 0.000000 0.000000 sr} bdef
/c1 { 1.000000 1.000000 1.000000 sr} bdef
/c2 { 0.900000 0.000000 0.000000 sr} bdef
/c3 { 0.000000 0.820000 0.000000 sr} bdef
/c4 { 0.000000 0.000000 0.800000 sr} bdef
/c5 { 0.910000 0.820000 0.320000 sr} bdef
/c6 { 1.000000 0.260000 0.820000 sr} bdef
/c7 { 0.000000 0.820000 0.820000 sr} bdef
c0
1 j
1 sg
   0    0 8640 7471 PR
12 w
0 5939 7028 0 0 -5939 1361 6570 4 MP
PP
-7028 0 0 5939 7028 0 0 -5939 1361 6570 5 MP stroke
8 w
DO
0 sg
1361 6570 mt 1361  632 L
1361  632 mt 1361  632 L
2532 6570 mt 2532  632 L
2532  632 mt 2532  632 L
3703 6570 mt 3703  632 L
3703  632 mt 3703  632 L
4875 6570 mt 4875  632 L
4875  632 mt 4875  632 L
6046 6570 mt 6046  632 L
6046  632 mt 6046  632 L
7217 6570 mt 7217  632 L
7217  632 mt 7217  632 L
8389 6570 mt 8389  632 L
8389  632 mt 8389  632 L
1361 6570 mt 8389 6570 L
8389 6570 mt 8389 6570 L
1361 5490 mt 8389 5490 L
8389 5490 mt 8389 5490 L
1361 4410 mt 8389 4410 L
8389 4410 mt 8389 4410 L
1361 3331 mt 8389 3331 L
8389 3331 mt 8389 3331 L
1361 2251 mt 8389 2251 L
8389 2251 mt 8389 2251 L
1361 1171 mt 8389 1171 L
8389 1171 mt 8389 1171 L
SO
12 w
1361  631 mt 8389  631 L
1361 6570 mt 8389 6570 L
8389 6570 mt 8389  631 L
1361 6570 mt 1361  631 L
1361 6570 mt 8389 6570 L
1361 6570 mt 1361  631 L
1361 6570 mt 1361 6710 L
1361  632 mt 1361  491 L
%%IncludeResource: font AvantGarde-Book
/AvantGarde-Book /WindowsLatin1Encoding 300 FMSR

1278 7031 mt 
(0) s
2532 6570 mt 2532 6710 L
2532  632 mt 2532  491 L
2366 7031 mt 
(50) s
3703 6570 mt 3703 6710 L
3703  632 mt 3703  491 L
3454 7031 mt 
(100) s
4875 6570 mt 4875 6710 L
4875  632 mt 4875  491 L
4626 7031 mt 
(150) s
6046 6570 mt 6046 6710 L
6046  632 mt 6046  491 L
5797 7031 mt 
(200) s
7217 6570 mt 7217 6710 L
7217  632 mt 7217  491 L
6968 7031 mt 
(250) s
8389 6570 mt 8389 6710 L
8389  632 mt 8389  491 L
8140 7031 mt 
(300) s
DO
1361 6570 mt 1361 6570 L
1361 6570 mt 1361 6570 L
1361 6570 mt 1361 6570 L
1361 6570 mt 1361 6570 L
1361 6570 mt 1361 6570 L
1361 6570 mt 1361 6570 L
1361 6570 mt 1361 6570 L
1361 6570 mt 1361 6570 L
1361 6570 mt 1361 6570 L
1361 6570 mt 1361 6570 L
1361 6570 mt 1361 6570 L
1361 6570 mt 1361 6570 L
1361 6570 mt 1361 6570 L
1361 6570 mt 1361 6570 L
1361 6570 mt 1361 6570 L
1361 6570 mt 1361 6570 L
1361 6570 mt 1361 6570 L
1361 6570 mt 1361 6570 L
SO
1361 6570 mt 1220 6570 L
8389 6570 mt 8529 6570 L
 511 6684 mt 
(10) s
%%IncludeResource: font AvantGarde-Book
/AvantGarde-Book /WindowsLatin1Encoding 200 FMSR

 843 6493 mt 
(-10) s
DO
1361 6570 mt 1361 6570 L
1361 6570 mt 1361 6570 L
1361 6570 mt 1361 6570 L
1361 6570 mt 1361 6570 L
1361 6570 mt 1361 6570 L
1361 6570 mt 1361 6570 L
1361 6570 mt 1361 6570 L
1361 6570 mt 1361 6570 L
1361 6570 mt 1361 6570 L
1361 6570 mt 1361 6570 L
1361 6570 mt 1361 6570 L
1361 6570 mt 1361 6570 L
1361 6570 mt 1361 6570 L
1361 6570 mt 1361 6570 L
1361 6570 mt 1361 6570 L
1361 6570 mt 1361 6570 L
1361 6570 mt 1361 6570 L
1361 6570 mt 1361 6570 L
SO
1361 5490 mt 1220 5490 L
8389 5490 mt 8529 5490 L
%%IncludeResource: font AvantGarde-Book
/AvantGarde-Book /WindowsLatin1Encoding 300 FMSR

 511 5604 mt 
(10) s
%%IncludeResource: font AvantGarde-Book
/AvantGarde-Book /WindowsLatin1Encoding 200 FMSR

 843 5413 mt 
(-8) s
DO
1361 6570 mt 1361 6570 L
1361 6570 mt 1361 6570 L
1361 6570 mt 1361 6570 L
1361 6570 mt 1361 6570 L
1361 6570 mt 1361 6570 L
1361 6570 mt 1361 6570 L
1361 6570 mt 1361 6570 L
1361 6570 mt 1361 6570 L
1361 6570 mt 1361 6570 L
1361 6570 mt 1361 6570 L
1361 6570 mt 1361 6570 L
1361 6570 mt 1361 6570 L
1361 6570 mt 1361 6570 L
1361 6570 mt 1361 6570 L
1361 6570 mt 1361 6570 L
1361 6570 mt 1361 6570 L
1361 6570 mt 1361 6570 L
1361 6570 mt 1361 6570 L
SO
1361 4410 mt 1220 4410 L
8389 4410 mt 8529 4410 L
%%IncludeResource: font AvantGarde-Book
/AvantGarde-Book /WindowsLatin1Encoding 300 FMSR

 511 4524 mt 
(10) s
%%IncludeResource: font AvantGarde-Book
/AvantGarde-Book /WindowsLatin1Encoding 200 FMSR

 843 4333 mt 
(-6) s
DO
1361 6570 mt 1361 6570 L
1361 6570 mt 1361 6570 L
1361 6570 mt 1361 6570 L
1361 6570 mt 1361 6570 L
1361 6570 mt 1361 6570 L
1361 6570 mt 1361 6570 L
1361 6570 mt 1361 6570 L
1361 6570 mt 1361 6570 L
1361 6570 mt 1361 6570 L
1361 6570 mt 1361 6570 L
1361 6570 mt 1361 6570 L
1361 6570 mt 1361 6570 L
1361 6570 mt 1361 6570 L
1361 6570 mt 1361 6570 L
1361 6570 mt 1361 6570 L
1361 6570 mt 1361 6570 L
1361 6570 mt 1361 6570 L
1361 6570 mt 1361 6570 L
SO
1361 3331 mt 1220 3331 L
8389 3331 mt 8529 3331 L
%%IncludeResource: font AvantGarde-Book
/AvantGarde-Book /WindowsLatin1Encoding 300 FMSR

 511 3445 mt 
(10) s
%%IncludeResource: font AvantGarde-Book
/AvantGarde-Book /WindowsLatin1Encoding 200 FMSR

 843 3254 mt 
(-4) s
DO
1361 6570 mt 1361 6570 L
1361 6570 mt 1361 6570 L
1361 6570 mt 1361 6570 L
1361 6570 mt 1361 6570 L
1361 6570 mt 1361 6570 L
1361 6570 mt 1361 6570 L
1361 6570 mt 1361 6570 L
1361 6570 mt 1361 6570 L
1361 6570 mt 1361 6570 L
1361 6570 mt 1361 6570 L
1361 6570 mt 1361 6570 L
1361 6570 mt 1361 6570 L
1361 6570 mt 1361 6570 L
1361 6570 mt 1361 6570 L
1361 6570 mt 1361 6570 L
1361 6570 mt 1361 6570 L
1361 6570 mt 1361 6570 L
1361 6570 mt 1361 6570 L
SO
1361 2251 mt 1220 2251 L
8389 2251 mt 8529 2251 L
%%IncludeResource: font AvantGarde-Book
/AvantGarde-Book /WindowsLatin1Encoding 300 FMSR

 511 2365 mt 
(10) s
%%IncludeResource: font AvantGarde-Book
/AvantGarde-Book /WindowsLatin1Encoding 200 FMSR

 843 2174 mt 
(-2) s
DO
1361 6570 mt 1361 6570 L
1361 6570 mt 1361 6570 L
1361 6570 mt 1361 6570 L
1361 6570 mt 1361 6570 L
1361 6570 mt 1361 6570 L
1361 6570 mt 1361 6570 L
1361 6570 mt 1361 6570 L
1361 6570 mt 1361 6570 L
1361 6570 mt 1361 6570 L
1361 6570 mt 1361 6570 L
1361 6570 mt 1361 6570 L
1361 6570 mt 1361 6570 L
1361 6570 mt 1361 6570 L
1361 6570 mt 1361 6570 L
1361 6570 mt 1361 6570 L
1361 6570 mt 1361 6570 L
1361 6570 mt 1361 6570 L
1361 6570 mt 1361 6570 L
SO
1361 1171 mt 1220 1171 L
8389 1171 mt 8529 1171 L
%%IncludeResource: font AvantGarde-Book
/AvantGarde-Book /WindowsLatin1Encoding 300 FMSR

 511 1285 mt 
(10) s
%%IncludeResource: font AvantGarde-Book
/AvantGarde-Book /WindowsLatin1Encoding 200 FMSR

 843 1094 mt 
(0) s
DO
1361 6570 mt 1361 6570 L
1361 6570 mt 1361 6570 L
1361 6570 mt 1361 6570 L
1361 6570 mt 1361 6570 L
1361 6570 mt 1361 6570 L
1361 6570 mt 1361 6570 L
1361 6570 mt 1361 6570 L
1361 6570 mt 1361 6570 L
1361 6570 mt 1361 6570 L
1361 6570 mt 1361 6570 L
1361 6570 mt 1361 6570 L
1361 6570 mt 1361 6570 L
1361 6570 mt 1361 6570 L
1361 6570 mt 1361 6570 L
1361 6570 mt 1361 6570 L
1361 6570 mt 1361 6570 L
1361 6570 mt 1361 6570 L
1361 6570 mt 1361 6570 L
SO
1361  631 mt 8389  631 L
1361 6570 mt 8389 6570 L
8389 6570 mt 8389  631 L
1361 6570 mt 1361  631 L
gs 1361 632 7029 5939 MR c np
36 w
/c8 { 1.000000 0.000000 0.000000 sr} bdef
c8
423 321 1687 1344 1640 1237 1124 885 890 461 797 260 234 164 234 0 
1361 958 9 MP stroke
/c9 { 0.000000 0.000000 1.000000 sr} bdef
c9
1289 1125 1499 1257 1499 1463 984 883 750 461 328 260 234 164 234 0 
1361 958 9 MP stroke
/c10 { 0.000000 1.000000 0.000000 sr} bdef
c10
1085 1174 1781 1351 1218 1315 1077 888 891 461 234 260 234 164 234 0 
1361 958 9 MP stroke
/c11 { 0.000000 1.000000 1.000000 sr} bdef
c11
1124 1295 1593 1256 1171 1287 1031 886 797 461 234 260 234 164 234 0 
1361 958 9 MP stroke
gr

36 w
c11
0 j
-215 124 0 -248 215 124 1218 958 4 MP
/c12 { 1.000000 1.000000 0.900000 sr} bdef
c12
gs
PP
gr
c8
DP
-215 124 0 -248 215 124 1452 958 4 MP
c12
gs
PP
gr
c8
DP
-215 124 0 -248 215 124 1686 1122 4 MP
c12
gs
PP
gr
c8
DP
-215 124 0 -248 215 124 2483 1382 4 MP
c12
gs
PP
gr
c8
DP
-215 124 0 -248 215 124 3373 1843 4 MP
c12
gs
PP
gr
c8
DP
-215 124 0 -248 215 124 4497 2728 4 MP
c12
gs
PP
gr
c8
DP
-215 124 0 -248 215 124 6137 3965 4 MP
c12
gs
PP
gr
c8
DP
-215 124 0 -248 215 124 7824 5309 4 MP
c12
gs
PP
gr
c8
DP
gs 1361 632 7029 5939 MR c np
1361 958 PD
gr

-215 124 0 -248 215 124 1218 958 4 MP
c12
gs
PP
gr
c8
DP
gs 1361 632 7029 5939 MR c np
gr

0 -170 -170 0 0 170 170 0 1276 873 5 MP
c12
gs
PP
gr
c9
DP
0 -170 -170 0 0 170 170 0 2072 1297 5 MP
c12
gs
PP
gr
c9
DP
0 -170 -170 0 0 170 170 0 5305 4104 5 MP
c12
gs
PP
gr
c9
DP
gs 1361 632 7029 5939 MR c np
1361 958 PD
gr

0 -170 -170 0 0 170 170 0 1276 873 5 MP
c12
gs
PP
gr
c9
DP
gs 1361 632 7029 5939 MR c np
gr

-39 -54 39 -54 -62 0 -31 -54 -31 54 -62 0 39 54 -39 54 
62 0 31 54 31 -54 62 0 1268 904 13 MP
c12
gs
PP
gr
c10
DP
-39 -54 39 -54 -62 0 -31 -54 -31 54 -62 0 39 54 -39 54 
62 0 31 54 31 -54 62 0 3938 2677 13 MP
c12
gs
PP
gr
c10
DP
gs 1361 632 7029 5939 MR c np
1361 958 PD
gr

-39 -54 39 -54 -62 0 -31 -54 -31 54 -62 0 39 54 -39 54 
62 0 31 54 31 -54 62 0 1268 904 13 MP
c12
gs
PP
gr
c10
DP
gs 1361 632 7029 5939 MR c np
gr

c11
1253  958 mt 1469  958 L
1361  850 mt 1361 1066 L
6547 5272 mt 6763 5272 L
6655 5164 mt 6655 5380 L
1285  882 mt 1437 1034 L
1437  882 mt 1285 1034 L
6579 5196 mt 6731 5348 L
6731 5196 mt 6579 5348 L
gs 1361 632 7029 5939 MR c np
1361 958 PD
gr

1253  958 mt 1469  958 L
1361  850 mt 1361 1066 L
1285  882 mt 1437 1034 L
1437  882 mt 1285 1034 L
gs 1361 632 7029 5939 MR c np
gr

0 sg
%%IncludeResource: font AvantGarde-Demi
/AvantGarde-Demi /WindowsLatin1Encoding 360 FMSR

3688  367 mt 
(a1a, DiSCO-S) s
%%IncludeResource: font AvantGarde-Book
/AvantGarde-Book /WindowsLatin1Encoding 360 FMSR

2407 7357 mt 
(Number of Communications) s
 377 5133 mt  -90 rotate
(Norm of Gradient) s
90 rotate
%%IncludeResource: font Helvetica
/Helvetica /WindowsLatin1Encoding 300 FMSR

1310 6686 mt 
( ) s
8339  747 mt 
( ) s
12 w
6 w
1 sg
0 1762 1104 0 0 -1762 7217 2463 4 MP
PP
-1104 0 0 1762 1104 0 0 -1762 7217 2463 5 MP stroke
4 w
DO
SO
6 w
0 sg
7217  701 mt 8321  701 L
7217 2463 mt 8321 2463 L
8321 2463 mt 8321  701 L
7217 2463 mt 7217  701 L
7217 2463 mt 8321 2463 L
7217 2463 mt 7217  701 L
7217  701 mt 8321  701 L
7217 2463 mt 8321 2463 L
8321 2463 mt 8321  701 L
7217 2463 mt 7217  701 L
%%IncludeResource: font AvantGarde-Book
/AvantGarde-Book /WindowsLatin1Encoding 360 FMSR

7659 1069 mt 
(100) s
gs 7217 701 1105 1763 MR c np
36 w
c8
340 0 7284 936 2 MP stroke
gr

36 w
c8
gs 7200 682 509 509 MR c np
-215 124 0 -248 215 124 7311 936 4 MP
c12
gs
PP
gr
c8
DP
gr

gs 7217 701 1105 1763 MR c np
gr

0 sg
7659 1499 mt 
(200) s
gs 7217 701 1105 1763 MR c np
c9
340 0 7284 1366 2 MP stroke
gr

c9
gs 7200 1112 509 509 MR c np
0 -170 -170 0 0 170 170 0 7369 1281 5 MP
c12
gs
PP
gr
c9
DP
gr

gs 7217 701 1105 1763 MR c np
gr

0 sg
7659 1930 mt 
(300) s
gs 7217 701 1105 1763 MR c np
c10
340 0 7284 1797 2 MP stroke
gr

c10
gs 7200 1543 509 509 MR c np
-39 -54 39 -54 -62 0 -31 -54 -31 54 -62 0 39 54 -39 54 
62 0 31 54 31 -54 62 0 7361 1743 13 MP
c12
gs
PP
gr
c10
DP
gr

gs 7217 701 1105 1763 MR c np
gr

0 sg
7659 2360 mt 
(400) s
gs 7217 701 1105 1763 MR c np
c11
340 0 7284 2227 2 MP stroke
gr

c11
gs 7200 1973 509 509 MR c np
7346 2227 mt 7562 2227 L
7454 2119 mt 7454 2335 L
7378 2151 mt 7530 2303 L
7530 2151 mt 7378 2303 L
gr

gs 7217 701 1105 1763 MR c np
6 w
gr

6 w

end %%Color Dict

eplot
%%EndObject

epage
end

showpage

%%Trailer
%%EOF
