%!PS-Adobe-2.0 EPSF-1.2
%%Creator: MATLAB, The MathWorks, Inc. Version 7.14.0.739 (R2012a). Operating System: Microsoft Windows 7.
%%Title: .\a1a_DiscoS.eps
%%CreationDate: 10/19/2015  15:11:33
%%DocumentNeededFonts: AvantGarde-Book
%%+ Helvetica
%%+ AvantGarde-Demi
%%DocumentProcessColors: Cyan Magenta Yellow Black
%%Extensions: CMYK
%%Pages: 1
%%BoundingBox:   -52    85   670   711
%%EndComments

%%BeginProlog
% MathWorks dictionary
/MathWorks 160 dict begin
% definition operators
/bdef {bind def} bind def
/ldef {load def} bind def
/xdef {exch def} bdef
/xstore {exch store} bdef
% operator abbreviations
/c  /clip ldef
/cc /concat ldef
/cp /closepath ldef
/gr /grestore ldef
/gs /gsave ldef
/mt /moveto ldef
/np /newpath ldef
/cm /currentmatrix ldef
/sm /setmatrix ldef
/rm /rmoveto ldef
/rl /rlineto ldef
/s {show newpath} bdef
/sc {setcmykcolor} bdef
/sr /setrgbcolor ldef
/sg /setgray ldef
/w /setlinewidth ldef
/j /setlinejoin ldef
/cap /setlinecap ldef
/rc {rectclip} bdef
/rf {rectfill} bdef
% page state control
/pgsv () def
/bpage {/pgsv save def} bdef
/epage {pgsv restore} bdef
/bplot /gsave ldef
/eplot {stroke grestore} bdef
% orientation switch
/portraitMode 0 def /landscapeMode 1 def /rotateMode 2 def
% coordinate system mappings
/dpi2point 0 def
% font control
/FontSize 0 def
/FMS {/FontSize xstore findfont [FontSize 0 0 FontSize neg 0 0]
  makefont setfont} bdef
/ISOLatin1Encoding where {pop /WindowsLatin1Encoding 256 array bdef
ISOLatin1Encoding WindowsLatin1Encoding copy pop
/.notdef/.notdef/quotesinglbase/florin/quotedblbase/ellipsis/dagger
/daggerdbl/circumflex/perthousand/Scaron/guilsinglleft/OE/.notdef/.notdef
/.notdef/.notdef/quoteleft/quoteright/quotedblleft/quotedblright/bullet
/endash/emdash/tilde/trademark/scaron/guilsinglright/oe/.notdef/.notdef
/Ydieresis WindowsLatin1Encoding 128 32 getinterval astore pop}
{/WindowsLatin1Encoding StandardEncoding bdef} ifelse
/reencode {exch dup where {pop load} {pop StandardEncoding} ifelse
  exch dup 3 1 roll findfont dup length dict begin
  { 1 index /FID ne {def}{pop pop} ifelse } forall
  /Encoding exch def currentdict end definefont pop} bdef
/isroman {findfont /CharStrings get /Agrave known} bdef
/FMSR {3 1 roll 1 index dup isroman {reencode} {pop pop} ifelse
  exch FMS} bdef
/csm {1 dpi2point div -1 dpi2point div scale neg translate
 dup landscapeMode eq {pop -90 rotate}
  {rotateMode eq {90 rotate} if} ifelse} bdef
% line types: solid, dotted, dashed, dotdash
/SO { [] 0 setdash } bdef
/DO { [.5 dpi2point mul 4 dpi2point mul] 0 setdash } bdef
/DA { [6 dpi2point mul] 0 setdash } bdef
/DD { [.5 dpi2point mul 4 dpi2point mul 6 dpi2point mul 4
  dpi2point mul] 0 setdash } bdef
% macros for lines and objects
/L {lineto stroke} bdef
/MP {3 1 roll moveto 1 sub {rlineto} repeat} bdef
/AP {{rlineto} repeat} bdef
/PDlw -1 def
/W {/PDlw currentlinewidth def setlinewidth} def
/PP {closepath eofill} bdef
/DP {closepath stroke} bdef
/MR {4 -2 roll moveto dup  0 exch rlineto exch 0 rlineto
  neg 0 exch rlineto closepath} bdef
/FR {MR stroke} bdef
/PR {MR fill} bdef
/L1i {{currentfile picstr readhexstring pop} image} bdef
/tMatrix matrix def
/MakeOval {newpath tMatrix currentmatrix pop translate scale
0 0 1 0 360 arc tMatrix setmatrix} bdef
/FO {MakeOval stroke} bdef
/PO {MakeOval fill} bdef
/PD {currentlinewidth 2 div 0 360 arc fill
   PDlw -1 eq not {PDlw w /PDlw -1 def} if} def
/FA {newpath tMatrix currentmatrix pop translate scale
  0 0 1 5 -2 roll arc tMatrix setmatrix stroke} bdef
/PA {newpath tMatrix currentmatrix pop	translate 0 0 moveto scale
  0 0 1 5 -2 roll arc closepath tMatrix setmatrix fill} bdef
/FAn {newpath tMatrix currentmatrix pop translate scale
  0 0 1 5 -2 roll arcn tMatrix setmatrix stroke} bdef
/PAn {newpath tMatrix currentmatrix pop translate 0 0 moveto scale
  0 0 1 5 -2 roll arcn closepath tMatrix setmatrix fill} bdef
/vradius 0 def /hradius 0 def /lry 0 def
/lrx 0 def /uly 0 def /ulx 0 def /rad 0 def
/MRR {/vradius xdef /hradius xdef /lry xdef /lrx xdef /uly xdef
  /ulx xdef newpath tMatrix currentmatrix pop ulx hradius add uly
  vradius add translate hradius vradius scale 0 0 1 180 270 arc 
  tMatrix setmatrix lrx hradius sub uly vradius add translate
  hradius vradius scale 0 0 1 270 360 arc tMatrix setmatrix
  lrx hradius sub lry vradius sub translate hradius vradius scale
  0 0 1 0 90 arc tMatrix setmatrix ulx hradius add lry vradius sub
  translate hradius vradius scale 0 0 1 90 180 arc tMatrix setmatrix
  closepath} bdef
/FRR {MRR stroke } bdef
/PRR {MRR fill } bdef
/MlrRR {/lry xdef /lrx xdef /uly xdef /ulx xdef /rad lry uly sub 2 div def
  newpath tMatrix currentmatrix pop ulx rad add uly rad add translate
  rad rad scale 0 0 1 90 270 arc tMatrix setmatrix lrx rad sub lry rad
  sub translate rad rad scale 0 0 1 270 90 arc tMatrix setmatrix
  closepath} bdef
/FlrRR {MlrRR stroke } bdef
/PlrRR {MlrRR fill } bdef
/MtbRR {/lry xdef /lrx xdef /uly xdef /ulx xdef /rad lrx ulx sub 2 div def
  newpath tMatrix currentmatrix pop ulx rad add uly rad add translate
  rad rad scale 0 0 1 180 360 arc tMatrix setmatrix lrx rad sub lry rad
  sub translate rad rad scale 0 0 1 0 180 arc tMatrix setmatrix
  closepath} bdef
/FtbRR {MtbRR stroke } bdef
/PtbRR {MtbRR fill } bdef
/stri 6 array def /dtri 6 array def
/smat 6 array def /dmat 6 array def
/tmat1 6 array def /tmat2 6 array def /dif 3 array def
/asub {/ind2 exch def /ind1 exch def dup dup
  ind1 get exch ind2 get sub exch } bdef
/tri_to_matrix {
  2 0 asub 3 1 asub 4 0 asub 5 1 asub
  dup 0 get exch 1 get 7 -1 roll astore } bdef
/compute_transform {
  dmat dtri tri_to_matrix tmat1 invertmatrix 
  smat stri tri_to_matrix tmat2 concatmatrix } bdef
/ds {stri astore pop} bdef
/dt {dtri astore pop} bdef
/db {2 copy /cols xdef /rows xdef mul dup 3 mul string
  currentfile exch readhexstring pop
  dup 0 3 index getinterval /rbmap xdef
  dup 2 index dup getinterval /gbmap xdef
  1 index dup 2 mul exch getinterval /bbmap xdef pop pop}bdef
/it {gs np dtri aload pop moveto lineto lineto cp c
  cols rows 8 compute_transform 
  rbmap gbmap bbmap true 3 colorimage gr}bdef
/il {newpath moveto lineto stroke}bdef
currentdict end def
%%EndProlog

%%BeginSetup
MathWorks begin

0 cap

end
%%EndSetup

%%Page: 1 1
%%BeginPageSetup
%%PageBoundingBox:   -52    85   670   711
MathWorks begin
bpage
%%EndPageSetup

%%BeginObject: obj1
bplot

/dpi2point 12 def
portraitMode -0636 8484 csm

    9   -48  8678  7509 MR c np
88 dict begin %Colortable dictionary
/c0 { 0.000000 0.000000 0.000000 sr} bdef
/c1 { 1.000000 1.000000 1.000000 sr} bdef
/c2 { 0.900000 0.000000 0.000000 sr} bdef
/c3 { 0.000000 0.820000 0.000000 sr} bdef
/c4 { 0.000000 0.000000 0.800000 sr} bdef
/c5 { 0.910000 0.820000 0.320000 sr} bdef
/c6 { 1.000000 0.260000 0.820000 sr} bdef
/c7 { 0.000000 0.820000 0.820000 sr} bdef
c0
1 j
1 sg
   0    0 8640 7471 PR
12 w
0 5939 7028 0 0 -5939 1361 6570 4 MP
PP
-7028 0 0 5939 7028 0 0 -5939 1361 6570 5 MP stroke
8 w
DO
0 sg
1361 6570 mt 1361  632 L
1361  632 mt 1361  632 L
2532 6570 mt 2532  632 L
2532  632 mt 2532  632 L
3703 6570 mt 3703  632 L
3703  632 mt 3703  632 L
4875 6570 mt 4875  632 L
4875  632 mt 4875  632 L
6046 6570 mt 6046  632 L
6046  632 mt 6046  632 L
7217 6570 mt 7217  632 L
7217  632 mt 7217  632 L
8389 6570 mt 8389  632 L
8389  632 mt 8389  632 L
1361 6570 mt 8389 6570 L
8389 6570 mt 8389 6570 L
1361 5490 mt 8389 5490 L
8389 5490 mt 8389 5490 L
1361 4410 mt 8389 4410 L
8389 4410 mt 8389 4410 L
1361 3331 mt 8389 3331 L
8389 3331 mt 8389 3331 L
1361 2251 mt 8389 2251 L
8389 2251 mt 8389 2251 L
1361 1171 mt 8389 1171 L
8389 1171 mt 8389 1171 L
SO
12 w
1361  631 mt 8389  631 L
1361 6570 mt 8389 6570 L
8389 6570 mt 8389  631 L
1361 6570 mt 1361  631 L
1361 6570 mt 8389 6570 L
1361 6570 mt 1361  631 L
1361 6570 mt 1361 6710 L
1361  632 mt 1361  491 L
%%IncludeResource: font AvantGarde-Book
/AvantGarde-Book /WindowsLatin1Encoding 300 FMSR

1278 7031 mt 
(0) s
2532 6570 mt 2532 6710 L
2532  632 mt 2532  491 L
2366 7031 mt 
(50) s
3703 6570 mt 3703 6710 L
3703  632 mt 3703  491 L
3454 7031 mt 
(100) s
4875 6570 mt 4875 6710 L
4875  632 mt 4875  491 L
4626 7031 mt 
(150) s
6046 6570 mt 6046 6710 L
6046  632 mt 6046  491 L
5797 7031 mt 
(200) s
7217 6570 mt 7217 6710 L
7217  632 mt 7217  491 L
6968 7031 mt 
(250) s
8389 6570 mt 8389 6710 L
8389  632 mt 8389  491 L
8140 7031 mt 
(300) s
DO
1361 6570 mt 1361 6570 L
1361 6570 mt 1361 6570 L
1361 6570 mt 1361 6570 L
1361 6570 mt 1361 6570 L
1361 6570 mt 1361 6570 L
1361 6570 mt 1361 6570 L
1361 6570 mt 1361 6570 L
1361 6570 mt 1361 6570 L
1361 6570 mt 1361 6570 L
1361 6570 mt 1361 6570 L
1361 6570 mt 1361 6570 L
1361 6570 mt 1361 6570 L
1361 6570 mt 1361 6570 L
1361 6570 mt 1361 6570 L
1361 6570 mt 1361 6570 L
1361 6570 mt 1361 6570 L
1361 6570 mt 1361 6570 L
1361 6570 mt 1361 6570 L
SO
1361 6570 mt 1220 6570 L
8389 6570 mt 8529 6570 L
 511 6684 mt 
(10) s
%%IncludeResource: font AvantGarde-Book
/AvantGarde-Book /WindowsLatin1Encoding 200 FMSR

 843 6493 mt 
(-10) s
DO
1361 6570 mt 1361 6570 L
1361 6570 mt 1361 6570 L
1361 6570 mt 1361 6570 L
1361 6570 mt 1361 6570 L
1361 6570 mt 1361 6570 L
1361 6570 mt 1361 6570 L
1361 6570 mt 1361 6570 L
1361 6570 mt 1361 6570 L
1361 6570 mt 1361 6570 L
1361 6570 mt 1361 6570 L
1361 6570 mt 1361 6570 L
1361 6570 mt 1361 6570 L
1361 6570 mt 1361 6570 L
1361 6570 mt 1361 6570 L
1361 6570 mt 1361 6570 L
1361 6570 mt 1361 6570 L
1361 6570 mt 1361 6570 L
1361 6570 mt 1361 6570 L
SO
1361 5490 mt 1220 5490 L
8389 5490 mt 8529 5490 L
%%IncludeResource: font AvantGarde-Book
/AvantGarde-Book /WindowsLatin1Encoding 300 FMSR

 511 5604 mt 
(10) s
%%IncludeResource: font AvantGarde-Book
/AvantGarde-Book /WindowsLatin1Encoding 200 FMSR

 843 5413 mt 
(-8) s
DO
1361 6570 mt 1361 6570 L
1361 6570 mt 1361 6570 L
1361 6570 mt 1361 6570 L
1361 6570 mt 1361 6570 L
1361 6570 mt 1361 6570 L
1361 6570 mt 1361 6570 L
1361 6570 mt 1361 6570 L
1361 6570 mt 1361 6570 L
1361 6570 mt 1361 6570 L
1361 6570 mt 1361 6570 L
1361 6570 mt 1361 6570 L
1361 6570 mt 1361 6570 L
1361 6570 mt 1361 6570 L
1361 6570 mt 1361 6570 L
1361 6570 mt 1361 6570 L
1361 6570 mt 1361 6570 L
1361 6570 mt 1361 6570 L
1361 6570 mt 1361 6570 L
SO
1361 4410 mt 1220 4410 L
8389 4410 mt 8529 4410 L
%%IncludeResource: font AvantGarde-Book
/AvantGarde-Book /WindowsLatin1Encoding 300 FMSR

 511 4524 mt 
(10) s
%%IncludeResource: font AvantGarde-Book
/AvantGarde-Book /WindowsLatin1Encoding 200 FMSR

 843 4333 mt 
(-6) s
DO
1361 6570 mt 1361 6570 L
1361 6570 mt 1361 6570 L
1361 6570 mt 1361 6570 L
1361 6570 mt 1361 6570 L
1361 6570 mt 1361 6570 L
1361 6570 mt 1361 6570 L
1361 6570 mt 1361 6570 L
1361 6570 mt 1361 6570 L
1361 6570 mt 1361 6570 L
1361 6570 mt 1361 6570 L
1361 6570 mt 1361 6570 L
1361 6570 mt 1361 6570 L
1361 6570 mt 1361 6570 L
1361 6570 mt 1361 6570 L
1361 6570 mt 1361 6570 L
1361 6570 mt 1361 6570 L
1361 6570 mt 1361 6570 L
1361 6570 mt 1361 6570 L
SO
1361 3331 mt 1220 3331 L
8389 3331 mt 8529 3331 L
%%IncludeResource: font AvantGarde-Book
/AvantGarde-Book /WindowsLatin1Encoding 300 FMSR

 511 3445 mt 
(10) s
%%IncludeResource: font AvantGarde-Book
/AvantGarde-Book /WindowsLatin1Encoding 200 FMSR

 843 3254 mt 
(-4) s
DO
1361 6570 mt 1361 6570 L
1361 6570 mt 1361 6570 L
1361 6570 mt 1361 6570 L
1361 6570 mt 1361 6570 L
1361 6570 mt 1361 6570 L
1361 6570 mt 1361 6570 L
1361 6570 mt 1361 6570 L
1361 6570 mt 1361 6570 L
1361 6570 mt 1361 6570 L
1361 6570 mt 1361 6570 L
1361 6570 mt 1361 6570 L
1361 6570 mt 1361 6570 L
1361 6570 mt 1361 6570 L
1361 6570 mt 1361 6570 L
1361 6570 mt 1361 6570 L
1361 6570 mt 1361 6570 L
1361 6570 mt 1361 6570 L
1361 6570 mt 1361 6570 L
SO
1361 2251 mt 1220 2251 L
8389 2251 mt 8529 2251 L
%%IncludeResource: font AvantGarde-Book
/AvantGarde-Book /WindowsLatin1Encoding 300 FMSR

 511 2365 mt 
(10) s
%%IncludeResource: font AvantGarde-Book
/AvantGarde-Book /WindowsLatin1Encoding 200 FMSR

 843 2174 mt 
(-2) s
DO
1361 6570 mt 1361 6570 L
1361 6570 mt 1361 6570 L
1361 6570 mt 1361 6570 L
1361 6570 mt 1361 6570 L
1361 6570 mt 1361 6570 L
1361 6570 mt 1361 6570 L
1361 6570 mt 1361 6570 L
1361 6570 mt 1361 6570 L
1361 6570 mt 1361 6570 L
1361 6570 mt 1361 6570 L
1361 6570 mt 1361 6570 L
1361 6570 mt 1361 6570 L
1361 6570 mt 1361 6570 L
1361 6570 mt 1361 6570 L
1361 6570 mt 1361 6570 L
1361 6570 mt 1361 6570 L
1361 6570 mt 1361 6570 L
1361 6570 mt 1361 6570 L
SO
1361 1171 mt 1220 1171 L
8389 1171 mt 8529 1171 L
%%IncludeResource: font AvantGarde-Book
/AvantGarde-Book /WindowsLatin1Encoding 300 FMSR

 511 1285 mt 
(10) s
%%IncludeResource: font AvantGarde-Book
/AvantGarde-Book /WindowsLatin1Encoding 200 FMSR

 843 1094 mt 
(0) s
DO
1361 6570 mt 1361 6570 L
1361 6570 mt 1361 6570 L
1361 6570 mt 1361 6570 L
1361 6570 mt 1361 6570 L
1361 6570 mt 1361 6570 L
1361 6570 mt 1361 6570 L
1361 6570 mt 1361 6570 L
1361 6570 mt 1361 6570 L
1361 6570 mt 1361 6570 L
1361 6570 mt 1361 6570 L
1361 6570 mt 1361 6570 L
1361 6570 mt 1361 6570 L
1361 6570 mt 1361 6570 L
1361 6570 mt 1361 6570 L
1361 6570 mt 1361 6570 L
1361 6570 mt 1361 6570 L
1361 6570 mt 1361 6570 L
1361 6570 mt 1361 6570 L
SO
1361  631 mt 8389  631 L
1361 6570 mt 8389 6570 L
8389 6570 mt 8389  631 L
1361 6570 mt 1361  631 L
gs 1361 632 7029 5939 MR c np
36 w
/c8 { 1.000000 0.000000 0.000000 sr} bdef
c8
423 321 1687 1344 1640 1237 1124 885 890 461 797 260 234 164 234 0 
1361 958 9 MP stroke
/c9 { 0.000000 0.000000 1.000000 sr} bdef
c9
1289 1125 1499 1257 1499 1463 984 883 750 461 328 260 234 164 234 0 
1361 958 9 MP stroke
/c10 { 0.000000 1.000000 0.000000 sr} bdef
c10
1085 1174 1781 1351 1218 1315 1077 888 891 461 234 260 234 164 234 0 
1361 958 9 MP stroke
/c11 { 0.000000 1.000000 1.000000 sr} bdef
c11
1124 1295 1593 1256 1171 1287 1031 886 797 461 234 260 234 164 234 0 
1361 958 9 MP stroke
gr

36 w
c11
0 j
-119 69 0 -138 119 69 1282 958 4 MP
/c12 { 1.000000 1.000000 0.900000 sr} bdef
c12
gs
PP
gr
c8
DP
-119 69 0 -138 119 69 1516 958 4 MP
c12
gs
PP
gr
c8
DP
-119 69 0 -138 119 69 1750 1122 4 MP
c12
gs
PP
gr
c8
DP
-119 69 0 -138 119 69 2547 1382 4 MP
c12
gs
PP
gr
c8
DP
-119 69 0 -138 119 69 3437 1843 4 MP
c12
gs
PP
gr
c8
DP
-119 69 0 -138 119 69 4561 2728 4 MP
c12
gs
PP
gr
c8
DP
-119 69 0 -138 119 69 6201 3965 4 MP
c12
gs
PP
gr
c8
DP
-119 69 0 -138 119 69 7888 5309 4 MP
c12
gs
PP
gr
c8
DP
gs 1361 632 7029 5939 MR c np
1361 958 PD
gr

-119 69 0 -138 119 69 1282 958 4 MP
c12
gs
PP
gr
c8
DP
gs 1361 632 7029 5939 MR c np
gr

0 -94 -94 0 0 94 94 0 1314 911 5 MP
c12
gs
PP
gr
c9
DP
0 -94 -94 0 0 94 94 0 2110 1335 5 MP
c12
gs
PP
gr
c9
DP
0 -94 -94 0 0 94 94 0 5343 4142 5 MP
c12
gs
PP
gr
c9
DP
gs 1361 632 7029 5939 MR c np
1361 958 PD
gr

0 -94 -94 0 0 94 94 0 1314 911 5 MP
c12
gs
PP
gr
c9
DP
gs 1361 632 7029 5939 MR c np
gr

-21 -30 21 -30 -34 0 -17 -30 -17 30 -34 0 21 30 -21 30 
34 0 17 30 17 -30 34 0 1310 928 13 MP
c12
gs
PP
gr
c10
DP
-21 -30 21 -30 -34 0 -17 -30 -17 30 -34 0 21 30 -21 30 
34 0 17 30 17 -30 34 0 3980 2701 13 MP
c12
gs
PP
gr
c10
DP
gs 1361 632 7029 5939 MR c np
1361 958 PD
gr

-21 -30 21 -30 -34 0 -17 -30 -17 30 -34 0 21 30 -21 30 
34 0 17 30 17 -30 34 0 1310 928 13 MP
c12
gs
PP
gr
c10
DP
gs 1361 632 7029 5939 MR c np
gr

c11
1301  958 mt 1421  958 L
1361  898 mt 1361 1018 L
6595 5272 mt 6715 5272 L
6655 5212 mt 6655 5332 L
1319  916 mt 1403 1000 L
1403  916 mt 1319 1000 L
6613 5230 mt 6697 5314 L
6697 5230 mt 6613 5314 L
gs 1361 632 7029 5939 MR c np
1361 958 PD
gr

1301  958 mt 1421  958 L
1361  898 mt 1361 1018 L
1319  916 mt 1403 1000 L
1403  916 mt 1319 1000 L
gs 1361 632 7029 5939 MR c np
gr

0 sg
%%IncludeResource: font AvantGarde-Demi
/AvantGarde-Demi /WindowsLatin1Encoding 360 FMSR

3871  367 mt 
(a1a, DiscoS) s
%%IncludeResource: font AvantGarde-Book
/AvantGarde-Book /WindowsLatin1Encoding 360 FMSR

2407 7357 mt 
(Number of Communications) s
 377 5133 mt  -90 rotate
(Norm of Gradient) s
90 rotate
%%IncludeResource: font Helvetica
/Helvetica /WindowsLatin1Encoding 300 FMSR

1310 6686 mt 
( ) s
8339  747 mt 
( ) s
12 w
6 w
1 sg
0 1202 904 0 0 -1202 1412 6520 4 MP
PP
-904 0 0 1202 904 0 0 -1202 1412 6520 5 MP stroke
4 w
DO
SO
6 w
0 sg
1412 5318 mt 2316 5318 L
1412 6520 mt 2316 6520 L
2316 6520 mt 2316 5318 L
1412 6520 mt 1412 5318 L
1412 6520 mt 2316 6520 L
1412 6520 mt 1412 5318 L
1412 5318 mt 2316 5318 L
1412 6520 mt 2316 6520 L
2316 6520 mt 2316 5318 L
1412 6520 mt 1412 5318 L
%%IncludeResource: font AvantGarde-Book
/AvantGarde-Book /WindowsLatin1Encoding 240 FMSR

1856 5571 mt 
(100) s
gs 1412 5318 905 1203 MR c np
36 w
c8
341 0 1480 5483 2 MP stroke
gs 1492 5325 317 317 MR c np
-119 69 0 -138 119 69 1571 5483 4 MP
c12
gs
PP
gr
c8
DP
gr

gr

36 w
c8
0 sg
1856 5862 mt 
(200) s
gs 1412 5318 905 1203 MR c np
c9
341 0 1480 5773 2 MP stroke
gs 1492 5615 317 317 MR c np
0 -94 -94 0 0 94 94 0 1603 5726 5 MP
c12
gs
PP
gr
c9
DP
gr

gr

c9
0 sg
1856 6153 mt 
(300) s
gs 1412 5318 905 1203 MR c np
c10
341 0 1480 6064 2 MP stroke
gs 1492 5906 317 317 MR c np
-21 -30 21 -30 -34 0 -17 -30 -17 30 -34 0 21 30 -21 30 
34 0 17 30 17 -30 34 0 1599 6034 13 MP
c12
gs
PP
gr
c10
DP
gr

gr

c10
0 sg
1856 6444 mt 
(400) s
gs 1412 5318 905 1203 MR c np
c11
341 0 1480 6354 2 MP stroke
gs 1492 6196 317 317 MR c np
1590 6354 mt 1710 6354 L
1650 6294 mt 1650 6414 L
1608 6312 mt 1692 6396 L
1692 6312 mt 1608 6396 L
gr

6 w
gr

6 w
c11

end %%Color Dict

eplot
%%EndObject

epage
end

showpage

%%Trailer
%%EOF
