%!PS-Adobe-2.0 EPSF-1.2
%%Creator: MATLAB, The MathWorks, Inc. Version 7.14.0.739 (R2012a). Operating System: Microsoft Windows 7.
%%Title: .\eps_4_2.eps
%%CreationDate: 10/20/2015  21:36:09
%%DocumentNeededFonts: AvantGarde-Book
%%+ Helvetica
%%+ AvantGarde-Demi
%%DocumentProcessColors: Cyan Magenta Yellow Black
%%Extensions: CMYK
%%Pages: 1
%%BoundingBox:   -52    85   670   711
%%EndComments

%%BeginProlog
% MathWorks dictionary
/MathWorks 160 dict begin
% definition operators
/bdef {bind def} bind def
/ldef {load def} bind def
/xdef {exch def} bdef
/xstore {exch store} bdef
% operator abbreviations
/c  /clip ldef
/cc /concat ldef
/cp /closepath ldef
/gr /grestore ldef
/gs /gsave ldef
/mt /moveto ldef
/np /newpath ldef
/cm /currentmatrix ldef
/sm /setmatrix ldef
/rm /rmoveto ldef
/rl /rlineto ldef
/s {show newpath} bdef
/sc {setcmykcolor} bdef
/sr /setrgbcolor ldef
/sg /setgray ldef
/w /setlinewidth ldef
/j /setlinejoin ldef
/cap /setlinecap ldef
/rc {rectclip} bdef
/rf {rectfill} bdef
% page state control
/pgsv () def
/bpage {/pgsv save def} bdef
/epage {pgsv restore} bdef
/bplot /gsave ldef
/eplot {stroke grestore} bdef
% orientation switch
/portraitMode 0 def /landscapeMode 1 def /rotateMode 2 def
% coordinate system mappings
/dpi2point 0 def
% font control
/FontSize 0 def
/FMS {/FontSize xstore findfont [FontSize 0 0 FontSize neg 0 0]
  makefont setfont} bdef
/ISOLatin1Encoding where {pop /WindowsLatin1Encoding 256 array bdef
ISOLatin1Encoding WindowsLatin1Encoding copy pop
/.notdef/.notdef/quotesinglbase/florin/quotedblbase/ellipsis/dagger
/daggerdbl/circumflex/perthousand/Scaron/guilsinglleft/OE/.notdef/.notdef
/.notdef/.notdef/quoteleft/quoteright/quotedblleft/quotedblright/bullet
/endash/emdash/tilde/trademark/scaron/guilsinglright/oe/.notdef/.notdef
/Ydieresis WindowsLatin1Encoding 128 32 getinterval astore pop}
{/WindowsLatin1Encoding StandardEncoding bdef} ifelse
/reencode {exch dup where {pop load} {pop StandardEncoding} ifelse
  exch dup 3 1 roll findfont dup length dict begin
  { 1 index /FID ne {def}{pop pop} ifelse } forall
  /Encoding exch def currentdict end definefont pop} bdef
/isroman {findfont /CharStrings get /Agrave known} bdef
/FMSR {3 1 roll 1 index dup isroman {reencode} {pop pop} ifelse
  exch FMS} bdef
/csm {1 dpi2point div -1 dpi2point div scale neg translate
 dup landscapeMode eq {pop -90 rotate}
  {rotateMode eq {90 rotate} if} ifelse} bdef
% line types: solid, dotted, dashed, dotdash
/SO { [] 0 setdash } bdef
/DO { [.5 dpi2point mul 4 dpi2point mul] 0 setdash } bdef
/DA { [6 dpi2point mul] 0 setdash } bdef
/DD { [.5 dpi2point mul 4 dpi2point mul 6 dpi2point mul 4
  dpi2point mul] 0 setdash } bdef
% macros for lines and objects
/L {lineto stroke} bdef
/MP {3 1 roll moveto 1 sub {rlineto} repeat} bdef
/AP {{rlineto} repeat} bdef
/PDlw -1 def
/W {/PDlw currentlinewidth def setlinewidth} def
/PP {closepath eofill} bdef
/DP {closepath stroke} bdef
/MR {4 -2 roll moveto dup  0 exch rlineto exch 0 rlineto
  neg 0 exch rlineto closepath} bdef
/FR {MR stroke} bdef
/PR {MR fill} bdef
/L1i {{currentfile picstr readhexstring pop} image} bdef
/tMatrix matrix def
/MakeOval {newpath tMatrix currentmatrix pop translate scale
0 0 1 0 360 arc tMatrix setmatrix} bdef
/FO {MakeOval stroke} bdef
/PO {MakeOval fill} bdef
/PD {currentlinewidth 2 div 0 360 arc fill
   PDlw -1 eq not {PDlw w /PDlw -1 def} if} def
/FA {newpath tMatrix currentmatrix pop translate scale
  0 0 1 5 -2 roll arc tMatrix setmatrix stroke} bdef
/PA {newpath tMatrix currentmatrix pop	translate 0 0 moveto scale
  0 0 1 5 -2 roll arc closepath tMatrix setmatrix fill} bdef
/FAn {newpath tMatrix currentmatrix pop translate scale
  0 0 1 5 -2 roll arcn tMatrix setmatrix stroke} bdef
/PAn {newpath tMatrix currentmatrix pop translate 0 0 moveto scale
  0 0 1 5 -2 roll arcn closepath tMatrix setmatrix fill} bdef
/vradius 0 def /hradius 0 def /lry 0 def
/lrx 0 def /uly 0 def /ulx 0 def /rad 0 def
/MRR {/vradius xdef /hradius xdef /lry xdef /lrx xdef /uly xdef
  /ulx xdef newpath tMatrix currentmatrix pop ulx hradius add uly
  vradius add translate hradius vradius scale 0 0 1 180 270 arc 
  tMatrix setmatrix lrx hradius sub uly vradius add translate
  hradius vradius scale 0 0 1 270 360 arc tMatrix setmatrix
  lrx hradius sub lry vradius sub translate hradius vradius scale
  0 0 1 0 90 arc tMatrix setmatrix ulx hradius add lry vradius sub
  translate hradius vradius scale 0 0 1 90 180 arc tMatrix setmatrix
  closepath} bdef
/FRR {MRR stroke } bdef
/PRR {MRR fill } bdef
/MlrRR {/lry xdef /lrx xdef /uly xdef /ulx xdef /rad lry uly sub 2 div def
  newpath tMatrix currentmatrix pop ulx rad add uly rad add translate
  rad rad scale 0 0 1 90 270 arc tMatrix setmatrix lrx rad sub lry rad
  sub translate rad rad scale 0 0 1 270 90 arc tMatrix setmatrix
  closepath} bdef
/FlrRR {MlrRR stroke } bdef
/PlrRR {MlrRR fill } bdef
/MtbRR {/lry xdef /lrx xdef /uly xdef /ulx xdef /rad lrx ulx sub 2 div def
  newpath tMatrix currentmatrix pop ulx rad add uly rad add translate
  rad rad scale 0 0 1 180 360 arc tMatrix setmatrix lrx rad sub lry rad
  sub translate rad rad scale 0 0 1 0 180 arc tMatrix setmatrix
  closepath} bdef
/FtbRR {MtbRR stroke } bdef
/PtbRR {MtbRR fill } bdef
/stri 6 array def /dtri 6 array def
/smat 6 array def /dmat 6 array def
/tmat1 6 array def /tmat2 6 array def /dif 3 array def
/asub {/ind2 exch def /ind1 exch def dup dup
  ind1 get exch ind2 get sub exch } bdef
/tri_to_matrix {
  2 0 asub 3 1 asub 4 0 asub 5 1 asub
  dup 0 get exch 1 get 7 -1 roll astore } bdef
/compute_transform {
  dmat dtri tri_to_matrix tmat1 invertmatrix 
  smat stri tri_to_matrix tmat2 concatmatrix } bdef
/ds {stri astore pop} bdef
/dt {dtri astore pop} bdef
/db {2 copy /cols xdef /rows xdef mul dup 3 mul string
  currentfile exch readhexstring pop
  dup 0 3 index getinterval /rbmap xdef
  dup 2 index dup getinterval /gbmap xdef
  1 index dup 2 mul exch getinterval /bbmap xdef pop pop}bdef
/it {gs np dtri aload pop moveto lineto lineto cp c
  cols rows 8 compute_transform 
  rbmap gbmap bbmap true 3 colorimage gr}bdef
/il {newpath moveto lineto stroke}bdef
currentdict end def
%%EndProlog

%%BeginSetup
MathWorks begin

0 cap

end
%%EndSetup

%%Page: 1 1
%%BeginPageSetup
%%PageBoundingBox:   -52    85   670   711
MathWorks begin
bpage
%%EndPageSetup

%%BeginObject: obj1
bplot

/dpi2point 12 def
portraitMode -0636 8484 csm

    8   -48  8679  7510 MR c np
87 dict begin %Colortable dictionary
/c0 { 0.000000 0.000000 0.000000 sr} bdef
/c1 { 1.000000 1.000000 1.000000 sr} bdef
/c2 { 0.900000 0.000000 0.000000 sr} bdef
/c3 { 0.000000 0.820000 0.000000 sr} bdef
/c4 { 0.000000 0.000000 0.800000 sr} bdef
/c5 { 0.910000 0.820000 0.320000 sr} bdef
/c6 { 1.000000 0.260000 0.820000 sr} bdef
/c7 { 0.000000 0.820000 0.820000 sr} bdef
c0
1 j
1 sg
   0    0 8640 7471 PR
12 w
0 5939 7105 0 0 -5939 1361 6570 4 MP
PP
-7105 0 0 5939 7105 0 0 -5939 1361 6570 5 MP stroke
8 w
DO
0 sg
1361 6570 mt 1361  632 L
1361  632 mt 1361  632 L
3137 6570 mt 3137  632 L
3137  632 mt 3137  632 L
4913 6570 mt 4913  632 L
4913  632 mt 4913  632 L
6689 6570 mt 6689  632 L
6689  632 mt 6689  632 L
8466 6570 mt 8466  632 L
8466  632 mt 8466  632 L
1361 6570 mt 8466 6570 L
8466 6570 mt 8466 6570 L
1361 5490 mt 8466 5490 L
8466 5490 mt 8466 5490 L
1361 4410 mt 8466 4410 L
8466 4410 mt 8466 4410 L
1361 3331 mt 8466 3331 L
8466 3331 mt 8466 3331 L
1361 2251 mt 8466 2251 L
8466 2251 mt 8466 2251 L
1361 1171 mt 8466 1171 L
8466 1171 mt 8466 1171 L
SO
12 w
1361  631 mt 8466  631 L
1361 6570 mt 8466 6570 L
8466 6570 mt 8466  631 L
1361 6570 mt 1361  631 L
1361 6570 mt 8466 6570 L
1361 6570 mt 1361  631 L
1361 6570 mt 1361 6712 L
1361  632 mt 1361  489 L
%%IncludeResource: font AvantGarde-Book
/AvantGarde-Book /WindowsLatin1Encoding 300 FMSR

1278 7032 mt 
(0) s
3137 6570 mt 3137 6712 L
3137  632 mt 3137  489 L
2971 7032 mt 
(10) s
4913 6570 mt 4913 6712 L
4913  632 mt 4913  489 L
4747 7032 mt 
(20) s
6689 6570 mt 6689 6712 L
6689  632 mt 6689  489 L
6523 7032 mt 
(30) s
8466 6570 mt 8466 6712 L
8466  632 mt 8466  489 L
8300 7032 mt 
(40) s
DO
1361 6570 mt 1361 6570 L
1361 6570 mt 1361 6570 L
1361 6570 mt 1361 6570 L
1361 6570 mt 1361 6570 L
1361 6570 mt 1361 6570 L
1361 6570 mt 1361 6570 L
1361 6570 mt 1361 6570 L
1361 6570 mt 1361 6570 L
1361 6570 mt 1361 6570 L
1361 6570 mt 1361 6570 L
1361 6570 mt 1361 6570 L
1361 6570 mt 1361 6570 L
1361 6570 mt 1361 6570 L
1361 6570 mt 1361 6570 L
1361 6570 mt 1361 6570 L
1361 6570 mt 1361 6570 L
1361 6570 mt 1361 6570 L
1361 6570 mt 1361 6570 L
SO
1361 6570 mt 1218 6570 L
8466 6570 mt 8608 6570 L
 510 6684 mt 
(10) s
%%IncludeResource: font AvantGarde-Book
/AvantGarde-Book /WindowsLatin1Encoding 200 FMSR

 842 6493 mt 
(-10) s
DO
1361 6570 mt 1361 6570 L
1361 6570 mt 1361 6570 L
1361 6570 mt 1361 6570 L
1361 6570 mt 1361 6570 L
1361 6570 mt 1361 6570 L
1361 6570 mt 1361 6570 L
1361 6570 mt 1361 6570 L
1361 6570 mt 1361 6570 L
1361 6570 mt 1361 6570 L
1361 6570 mt 1361 6570 L
1361 6570 mt 1361 6570 L
1361 6570 mt 1361 6570 L
1361 6570 mt 1361 6570 L
1361 6570 mt 1361 6570 L
1361 6570 mt 1361 6570 L
1361 6570 mt 1361 6570 L
1361 6570 mt 1361 6570 L
1361 6570 mt 1361 6570 L
SO
1361 5490 mt 1218 5490 L
8466 5490 mt 8608 5490 L
%%IncludeResource: font AvantGarde-Book
/AvantGarde-Book /WindowsLatin1Encoding 300 FMSR

 510 5604 mt 
(10) s
%%IncludeResource: font AvantGarde-Book
/AvantGarde-Book /WindowsLatin1Encoding 200 FMSR

 842 5413 mt 
(-8) s
DO
1361 6570 mt 1361 6570 L
1361 6570 mt 1361 6570 L
1361 6570 mt 1361 6570 L
1361 6570 mt 1361 6570 L
1361 6570 mt 1361 6570 L
1361 6570 mt 1361 6570 L
1361 6570 mt 1361 6570 L
1361 6570 mt 1361 6570 L
1361 6570 mt 1361 6570 L
1361 6570 mt 1361 6570 L
1361 6570 mt 1361 6570 L
1361 6570 mt 1361 6570 L
1361 6570 mt 1361 6570 L
1361 6570 mt 1361 6570 L
1361 6570 mt 1361 6570 L
1361 6570 mt 1361 6570 L
1361 6570 mt 1361 6570 L
1361 6570 mt 1361 6570 L
SO
1361 4410 mt 1218 4410 L
8466 4410 mt 8608 4410 L
%%IncludeResource: font AvantGarde-Book
/AvantGarde-Book /WindowsLatin1Encoding 300 FMSR

 510 4524 mt 
(10) s
%%IncludeResource: font AvantGarde-Book
/AvantGarde-Book /WindowsLatin1Encoding 200 FMSR

 842 4333 mt 
(-6) s
DO
1361 6570 mt 1361 6570 L
1361 6570 mt 1361 6570 L
1361 6570 mt 1361 6570 L
1361 6570 mt 1361 6570 L
1361 6570 mt 1361 6570 L
1361 6570 mt 1361 6570 L
1361 6570 mt 1361 6570 L
1361 6570 mt 1361 6570 L
1361 6570 mt 1361 6570 L
1361 6570 mt 1361 6570 L
1361 6570 mt 1361 6570 L
1361 6570 mt 1361 6570 L
1361 6570 mt 1361 6570 L
1361 6570 mt 1361 6570 L
1361 6570 mt 1361 6570 L
1361 6570 mt 1361 6570 L
1361 6570 mt 1361 6570 L
1361 6570 mt 1361 6570 L
SO
1361 3331 mt 1218 3331 L
8466 3331 mt 8608 3331 L
%%IncludeResource: font AvantGarde-Book
/AvantGarde-Book /WindowsLatin1Encoding 300 FMSR

 510 3445 mt 
(10) s
%%IncludeResource: font AvantGarde-Book
/AvantGarde-Book /WindowsLatin1Encoding 200 FMSR

 842 3254 mt 
(-4) s
DO
1361 6570 mt 1361 6570 L
1361 6570 mt 1361 6570 L
1361 6570 mt 1361 6570 L
1361 6570 mt 1361 6570 L
1361 6570 mt 1361 6570 L
1361 6570 mt 1361 6570 L
1361 6570 mt 1361 6570 L
1361 6570 mt 1361 6570 L
1361 6570 mt 1361 6570 L
1361 6570 mt 1361 6570 L
1361 6570 mt 1361 6570 L
1361 6570 mt 1361 6570 L
1361 6570 mt 1361 6570 L
1361 6570 mt 1361 6570 L
1361 6570 mt 1361 6570 L
1361 6570 mt 1361 6570 L
1361 6570 mt 1361 6570 L
1361 6570 mt 1361 6570 L
SO
1361 2251 mt 1218 2251 L
8466 2251 mt 8608 2251 L
%%IncludeResource: font AvantGarde-Book
/AvantGarde-Book /WindowsLatin1Encoding 300 FMSR

 510 2365 mt 
(10) s
%%IncludeResource: font AvantGarde-Book
/AvantGarde-Book /WindowsLatin1Encoding 200 FMSR

 842 2174 mt 
(-2) s
DO
1361 6570 mt 1361 6570 L
1361 6570 mt 1361 6570 L
1361 6570 mt 1361 6570 L
1361 6570 mt 1361 6570 L
1361 6570 mt 1361 6570 L
1361 6570 mt 1361 6570 L
1361 6570 mt 1361 6570 L
1361 6570 mt 1361 6570 L
1361 6570 mt 1361 6570 L
1361 6570 mt 1361 6570 L
1361 6570 mt 1361 6570 L
1361 6570 mt 1361 6570 L
1361 6570 mt 1361 6570 L
1361 6570 mt 1361 6570 L
1361 6570 mt 1361 6570 L
1361 6570 mt 1361 6570 L
1361 6570 mt 1361 6570 L
1361 6570 mt 1361 6570 L
SO
1361 1171 mt 1218 1171 L
8466 1171 mt 8608 1171 L
%%IncludeResource: font AvantGarde-Book
/AvantGarde-Book /WindowsLatin1Encoding 300 FMSR

 510 1285 mt 
(10) s
%%IncludeResource: font AvantGarde-Book
/AvantGarde-Book /WindowsLatin1Encoding 200 FMSR

 842 1094 mt 
(0) s
DO
1361 6570 mt 1361 6570 L
1361 6570 mt 1361 6570 L
1361 6570 mt 1361 6570 L
1361 6570 mt 1361 6570 L
1361 6570 mt 1361 6570 L
1361 6570 mt 1361 6570 L
1361 6570 mt 1361 6570 L
1361 6570 mt 1361 6570 L
1361 6570 mt 1361 6570 L
1361 6570 mt 1361 6570 L
1361 6570 mt 1361 6570 L
1361 6570 mt 1361 6570 L
1361 6570 mt 1361 6570 L
1361 6570 mt 1361 6570 L
1361 6570 mt 1361 6570 L
1361 6570 mt 1361 6570 L
1361 6570 mt 1361 6570 L
1361 6570 mt 1361 6570 L
SO
1361  631 mt 8466  631 L
1361 6570 mt 8466 6570 L
8466 6570 mt 8466  631 L
1361 6570 mt 1361  631 L
gs 1361 632 7106 5939 MR c np
36 w
/c8 { 1.000000 0.000000 0.000000 sr} bdef
c8
1232 1796 1421 1749 1066 883 1066 457 1066 258 1065 0 1361 1428 7 MP stroke
/c9 { 0.000000 0.000000 1.000000 sr} bdef
c9
671 1958 711 1749 533 883 533 457 533 258 532 0 1361 1266 7 MP stroke
/c10 { 0.000000 1.000000 0.000000 sr} bdef
c10
1 0 178 -2 178 3 177 0 178 1 178 8 177 -6 178 111 
177 -46 178 182 178 262 177 470 178 24 178 67 177 -14 178 63 
177 197 178 -47 178 37 177 2 178 -4 178 183 177 -4 178 10 
177 74 178 -19 178 76 177 18 178 110 178 -16 177 29 178 129 
177 30 178 40 178 -2 177 52 178 45 178 176 177 348 178 391 
1538 1517 41 MP stroke
gr

36 w
c10
0 j
-215 124 0 -248 215 124 1218 1428 4 MP
/c11 { 1.000000 1.000000 0.900000 sr} bdef
c11
gs
PP
gr
c8
DP
-215 124 0 -248 215 124 2283 1428 4 MP
c11
gs
PP
gr
c8
DP
-215 124 0 -248 215 124 3349 1686 4 MP
c11
gs
PP
gr
c8
DP
-215 124 0 -248 215 124 4415 2143 4 MP
c11
gs
PP
gr
c8
DP
-215 124 0 -248 215 124 5481 3026 4 MP
c11
gs
PP
gr
c8
DP
-215 124 0 -248 215 124 6902 4775 4 MP
c11
gs
PP
gr
c8
DP
gs 1361 632 7106 5939 MR c np
1361 1428 PD
gr

-215 124 0 -248 215 124 1218 1428 4 MP
c11
gs
PP
gr
c8
DP
gs 1361 632 7106 5939 MR c np
gr

0 -170 -170 0 0 170 170 0 1276 1181 5 MP
c11
gs
PP
gr
c9
DP
0 -170 -170 0 0 170 170 0 1808 1181 5 MP
c11
gs
PP
gr
c9
DP
0 -170 -170 0 0 170 170 0 2341 1439 5 MP
c11
gs
PP
gr
c9
DP
0 -170 -170 0 0 170 170 0 2874 1896 5 MP
c11
gs
PP
gr
c9
DP
0 -170 -170 0 0 170 170 0 3407 2779 5 MP
c11
gs
PP
gr
c9
DP
0 -170 -170 0 0 170 170 0 4118 4528 5 MP
c11
gs
PP
gr
c9
DP
gs 1361 632 7106 5939 MR c np
1361 1266 PD
gr

0 -170 -170 0 0 170 170 0 1276 1181 5 MP
c11
gs
PP
gr
c9
DP
gs 1361 632 7106 5939 MR c np
gr

-39 -54 39 -54 -62 0 -31 -54 -31 54 -62 0 39 54 -39 54 
62 0 31 54 31 -54 62 0 1445 1463 13 MP
c11
gs
PP
gr
c10
DP
-39 -54 39 -54 -62 0 -31 -54 -31 54 -62 0 39 54 -39 54 
62 0 31 54 31 -54 62 0 1978 2378 13 MP
c11
gs
PP
gr
c10
DP
-39 -54 39 -54 -62 0 -31 -54 -31 54 -62 0 39 54 -39 54 
62 0 31 54 31 -54 62 0 2511 2473 13 MP
c11
gs
PP
gr
c10
DP
-39 -54 39 -54 -62 0 -31 -54 -31 54 -62 0 39 54 -39 54 
62 0 31 54 31 -54 62 0 3044 2672 13 MP
c11
gs
PP
gr
c10
DP
-39 -54 39 -54 -62 0 -31 -54 -31 54 -62 0 39 54 -39 54 
62 0 31 54 31 -54 62 0 3577 2795 13 MP
c11
gs
PP
gr
c10
DP
-39 -54 39 -54 -62 0 -31 -54 -31 54 -62 0 39 54 -39 54 
62 0 31 54 31 -54 62 0 4110 2870 13 MP
c11
gs
PP
gr
c10
DP
-39 -54 39 -54 -62 0 -31 -54 -31 54 -62 0 39 54 -39 54 
62 0 31 54 31 -54 62 0 4642 2950 13 MP
c11
gs
PP
gr
c10
DP
-39 -54 39 -54 -62 0 -31 -54 -31 54 -62 0 39 54 -39 54 
62 0 31 54 31 -54 62 0 5175 3131 13 MP
c11
gs
PP
gr
c10
DP
-39 -54 39 -54 -62 0 -31 -54 -31 54 -62 0 39 54 -39 54 
62 0 31 54 31 -54 62 0 5708 3318 13 MP
c11
gs
PP
gr
c10
DP
-39 -54 39 -54 -62 0 -31 -54 -31 54 -62 0 39 54 -39 54 
62 0 31 54 31 -54 62 0 6241 3434 13 MP
c11
gs
PP
gr
c10
DP
-39 -54 39 -54 -62 0 -31 -54 -31 54 -62 0 39 54 -39 54 
62 0 31 54 31 -54 62 0 6774 4190 13 MP
c11
gs
PP
gr
c10
DP
-39 -54 39 -54 -62 0 -31 -54 -31 54 -62 0 39 54 -39 54 
62 0 31 54 31 -54 62 0 7307 4437 13 MP
c11
gs
PP
gr
c10
DP
-39 -54 39 -54 -62 0 -31 -54 -31 54 -62 0 39 54 -39 54 
62 0 31 54 31 -54 62 0 7840 4440 13 MP
c11
gs
PP
gr
c10
DP
-39 -54 39 -54 -62 0 -31 -54 -31 54 -62 0 39 54 -39 54 
62 0 31 54 31 -54 62 0 8373 4441 13 MP
c11
gs
PP
gr
c10
DP
gs 1361 632 7106 5939 MR c np
1538 1517 PD
gr

-39 -54 39 -54 -62 0 -31 -54 -31 54 -62 0 39 54 -39 54 
62 0 31 54 31 -54 62 0 1445 1463 13 MP
c11
gs
PP
gr
c10
DP
gs 1361 632 7106 5939 MR c np
gr

0 sg
%%IncludeResource: font AvantGarde-Demi
/AvantGarde-Demi /WindowsLatin1Encoding 360 FMSR

4126  367 mt 
(eps, m=4) s
%%IncludeResource: font AvantGarde-Book
/AvantGarde-Book /WindowsLatin1Encoding 360 FMSR

2445 7358 mt 
(Number of Communications) s
 376 5133 mt  -90 rotate
(Norm of Gradient) s
90 rotate
%%IncludeResource: font Helvetica
/Helvetica /WindowsLatin1Encoding 300 FMSR

1310 6686 mt 
( ) s
8416  747 mt 
( ) s
12 w
6 w
1 sg
0 1332 2047 0 0 -1332 6350 2033 4 MP
PP
-2047 0 0 1332 2047 0 0 -1332 6350 2033 5 MP stroke
4 w
DO
SO
6 w
0 sg
6350  701 mt 8397  701 L
6350 2033 mt 8397 2033 L
8397 2033 mt 8397  701 L
6350 2033 mt 6350  701 L
6350 2033 mt 8397 2033 L
6350 2033 mt 6350  701 L
6350  701 mt 8397  701 L
6350 2033 mt 8397 2033 L
8397 2033 mt 8397  701 L
6350 2033 mt 6350  701 L
%%IncludeResource: font AvantGarde-Book
/AvantGarde-Book /WindowsLatin1Encoding 360 FMSR

6821 1069 mt 
(DiSCO-S) s
gs 6350 701 2048 1333 MR c np
36 w
c8
362 0 6422 936 2 MP stroke
gr

36 w
c8
gs 6349 682 509 509 MR c np
-215 124 0 -248 215 124 6460 936 4 MP
c11
gs
PP
gr
c8
DP
gr

gs 6350 701 2048 1333 MR c np
gr

0 sg
6821 1500 mt 
(DiSCO-F) s
gs 6350 701 2048 1333 MR c np
c9
362 0 6422 1367 2 MP stroke
gr

c9
gs 6349 1113 509 509 MR c np
0 -170 -170 0 0 170 170 0 6518 1282 5 MP
c11
gs
PP
gr
c9
DP
gr

gs 6350 701 2048 1333 MR c np
gr

0 sg
6821 1930 mt 
(CoCoA+) s
gs 6350 701 2048 1333 MR c np
c10
362 0 6422 1797 2 MP stroke
gr

c10
gs 6349 1543 509 509 MR c np
-39 -54 39 -54 -62 0 -31 -54 -31 54 -62 0 39 54 -39 54 
62 0 31 54 31 -54 62 0 6510 1743 13 MP
c11
gs
PP
gr
c10
DP
gr

gs 6350 701 2048 1333 MR c np
6 w
gr

6 w

end %%Color Dict

eplot
%%EndObject

epage
end

showpage

%%Trailer
%%EOF
