%!PS-Adobe-2.0 EPSF-1.2
%%Creator: MATLAB, The MathWorks, Inc. Version 8.3.0.532 (R2014a). Operating System: Darwin 14.5.0 Darwin Kernel Version 14.5.0: Wed Jul 29 02:26:53 PDT 2015; root:xnu-2782.40.9~1/RELEASE_X86_64 x86_64.
%%Title: ./news_4.eps
%%CreationDate: 10/18/2015  04:27:07
%%DocumentNeededFonts: AvantGarde-Book
%%+ Helvetica
%%+ Helvetica-Bold
%%+ AvantGarde-Demi
%%DocumentProcessColors: Cyan Magenta Yellow Black
%%Extensions: CMYK
%%Pages: 1
%%BoundingBox:  -269   -35   883   832
%%EndComments

%%BeginProlog
% MathWorks dictionary
/MathWorks 160 dict begin
% definition operators
/bdef {bind def} bind def
/ldef {load def} bind def
/xdef {exch def} bdef
/xstore {exch store} bdef
% operator abbreviations
/c  /clip ldef
/cc /concat ldef
/cp /closepath ldef
/gr /grestore ldef
/gs /gsave ldef
/mt /moveto ldef
/np /newpath ldef
/cm /currentmatrix ldef
/sm /setmatrix ldef
/rm /rmoveto ldef
/rl /rlineto ldef
/s {show newpath} bdef
/sc {setcmykcolor} bdef
/sr /setrgbcolor ldef
/sg /setgray ldef
/w /setlinewidth ldef
/j /setlinejoin ldef
/cap /setlinecap ldef
/rc {rectclip} bdef
/rf {rectfill} bdef
% page state control
/pgsv () def
/bpage {/pgsv save def} bdef
/epage {pgsv restore} bdef
/bplot /gsave ldef
/eplot {stroke grestore} bdef
% orientation switch
/portraitMode 0 def /landscapeMode 1 def /rotateMode 2 def
% coordinate system mappings
/dpi2point 0 def
% font control
/FontSize 0 def
/FMS {/FontSize xstore findfont [FontSize 0 0 FontSize neg 0 0]
  makefont setfont} bdef
/reencode {exch dup where {pop load} {pop StandardEncoding} ifelse
  exch dup 3 1 roll findfont dup length dict begin
  { 1 index /FID ne {def}{pop pop} ifelse } forall
  /Encoding exch def currentdict end definefont pop} bdef
/isroman {findfont /CharStrings get /Agrave known} bdef
/FMSR {3 1 roll 1 index dup isroman {reencode} {pop pop} ifelse
  exch FMS} bdef
/csm {1 dpi2point div -1 dpi2point div scale neg translate
 dup landscapeMode eq {pop -90 rotate}
  {rotateMode eq {90 rotate} if} ifelse} bdef
% line types: solid, dotted, dashed, dotdash
/SO { [] 0 setdash } bdef
/DO { [.5 dpi2point mul 4 dpi2point mul] 0 setdash } bdef
/DA { [6 dpi2point mul] 0 setdash } bdef
/DD { [.5 dpi2point mul 4 dpi2point mul 6 dpi2point mul 4
  dpi2point mul] 0 setdash } bdef
% macros for lines and objects
/L {lineto stroke} bdef
/MP {3 1 roll moveto 1 sub {rlineto} repeat} bdef
/AP {{rlineto} repeat} bdef
/PDlw -1 def
/W {/PDlw currentlinewidth def setlinewidth} def
/PP {closepath eofill} bdef
/DP {closepath stroke} bdef
/MR {4 -2 roll moveto dup  0 exch rlineto exch 0 rlineto
  neg 0 exch rlineto closepath} bdef
/FR {MR stroke} bdef
/PR {MR fill} bdef
/L1i {{currentfile picstr readhexstring pop} image} bdef
/tMatrix matrix def
/MakeOval {newpath tMatrix currentmatrix pop translate scale
0 0 1 0 360 arc tMatrix setmatrix} bdef
/FO {MakeOval stroke} bdef
/PO {MakeOval fill} bdef
/PD {currentlinewidth 2 div 0 360 arc fill
   PDlw -1 eq not {PDlw w /PDlw -1 def} if} def
/FA {newpath tMatrix currentmatrix pop translate scale
  0 0 1 5 -2 roll arc tMatrix setmatrix stroke} bdef
/PA {newpath tMatrix currentmatrix pop	translate 0 0 moveto scale
  0 0 1 5 -2 roll arc closepath tMatrix setmatrix fill} bdef
/FAn {newpath tMatrix currentmatrix pop translate scale
  0 0 1 5 -2 roll arcn tMatrix setmatrix stroke} bdef
/PAn {newpath tMatrix currentmatrix pop translate 0 0 moveto scale
  0 0 1 5 -2 roll arcn closepath tMatrix setmatrix fill} bdef
/vradius 0 def /hradius 0 def /lry 0 def
/lrx 0 def /uly 0 def /ulx 0 def /rad 0 def
/MRR {/vradius xdef /hradius xdef /lry xdef /lrx xdef /uly xdef
  /ulx xdef newpath tMatrix currentmatrix pop ulx hradius add uly
  vradius add translate hradius vradius scale 0 0 1 180 270 arc 
  tMatrix setmatrix lrx hradius sub uly vradius add translate
  hradius vradius scale 0 0 1 270 360 arc tMatrix setmatrix
  lrx hradius sub lry vradius sub translate hradius vradius scale
  0 0 1 0 90 arc tMatrix setmatrix ulx hradius add lry vradius sub
  translate hradius vradius scale 0 0 1 90 180 arc tMatrix setmatrix
  closepath} bdef
/FRR {MRR stroke } bdef
/PRR {MRR fill } bdef
/MlrRR {/lry xdef /lrx xdef /uly xdef /ulx xdef /rad lry uly sub 2 div def
  newpath tMatrix currentmatrix pop ulx rad add uly rad add translate
  rad rad scale 0 0 1 90 270 arc tMatrix setmatrix lrx rad sub lry rad
  sub translate rad rad scale 0 0 1 270 90 arc tMatrix setmatrix
  closepath} bdef
/FlrRR {MlrRR stroke } bdef
/PlrRR {MlrRR fill } bdef
/MtbRR {/lry xdef /lrx xdef /uly xdef /ulx xdef /rad lrx ulx sub 2 div def
  newpath tMatrix currentmatrix pop ulx rad add uly rad add translate
  rad rad scale 0 0 1 180 360 arc tMatrix setmatrix lrx rad sub lry rad
  sub translate rad rad scale 0 0 1 0 180 arc tMatrix setmatrix
  closepath} bdef
/FtbRR {MtbRR stroke } bdef
/PtbRR {MtbRR fill } bdef
/stri 6 array def /dtri 6 array def
/smat 6 array def /dmat 6 array def
/tmat1 6 array def /tmat2 6 array def /dif 3 array def
/asub {/ind2 exch def /ind1 exch def dup dup
  ind1 get exch ind2 get sub exch } bdef
/tri_to_matrix {
  2 0 asub 3 1 asub 4 0 asub 5 1 asub
  dup 0 get exch 1 get 7 -1 roll astore } bdef
/compute_transform {
  dmat dtri tri_to_matrix tmat1 invertmatrix 
  smat stri tri_to_matrix tmat2 concatmatrix } bdef
/ds {stri astore pop} bdef
/dt {dtri astore pop} bdef
/db {2 copy /cols xdef /rows xdef mul dup 3 mul string
  currentfile exch readhexstring pop
  dup 0 3 index getinterval /rbmap xdef
  dup 2 index dup getinterval /gbmap xdef
  1 index dup 2 mul exch getinterval /bbmap xdef pop pop}bdef
/it {gs np dtri aload pop moveto lineto lineto cp c
  cols rows 8 compute_transform 
  rbmap gbmap bbmap true 3 colorimage gr}bdef
/il {newpath moveto lineto stroke}bdef
currentdict end def
%%EndProlog

%%BeginSetup
MathWorks begin

0 cap

end
%%EndSetup

%%Page: 1 1
%%BeginPageSetup
%%PageBoundingBox:  -269   -35   883   832
MathWorks begin
bpage
%%EndPageSetup

%%BeginObject: obj1
bplot

/dpi2point 12 def
portraitMode -3240 9936 csm

   12   -48 13826 10404 MR c np
87 dict begin %Colortable dictionary
/c0 { 0.000000 0.000000 0.000000 sr} bdef
/c1 { 1.000000 1.000000 1.000000 sr} bdef
/c2 { 0.900000 0.000000 0.000000 sr} bdef
/c3 { 0.000000 0.820000 0.000000 sr} bdef
/c4 { 0.000000 0.000000 0.800000 sr} bdef
/c5 { 0.910000 0.820000 0.320000 sr} bdef
/c6 { 1.000000 0.260000 0.820000 sr} bdef
/c7 { 0.000000 0.820000 0.820000 sr} bdef
c0
1 j
1 sg
   0    0 13825 10369 PR
12 w
0 8732 12082 0 0 -8732 1465 9364 4 MP
PP
-12082 0 0 8732 12082 0 0 -8732 1465 9364 5 MP stroke
8 w
DO
0 sg
1465 9364 mt 1465  632 L
1465  632 mt 1465  632 L
2673 9364 mt 2673  632 L
2673  632 mt 2673  632 L
3881 9364 mt 3881  632 L
3881  632 mt 3881  632 L
5089 9364 mt 5089  632 L
5089  632 mt 5089  632 L
6297 9364 mt 6297  632 L
6297  632 mt 6297  632 L
7506 9364 mt 7506  632 L
7506  632 mt 7506  632 L
8714 9364 mt 8714  632 L
8714  632 mt 8714  632 L
9922 9364 mt 9922  632 L
9922  632 mt 9922  632 L
11130 9364 mt 11130  632 L
11130  632 mt 11130  632 L
12338 9364 mt 12338  632 L
12338  632 mt 12338  632 L
13547 9364 mt 13547  632 L
13547  632 mt 13547  632 L
1465 9364 mt 13547 9364 L
13547 9364 mt 13547 9364 L
1465 7668 mt 13547 7668 L
13547 7668 mt 13547 7668 L
1465 5973 mt 13547 5973 L
13547 5973 mt 13547 5973 L
1465 4277 mt 13547 4277 L
13547 4277 mt 13547 4277 L
1465 2582 mt 13547 2582 L
13547 2582 mt 13547 2582 L
1465  887 mt 13547  887 L
13547  887 mt 13547  887 L
SO
12 w
1465 9364 mt 13547 9364 L
1465  632 mt 13547  632 L
1465 9364 mt 1465  632 L
13547 9364 mt 13547  632 L
1465 9364 mt 13547 9364 L
1465 9364 mt 1465  632 L
1465 9364 mt 1465 9605 L
1465  632 mt 1465  390 L
%%IncludeResource: font AvantGarde-Book
/AvantGarde-Book /ISOLatin1Encoding 300 FMSR

1382 9926 mt 
(0) s
2673 9364 mt 2673 9605 L
2673  632 mt 2673  390 L
2590 9926 mt 
(5) s
3881 9364 mt 3881 9605 L
3881  632 mt 3881  390 L
3715 9926 mt 
(10) s
5089 9364 mt 5089 9605 L
5089  632 mt 5089  390 L
4923 9926 mt 
(15) s
6297 9364 mt 6297 9605 L
6297  632 mt 6297  390 L
6131 9926 mt 
(20) s
7506 9364 mt 7506 9605 L
7506  632 mt 7506  390 L
7340 9926 mt 
(25) s
8714 9364 mt 8714 9605 L
8714  632 mt 8714  390 L
8548 9926 mt 
(30) s
9922 9364 mt 9922 9605 L
9922  632 mt 9922  390 L
9756 9926 mt 
(35) s
11130 9364 mt 11130 9605 L
11130  632 mt 11130  390 L
10964 9926 mt 
(40) s
12338 9364 mt 12338 9605 L
12338  632 mt 12338  390 L
12172 9926 mt 
(45) s
13547 9364 mt 13547 9605 L
13547  632 mt 13547  390 L
13381 9926 mt 
(50) s
DO
1465 9364 mt 1465 9364 L
1465 9364 mt 1465 9364 L
1465 9364 mt 1465 9364 L
1465 9364 mt 1465 9364 L
1465 9364 mt 1465 9364 L
1465 9364 mt 1465 9364 L
1465 9364 mt 1465 9364 L
1465 9364 mt 1465 9364 L
1465 9364 mt 1465 9364 L
1465 9364 mt 1465 9364 L
1465 9364 mt 1465 9364 L
1465 9364 mt 1465 9364 L
1465 9364 mt 1465 9364 L
1465 9364 mt 1465 9364 L
1465 9364 mt 1465 9364 L
1465 9364 mt 1465 9364 L
1465 9364 mt 1465 9364 L
1465 9364 mt 1465 9364 L
SO
1465 9364 mt 1223 9364 L
13547 9364 mt 13788 9364 L
 514 9478 mt 
(10) s
%%IncludeResource: font AvantGarde-Book
/AvantGarde-Book /ISOLatin1Encoding 200 FMSR

 846 9287 mt 
(-10) s
DO
1465 9364 mt 1465 9364 L
1465 9364 mt 1465 9364 L
1465 9364 mt 1465 9364 L
1465 9364 mt 1465 9364 L
1465 9364 mt 1465 9364 L
1465 9364 mt 1465 9364 L
1465 9364 mt 1465 9364 L
1465 9364 mt 1465 9364 L
1465 9364 mt 1465 9364 L
1465 9364 mt 1465 9364 L
1465 9364 mt 1465 9364 L
1465 9364 mt 1465 9364 L
1465 9364 mt 1465 9364 L
1465 9364 mt 1465 9364 L
1465 9364 mt 1465 9364 L
1465 9364 mt 1465 9364 L
1465 9364 mt 1465 9364 L
1465 9364 mt 1465 9364 L
SO
1465 7668 mt 1223 7668 L
13547 7668 mt 13788 7668 L
%%IncludeResource: font AvantGarde-Book
/AvantGarde-Book /ISOLatin1Encoding 300 FMSR

 514 7782 mt 
(10) s
%%IncludeResource: font AvantGarde-Book
/AvantGarde-Book /ISOLatin1Encoding 200 FMSR

 846 7591 mt 
(-8) s
DO
1465 9364 mt 1465 9364 L
1465 9364 mt 1465 9364 L
1465 9364 mt 1465 9364 L
1465 9364 mt 1465 9364 L
1465 9364 mt 1465 9364 L
1465 9364 mt 1465 9364 L
1465 9364 mt 1465 9364 L
1465 9364 mt 1465 9364 L
1465 9364 mt 1465 9364 L
1465 9364 mt 1465 9364 L
1465 9364 mt 1465 9364 L
1465 9364 mt 1465 9364 L
1465 9364 mt 1465 9364 L
1465 9364 mt 1465 9364 L
1465 9364 mt 1465 9364 L
1465 9364 mt 1465 9364 L
1465 9364 mt 1465 9364 L
1465 9364 mt 1465 9364 L
SO
1465 5973 mt 1223 5973 L
13547 5973 mt 13788 5973 L
%%IncludeResource: font AvantGarde-Book
/AvantGarde-Book /ISOLatin1Encoding 300 FMSR

 514 6087 mt 
(10) s
%%IncludeResource: font AvantGarde-Book
/AvantGarde-Book /ISOLatin1Encoding 200 FMSR

 846 5896 mt 
(-6) s
DO
1465 9364 mt 1465 9364 L
1465 9364 mt 1465 9364 L
1465 9364 mt 1465 9364 L
1465 9364 mt 1465 9364 L
1465 9364 mt 1465 9364 L
1465 9364 mt 1465 9364 L
1465 9364 mt 1465 9364 L
1465 9364 mt 1465 9364 L
1465 9364 mt 1465 9364 L
1465 9364 mt 1465 9364 L
1465 9364 mt 1465 9364 L
1465 9364 mt 1465 9364 L
1465 9364 mt 1465 9364 L
1465 9364 mt 1465 9364 L
1465 9364 mt 1465 9364 L
1465 9364 mt 1465 9364 L
1465 9364 mt 1465 9364 L
1465 9364 mt 1465 9364 L
SO
1465 4277 mt 1223 4277 L
13547 4277 mt 13788 4277 L
%%IncludeResource: font AvantGarde-Book
/AvantGarde-Book /ISOLatin1Encoding 300 FMSR

 514 4391 mt 
(10) s
%%IncludeResource: font AvantGarde-Book
/AvantGarde-Book /ISOLatin1Encoding 200 FMSR

 846 4200 mt 
(-4) s
DO
1465 9364 mt 1465 9364 L
1465 9364 mt 1465 9364 L
1465 9364 mt 1465 9364 L
1465 9364 mt 1465 9364 L
1465 9364 mt 1465 9364 L
1465 9364 mt 1465 9364 L
1465 9364 mt 1465 9364 L
1465 9364 mt 1465 9364 L
1465 9364 mt 1465 9364 L
1465 9364 mt 1465 9364 L
1465 9364 mt 1465 9364 L
1465 9364 mt 1465 9364 L
1465 9364 mt 1465 9364 L
1465 9364 mt 1465 9364 L
1465 9364 mt 1465 9364 L
1465 9364 mt 1465 9364 L
1465 9364 mt 1465 9364 L
1465 9364 mt 1465 9364 L
SO
1465 2582 mt 1223 2582 L
13547 2582 mt 13788 2582 L
%%IncludeResource: font AvantGarde-Book
/AvantGarde-Book /ISOLatin1Encoding 300 FMSR

 514 2696 mt 
(10) s
%%IncludeResource: font AvantGarde-Book
/AvantGarde-Book /ISOLatin1Encoding 200 FMSR

 846 2505 mt 
(-2) s
DO
1465 9364 mt 1465 9364 L
1465 9364 mt 1465 9364 L
1465 9364 mt 1465 9364 L
1465 9364 mt 1465 9364 L
1465 9364 mt 1465 9364 L
1465 9364 mt 1465 9364 L
1465 9364 mt 1465 9364 L
1465 9364 mt 1465 9364 L
1465 9364 mt 1465 9364 L
1465 9364 mt 1465 9364 L
1465 9364 mt 1465 9364 L
1465 9364 mt 1465 9364 L
1465 9364 mt 1465 9364 L
1465 9364 mt 1465 9364 L
1465 9364 mt 1465 9364 L
1465 9364 mt 1465 9364 L
1465 9364 mt 1465 9364 L
1465 9364 mt 1465 9364 L
SO
1465  887 mt 1223  887 L
13547  887 mt 13788  887 L
%%IncludeResource: font AvantGarde-Book
/AvantGarde-Book /ISOLatin1Encoding 300 FMSR

 514 1001 mt 
(10) s
%%IncludeResource: font AvantGarde-Book
/AvantGarde-Book /ISOLatin1Encoding 200 FMSR

 846  810 mt 
(0) s
DO
1465 9364 mt 1465 9364 L
1465 9364 mt 1465 9364 L
1465 9364 mt 1465 9364 L
1465 9364 mt 1465 9364 L
1465 9364 mt 1465 9364 L
1465 9364 mt 1465 9364 L
1465 9364 mt 1465 9364 L
1465 9364 mt 1465 9364 L
1465 9364 mt 1465 9364 L
1465 9364 mt 1465 9364 L
1465 9364 mt 1465 9364 L
1465 9364 mt 1465 9364 L
1465 9364 mt 1465 9364 L
1465 9364 mt 1465 9364 L
1465 9364 mt 1465 9364 L
1465 9364 mt 1465 9364 L
1465 9364 mt 1465 9364 L
1465 9364 mt 1465 9364 L
SO
1465 9364 mt 13547 9364 L
1465  632 mt 13547  632 L
1465 9364 mt 1465  632 L
13547 9364 mt 13547  632 L
gs 1465 632 12083 8733 MR c np
36 w
/c8 { 1.000000 0.000000 0.000000 sr} bdef
c8
1691 2507 1208 2148 967 1195 966 628 967 362 2431 1417 6 MP stroke
/c9 { 0.000000 0.000000 1.000000 sr} bdef
c9
725 2768 725 2375 725 1196 725 628 725 362 2189 1162 6 MP stroke
/c10 { 0.000000 1.000000 0.000000 sr} bdef
c10
1 0 242 -2 242 -1 241 0 242 0 242 -2 241 80 242 85 
242 77 241 2 242 33 242 111 241 -1 242 40 241 95 242 65 
242 89 241 12 242 51 242 86 241 12 242 11 242 20 241 71 
242 31 241 -18 242 88 242 12 241 82 242 -4 242 98 241 -4 
242 33 242 26 241 73 242 135 242 110 241 192 242 122 241 79 
242 88 242 117 241 121 242 137 242 117 241 126 242 119 242 122 
241 111 242 120 1706 1023 51 MP stroke
gr

36 w
c10
0 j
-143 83 0 -166 143 83 2336 1417 4 MP
/c11 { 1.000000 1.000000 0.900000 sr} bdef
c11
gs
PP
gr
c8
DP
gs 1465 632 12083 8733 MR c np
2431 1417 PD
gr

-143 83 0 -166 143 83 2336 1417 4 MP
c11
gs
PP
gr
c8
DP
gs 1465 632 12083 8733 MR c np
gr

0 -114 -114 0 0 114 114 0 2132 1105 5 MP
c11
gs
PP
gr
c9
DP
gs 1465 632 12083 8733 MR c np
2189 1162 PD
gr

0 -114 -114 0 0 114 114 0 2132 1105 5 MP
c11
gs
PP
gr
c9
DP
gs 1465 632 12083 8733 MR c np
gr

-26 -36 26 -36 -42 0 -20 -36 -20 36 -42 0 26 36 -26 36 
42 0 20 36 20 -36 42 0 1644 987 13 MP
c11
gs
PP
gr
c10
DP
gs 1465 632 12083 8733 MR c np
1706 1023 PD
gr

-26 -36 26 -36 -42 0 -20 -36 -20 36 -42 0 26 36 -26 36 
42 0 20 36 20 -36 42 0 1644 987 13 MP
c11
gs
PP
gr
c10
DP
gs 1465 632 12083 8733 MR c np
gr

0 sg
%%IncludeResource: font AvantGarde-Demi
/AvantGarde-Demi /ISOLatin1Encoding 360 FMSR

7062  367 mt 
(news) s
%%IncludeResource: font AvantGarde-Book
/AvantGarde-Book /ISOLatin1Encoding 360 FMSR

5038 10252 mt 
(Number of Communications) s
 380 6530 mt  -90 rotate
(Norm of Gradient) s
90 rotate
1 sg
-378 -774 299 -145 377 774 7892 7942 4 MP
PP
6 w
0 sg
-378 -774 299 -145 377 774 7892 7942 4 MP
DP
1 j
c8
%%IncludeResource: font Helvetica-Bold
/Helvetica-Bold /ISOLatin1Encoding 240 FMSR

7973 7930 mt  -295 rotate
(DiscoS) s
295 rotate
1 sg
-169 -831 325 -67 169 831 4842 5341 4 MP
PP
0 j
0 sg
-169 -831 325 -67 169 831 4842 5341 4 MP
DP
1 j
c9
4923 5349 mt  -281 rotate
(DiscoF) s
281 rotate
1 sg
-768 -139 59 -326 768 138 9025 3601 4 MP
PP
0 j
0 sg
-768 -139 59 -326 768 138 9025 3601 4 MP
DP
1 j
c10
9062 3529 mt  -349 rotate
(Cocoa) s
349 rotate
12 w

end %%Color Dict

eplot
%%EndObject

epage
end

showpage

%%Trailer
%%EOF
