%!PS-Adobe-2.0 EPSF-1.2
%%Creator: MATLAB, The MathWorks, Inc. Version 7.14.0.739 (R2012a). Operating System: Microsoft Windows 7.
%%Title: .\rcvtest_32_1.eps
%%CreationDate: 10/20/2015  21:35:33
%%DocumentNeededFonts: AvantGarde-Book
%%+ Helvetica
%%+ AvantGarde-Demi
%%DocumentProcessColors: Cyan Magenta Yellow Black
%%Extensions: CMYK
%%Pages: 1
%%BoundingBox:   -52    88   668   709
%%EndComments

%%BeginProlog
% MathWorks dictionary
/MathWorks 160 dict begin
% definition operators
/bdef {bind def} bind def
/ldef {load def} bind def
/xdef {exch def} bdef
/xstore {exch store} bdef
% operator abbreviations
/c  /clip ldef
/cc /concat ldef
/cp /closepath ldef
/gr /grestore ldef
/gs /gsave ldef
/mt /moveto ldef
/np /newpath ldef
/cm /currentmatrix ldef
/sm /setmatrix ldef
/rm /rmoveto ldef
/rl /rlineto ldef
/s {show newpath} bdef
/sc {setcmykcolor} bdef
/sr /setrgbcolor ldef
/sg /setgray ldef
/w /setlinewidth ldef
/j /setlinejoin ldef
/cap /setlinecap ldef
/rc {rectclip} bdef
/rf {rectfill} bdef
% page state control
/pgsv () def
/bpage {/pgsv save def} bdef
/epage {pgsv restore} bdef
/bplot /gsave ldef
/eplot {stroke grestore} bdef
% orientation switch
/portraitMode 0 def /landscapeMode 1 def /rotateMode 2 def
% coordinate system mappings
/dpi2point 0 def
% font control
/FontSize 0 def
/FMS {/FontSize xstore findfont [FontSize 0 0 FontSize neg 0 0]
  makefont setfont} bdef
/ISOLatin1Encoding where {pop /WindowsLatin1Encoding 256 array bdef
ISOLatin1Encoding WindowsLatin1Encoding copy pop
/.notdef/.notdef/quotesinglbase/florin/quotedblbase/ellipsis/dagger
/daggerdbl/circumflex/perthousand/Scaron/guilsinglleft/OE/.notdef/.notdef
/.notdef/.notdef/quoteleft/quoteright/quotedblleft/quotedblright/bullet
/endash/emdash/tilde/trademark/scaron/guilsinglright/oe/.notdef/.notdef
/Ydieresis WindowsLatin1Encoding 128 32 getinterval astore pop}
{/WindowsLatin1Encoding StandardEncoding bdef} ifelse
/reencode {exch dup where {pop load} {pop StandardEncoding} ifelse
  exch dup 3 1 roll findfont dup length dict begin
  { 1 index /FID ne {def}{pop pop} ifelse } forall
  /Encoding exch def currentdict end definefont pop} bdef
/isroman {findfont /CharStrings get /Agrave known} bdef
/FMSR {3 1 roll 1 index dup isroman {reencode} {pop pop} ifelse
  exch FMS} bdef
/csm {1 dpi2point div -1 dpi2point div scale neg translate
 dup landscapeMode eq {pop -90 rotate}
  {rotateMode eq {90 rotate} if} ifelse} bdef
% line types: solid, dotted, dashed, dotdash
/SO { [] 0 setdash } bdef
/DO { [.5 dpi2point mul 4 dpi2point mul] 0 setdash } bdef
/DA { [6 dpi2point mul] 0 setdash } bdef
/DD { [.5 dpi2point mul 4 dpi2point mul 6 dpi2point mul 4
  dpi2point mul] 0 setdash } bdef
% macros for lines and objects
/L {lineto stroke} bdef
/MP {3 1 roll moveto 1 sub {rlineto} repeat} bdef
/AP {{rlineto} repeat} bdef
/PDlw -1 def
/W {/PDlw currentlinewidth def setlinewidth} def
/PP {closepath eofill} bdef
/DP {closepath stroke} bdef
/MR {4 -2 roll moveto dup  0 exch rlineto exch 0 rlineto
  neg 0 exch rlineto closepath} bdef
/FR {MR stroke} bdef
/PR {MR fill} bdef
/L1i {{currentfile picstr readhexstring pop} image} bdef
/tMatrix matrix def
/MakeOval {newpath tMatrix currentmatrix pop translate scale
0 0 1 0 360 arc tMatrix setmatrix} bdef
/FO {MakeOval stroke} bdef
/PO {MakeOval fill} bdef
/PD {currentlinewidth 2 div 0 360 arc fill
   PDlw -1 eq not {PDlw w /PDlw -1 def} if} def
/FA {newpath tMatrix currentmatrix pop translate scale
  0 0 1 5 -2 roll arc tMatrix setmatrix stroke} bdef
/PA {newpath tMatrix currentmatrix pop	translate 0 0 moveto scale
  0 0 1 5 -2 roll arc closepath tMatrix setmatrix fill} bdef
/FAn {newpath tMatrix currentmatrix pop translate scale
  0 0 1 5 -2 roll arcn tMatrix setmatrix stroke} bdef
/PAn {newpath tMatrix currentmatrix pop translate 0 0 moveto scale
  0 0 1 5 -2 roll arcn closepath tMatrix setmatrix fill} bdef
/vradius 0 def /hradius 0 def /lry 0 def
/lrx 0 def /uly 0 def /ulx 0 def /rad 0 def
/MRR {/vradius xdef /hradius xdef /lry xdef /lrx xdef /uly xdef
  /ulx xdef newpath tMatrix currentmatrix pop ulx hradius add uly
  vradius add translate hradius vradius scale 0 0 1 180 270 arc 
  tMatrix setmatrix lrx hradius sub uly vradius add translate
  hradius vradius scale 0 0 1 270 360 arc tMatrix setmatrix
  lrx hradius sub lry vradius sub translate hradius vradius scale
  0 0 1 0 90 arc tMatrix setmatrix ulx hradius add lry vradius sub
  translate hradius vradius scale 0 0 1 90 180 arc tMatrix setmatrix
  closepath} bdef
/FRR {MRR stroke } bdef
/PRR {MRR fill } bdef
/MlrRR {/lry xdef /lrx xdef /uly xdef /ulx xdef /rad lry uly sub 2 div def
  newpath tMatrix currentmatrix pop ulx rad add uly rad add translate
  rad rad scale 0 0 1 90 270 arc tMatrix setmatrix lrx rad sub lry rad
  sub translate rad rad scale 0 0 1 270 90 arc tMatrix setmatrix
  closepath} bdef
/FlrRR {MlrRR stroke } bdef
/PlrRR {MlrRR fill } bdef
/MtbRR {/lry xdef /lrx xdef /uly xdef /ulx xdef /rad lrx ulx sub 2 div def
  newpath tMatrix currentmatrix pop ulx rad add uly rad add translate
  rad rad scale 0 0 1 180 360 arc tMatrix setmatrix lrx rad sub lry rad
  sub translate rad rad scale 0 0 1 0 180 arc tMatrix setmatrix
  closepath} bdef
/FtbRR {MtbRR stroke } bdef
/PtbRR {MtbRR fill } bdef
/stri 6 array def /dtri 6 array def
/smat 6 array def /dmat 6 array def
/tmat1 6 array def /tmat2 6 array def /dif 3 array def
/asub {/ind2 exch def /ind1 exch def dup dup
  ind1 get exch ind2 get sub exch } bdef
/tri_to_matrix {
  2 0 asub 3 1 asub 4 0 asub 5 1 asub
  dup 0 get exch 1 get 7 -1 roll astore } bdef
/compute_transform {
  dmat dtri tri_to_matrix tmat1 invertmatrix 
  smat stri tri_to_matrix tmat2 concatmatrix } bdef
/ds {stri astore pop} bdef
/dt {dtri astore pop} bdef
/db {2 copy /cols xdef /rows xdef mul dup 3 mul string
  currentfile exch readhexstring pop
  dup 0 3 index getinterval /rbmap xdef
  dup 2 index dup getinterval /gbmap xdef
  1 index dup 2 mul exch getinterval /bbmap xdef pop pop}bdef
/it {gs np dtri aload pop moveto lineto lineto cp c
  cols rows 8 compute_transform 
  rbmap gbmap bbmap true 3 colorimage gr}bdef
/il {newpath moveto lineto stroke}bdef
currentdict end def
%%EndProlog

%%BeginSetup
MathWorks begin

0 cap

end
%%EndSetup

%%Page: 1 1
%%BeginPageSetup
%%PageBoundingBox:   -52    88   668   709
MathWorks begin
bpage
%%EndPageSetup

%%BeginObject: obj1
bplot

/dpi2point 12 def
portraitMode -0636 8460 csm

    8   -48  8650  7447 MR c np
87 dict begin %Colortable dictionary
/c0 { 0.000000 0.000000 0.000000 sr} bdef
/c1 { 1.000000 1.000000 1.000000 sr} bdef
/c2 { 0.900000 0.000000 0.000000 sr} bdef
/c3 { 0.000000 0.820000 0.000000 sr} bdef
/c4 { 0.000000 0.000000 0.800000 sr} bdef
/c5 { 0.910000 0.820000 0.320000 sr} bdef
/c6 { 1.000000 0.260000 0.820000 sr} bdef
/c7 { 0.000000 0.820000 0.820000 sr} bdef
c0
1 j
1 sg
   0    0 8640 7408 PR
12 w
0 5875 7105 0 0 -5875 1361 6507 4 MP
PP
-7105 0 0 5875 7105 0 0 -5875 1361 6507 5 MP stroke
8 w
DO
0 sg
1361 6507 mt 1361  632 L
1361  632 mt 1361  632 L
2637 6507 mt 2637  632 L
2637  632 mt 2637  632 L
3913 6507 mt 3913  632 L
3913  632 mt 3913  632 L
5189 6507 mt 5189  632 L
5189  632 mt 5189  632 L
6466 6507 mt 6466  632 L
6466  632 mt 6466  632 L
7742 6507 mt 7742  632 L
7742  632 mt 7742  632 L
1361 6507 mt 8466 6507 L
8466 6507 mt 8466 6507 L
1361 5438 mt 8466 5438 L
8466 5438 mt 8466 5438 L
1361 4370 mt 8466 4370 L
8466 4370 mt 8466 4370 L
1361 3302 mt 8466 3302 L
8466 3302 mt 8466 3302 L
1361 2234 mt 8466 2234 L
8466 2234 mt 8466 2234 L
1361 1166 mt 8466 1166 L
8466 1166 mt 8466 1166 L
SO
12 w
1361  632 mt 8466  632 L
1361 6507 mt 8466 6507 L
8466 6507 mt 8466  632 L
1361 6507 mt 1361  632 L
1361 6507 mt 8466 6507 L
1361 6507 mt 1361  632 L
1361 6507 mt 1361 6649 L
1361  632 mt 1361  489 L
%%IncludeResource: font AvantGarde-Book
/AvantGarde-Book /WindowsLatin1Encoding 300 FMSR

1278 6969 mt 
(0) s
2637 6507 mt 2637 6649 L
2637  632 mt 2637  489 L
2554 6969 mt 
(2) s
3913 6507 mt 3913 6649 L
3913  632 mt 3913  489 L
3830 6969 mt 
(4) s
5189 6507 mt 5189 6649 L
5189  632 mt 5189  489 L
5106 6969 mt 
(6) s
6466 6507 mt 6466 6649 L
6466  632 mt 6466  489 L
6383 6969 mt 
(8) s
7742 6507 mt 7742 6649 L
7742  632 mt 7742  489 L
7576 6969 mt 
(10) s
DO
1361 6507 mt 1361 6507 L
1361 6507 mt 1361 6507 L
1361 6507 mt 1361 6507 L
1361 6507 mt 1361 6507 L
1361 6507 mt 1361 6507 L
1361 6507 mt 1361 6507 L
1361 6507 mt 1361 6507 L
1361 6507 mt 1361 6507 L
1361 6507 mt 1361 6507 L
1361 6507 mt 1361 6507 L
1361 6507 mt 1361 6507 L
1361 6507 mt 1361 6507 L
1361 6507 mt 1361 6507 L
1361 6507 mt 1361 6507 L
1361 6507 mt 1361 6507 L
1361 6507 mt 1361 6507 L
1361 6507 mt 1361 6507 L
1361 6507 mt 1361 6507 L
SO
1361 6507 mt 1218 6507 L
8466 6507 mt 8608 6507 L
 510 6621 mt 
(10) s
%%IncludeResource: font AvantGarde-Book
/AvantGarde-Book /WindowsLatin1Encoding 200 FMSR

 842 6430 mt 
(-10) s
DO
1361 6507 mt 1361 6507 L
1361 6507 mt 1361 6507 L
1361 6507 mt 1361 6507 L
1361 6507 mt 1361 6507 L
1361 6507 mt 1361 6507 L
1361 6507 mt 1361 6507 L
1361 6507 mt 1361 6507 L
1361 6507 mt 1361 6507 L
1361 6507 mt 1361 6507 L
1361 6507 mt 1361 6507 L
1361 6507 mt 1361 6507 L
1361 6507 mt 1361 6507 L
1361 6507 mt 1361 6507 L
1361 6507 mt 1361 6507 L
1361 6507 mt 1361 6507 L
1361 6507 mt 1361 6507 L
1361 6507 mt 1361 6507 L
1361 6507 mt 1361 6507 L
SO
1361 5438 mt 1218 5438 L
8466 5438 mt 8608 5438 L
%%IncludeResource: font AvantGarde-Book
/AvantGarde-Book /WindowsLatin1Encoding 300 FMSR

 510 5552 mt 
(10) s
%%IncludeResource: font AvantGarde-Book
/AvantGarde-Book /WindowsLatin1Encoding 200 FMSR

 842 5361 mt 
(-8) s
DO
1361 6507 mt 1361 6507 L
1361 6507 mt 1361 6507 L
1361 6507 mt 1361 6507 L
1361 6507 mt 1361 6507 L
1361 6507 mt 1361 6507 L
1361 6507 mt 1361 6507 L
1361 6507 mt 1361 6507 L
1361 6507 mt 1361 6507 L
1361 6507 mt 1361 6507 L
1361 6507 mt 1361 6507 L
1361 6507 mt 1361 6507 L
1361 6507 mt 1361 6507 L
1361 6507 mt 1361 6507 L
1361 6507 mt 1361 6507 L
1361 6507 mt 1361 6507 L
1361 6507 mt 1361 6507 L
1361 6507 mt 1361 6507 L
1361 6507 mt 1361 6507 L
SO
1361 4370 mt 1218 4370 L
8466 4370 mt 8608 4370 L
%%IncludeResource: font AvantGarde-Book
/AvantGarde-Book /WindowsLatin1Encoding 300 FMSR

 510 4484 mt 
(10) s
%%IncludeResource: font AvantGarde-Book
/AvantGarde-Book /WindowsLatin1Encoding 200 FMSR

 842 4293 mt 
(-6) s
DO
1361 6507 mt 1361 6507 L
1361 6507 mt 1361 6507 L
1361 6507 mt 1361 6507 L
1361 6507 mt 1361 6507 L
1361 6507 mt 1361 6507 L
1361 6507 mt 1361 6507 L
1361 6507 mt 1361 6507 L
1361 6507 mt 1361 6507 L
1361 6507 mt 1361 6507 L
1361 6507 mt 1361 6507 L
1361 6507 mt 1361 6507 L
1361 6507 mt 1361 6507 L
1361 6507 mt 1361 6507 L
1361 6507 mt 1361 6507 L
1361 6507 mt 1361 6507 L
1361 6507 mt 1361 6507 L
1361 6507 mt 1361 6507 L
1361 6507 mt 1361 6507 L
SO
1361 3302 mt 1218 3302 L
8466 3302 mt 8608 3302 L
%%IncludeResource: font AvantGarde-Book
/AvantGarde-Book /WindowsLatin1Encoding 300 FMSR

 510 3416 mt 
(10) s
%%IncludeResource: font AvantGarde-Book
/AvantGarde-Book /WindowsLatin1Encoding 200 FMSR

 842 3225 mt 
(-4) s
DO
1361 6507 mt 1361 6507 L
1361 6507 mt 1361 6507 L
1361 6507 mt 1361 6507 L
1361 6507 mt 1361 6507 L
1361 6507 mt 1361 6507 L
1361 6507 mt 1361 6507 L
1361 6507 mt 1361 6507 L
1361 6507 mt 1361 6507 L
1361 6507 mt 1361 6507 L
1361 6507 mt 1361 6507 L
1361 6507 mt 1361 6507 L
1361 6507 mt 1361 6507 L
1361 6507 mt 1361 6507 L
1361 6507 mt 1361 6507 L
1361 6507 mt 1361 6507 L
1361 6507 mt 1361 6507 L
1361 6507 mt 1361 6507 L
1361 6507 mt 1361 6507 L
SO
1361 2234 mt 1218 2234 L
8466 2234 mt 8608 2234 L
%%IncludeResource: font AvantGarde-Book
/AvantGarde-Book /WindowsLatin1Encoding 300 FMSR

 510 2348 mt 
(10) s
%%IncludeResource: font AvantGarde-Book
/AvantGarde-Book /WindowsLatin1Encoding 200 FMSR

 842 2157 mt 
(-2) s
DO
1361 6507 mt 1361 6507 L
1361 6507 mt 1361 6507 L
1361 6507 mt 1361 6507 L
1361 6507 mt 1361 6507 L
1361 6507 mt 1361 6507 L
1361 6507 mt 1361 6507 L
1361 6507 mt 1361 6507 L
1361 6507 mt 1361 6507 L
1361 6507 mt 1361 6507 L
1361 6507 mt 1361 6507 L
1361 6507 mt 1361 6507 L
1361 6507 mt 1361 6507 L
1361 6507 mt 1361 6507 L
1361 6507 mt 1361 6507 L
1361 6507 mt 1361 6507 L
1361 6507 mt 1361 6507 L
1361 6507 mt 1361 6507 L
1361 6507 mt 1361 6507 L
SO
1361 1166 mt 1218 1166 L
8466 1166 mt 8608 1166 L
%%IncludeResource: font AvantGarde-Book
/AvantGarde-Book /WindowsLatin1Encoding 300 FMSR

 510 1280 mt 
(10) s
%%IncludeResource: font AvantGarde-Book
/AvantGarde-Book /WindowsLatin1Encoding 200 FMSR

 842 1089 mt 
(0) s
DO
1361 6507 mt 1361 6507 L
1361 6507 mt 1361 6507 L
1361 6507 mt 1361 6507 L
1361 6507 mt 1361 6507 L
1361 6507 mt 1361 6507 L
1361 6507 mt 1361 6507 L
1361 6507 mt 1361 6507 L
1361 6507 mt 1361 6507 L
1361 6507 mt 1361 6507 L
1361 6507 mt 1361 6507 L
1361 6507 mt 1361 6507 L
1361 6507 mt 1361 6507 L
1361 6507 mt 1361 6507 L
1361 6507 mt 1361 6507 L
1361 6507 mt 1361 6507 L
1361 6507 mt 1361 6507 L
1361 6507 mt 1361 6507 L
1361 6507 mt 1361 6507 L
SO
1361  632 mt 8466  632 L
1361 6507 mt 8466 6507 L
8466 6507 mt 8466  632 L
1361 6507 mt 1361  632 L
gs 1361 632 7106 5876 MR c np
36 w
/c8 { 1.000000 0.000000 0.000000 sr} bdef
c8
193 336 184 336 187 336 214 336 226 337 214 337 159 339 176 360 
157 637 171 319 190 0 1361 1614 12 MP stroke
/c9 { 0.000000 0.000000 1.000000 sr} bdef
c9
893 1663 1421 1791 1115 1024 1168 524 1182 289 1112 0 1361 1217 7 MP stroke
/c10 { 0.000000 1.000000 0.000000 sr} bdef
c10
54 -3 50 21 55 19 72 27 48 13 58 16 58 18 83 8 
62 12 48 12 53 17 59 6 53 5 45 3 87 22 50 11 
65 27 55 16 59 23 55 15 56 4 55 11 52 12 57 8 
44 14 60 14 49 13 37 16 79 5 51 18 84 12 79 9 
80 19 79 7 81 17 80 14 84 10 76 10 71 13 80 12 
69 11 87 18 80 11 79 13 82 13 64 12 76 13 82 17 
77 10 84 14 77 14 77 11 70 11 73 11 77 14 69 15 
71 17 47 15 75 11 71 16 80 15 85 14 79 14 80 14 
85 15 71 12 85 13 77 16 77 14 72 13 69 15 73 13 
78 14 66 16 78 13 77 14 62 13 89 15 53 15 63 14 
64 13 79 13 82 13 68 13 82 14 66 14 77 13 70 13 
70 13 81 14 87 13 81 14 65 13 67 14 69 13 80 14 
74 14 79 14 85 13 1433 824 100 MP stroke
gr

36 w
c10
0 j
-215 124 0 -248 215 124 1218 1614 4 MP
/c11 { 1.000000 1.000000 0.900000 sr} bdef
c11
gs
PP
gr
c8
DP
-215 124 0 -248 215 124 1408 1614 4 MP
c11
gs
PP
gr
c8
DP
-215 124 0 -248 215 124 1579 1933 4 MP
c11
gs
PP
gr
c8
DP
-215 124 0 -248 215 124 1736 2570 4 MP
c11
gs
PP
gr
c8
DP
-215 124 0 -248 215 124 1912 2930 4 MP
c11
gs
PP
gr
c8
DP
-215 124 0 -248 215 124 2071 3269 4 MP
c11
gs
PP
gr
c8
DP
-215 124 0 -248 215 124 2285 3606 4 MP
c11
gs
PP
gr
c8
DP
-215 124 0 -248 215 124 2511 3943 4 MP
c11
gs
PP
gr
c8
DP
-215 124 0 -248 215 124 2725 4279 4 MP
c11
gs
PP
gr
c8
DP
-215 124 0 -248 215 124 2912 4615 4 MP
c11
gs
PP
gr
c8
DP
-215 124 0 -248 215 124 3096 4951 4 MP
c11
gs
PP
gr
c8
DP
-215 124 0 -248 215 124 3289 5287 4 MP
c11
gs
PP
gr
c8
DP
gs 1361 632 7106 5876 MR c np
1361 1614 PD
gr

-215 124 0 -248 215 124 1218 1614 4 MP
c11
gs
PP
gr
c8
DP
gs 1361 632 7106 5876 MR c np
gr

0 -170 -170 0 0 170 170 0 1276 1132 5 MP
c11
gs
PP
gr
c9
DP
0 -170 -170 0 0 170 170 0 2388 1132 5 MP
c11
gs
PP
gr
c9
DP
0 -170 -170 0 0 170 170 0 3570 1421 5 MP
c11
gs
PP
gr
c9
DP
0 -170 -170 0 0 170 170 0 4738 1945 5 MP
c11
gs
PP
gr
c9
DP
0 -170 -170 0 0 170 170 0 5853 2969 5 MP
c11
gs
PP
gr
c9
DP
0 -170 -170 0 0 170 170 0 7274 4760 5 MP
c11
gs
PP
gr
c9
DP
gs 1361 632 7106 5876 MR c np
1361 1217 PD
gr

0 -170 -170 0 0 170 170 0 1276 1132 5 MP
c11
gs
PP
gr
c9
DP
gs 1361 632 7106 5876 MR c np
gr

-39 -54 39 -54 -62 0 -31 -54 -31 54 -62 0 39 54 -39 54 
62 0 31 54 31 -54 62 0 1340 770 13 MP
c11
gs
PP
gr
c10
DP
-39 -54 39 -54 -62 0 -31 -54 -31 54 -62 0 39 54 -39 54 
62 0 31 54 31 -54 62 0 1578 811 13 MP
c11
gs
PP
gr
c10
DP
-39 -54 39 -54 -62 0 -31 -54 -31 54 -62 0 39 54 -39 54 
62 0 31 54 31 -54 62 0 1794 852 13 MP
c11
gs
PP
gr
c10
DP
-39 -54 39 -54 -62 0 -31 -54 -31 54 -62 0 39 54 -39 54 
62 0 31 54 31 -54 62 0 2027 892 13 MP
c11
gs
PP
gr
c10
DP
-39 -54 39 -54 -62 0 -31 -54 -31 54 -62 0 39 54 -39 54 
62 0 31 54 31 -54 62 0 2248 932 13 MP
c11
gs
PP
gr
c10
DP
-39 -54 39 -54 -62 0 -31 -54 -31 54 -62 0 39 54 -39 54 
62 0 31 54 31 -54 62 0 2473 973 13 MP
c11
gs
PP
gr
c10
DP
-39 -54 39 -54 -62 0 -31 -54 -31 54 -62 0 39 54 -39 54 
62 0 31 54 31 -54 62 0 2702 1012 13 MP
c11
gs
PP
gr
c10
DP
-39 -54 39 -54 -62 0 -31 -54 -31 54 -62 0 39 54 -39 54 
62 0 31 54 31 -54 62 0 2882 1054 13 MP
c11
gs
PP
gr
c10
DP
-39 -54 39 -54 -62 0 -31 -54 -31 54 -62 0 39 54 -39 54 
62 0 31 54 31 -54 62 0 3110 1096 13 MP
c11
gs
PP
gr
c10
DP
-39 -54 39 -54 -62 0 -31 -54 -31 54 -62 0 39 54 -39 54 
62 0 31 54 31 -54 62 0 3332 1139 13 MP
c11
gs
PP
gr
c10
DP
-39 -54 39 -54 -62 0 -31 -54 -31 54 -62 0 39 54 -39 54 
62 0 31 54 31 -54 62 0 3546 1180 13 MP
c11
gs
PP
gr
c10
DP
-39 -54 39 -54 -62 0 -31 -54 -31 54 -62 0 39 54 -39 54 
62 0 31 54 31 -54 62 0 3785 1223 13 MP
c11
gs
PP
gr
c10
DP
-39 -54 39 -54 -62 0 -31 -54 -31 54 -62 0 39 54 -39 54 
62 0 31 54 31 -54 62 0 4021 1264 13 MP
c11
gs
PP
gr
c10
DP
-39 -54 39 -54 -62 0 -31 -54 -31 54 -62 0 39 54 -39 54 
62 0 31 54 31 -54 62 0 4265 1307 13 MP
c11
gs
PP
gr
c10
DP
-39 -54 39 -54 -62 0 -31 -54 -31 54 -62 0 39 54 -39 54 
62 0 31 54 31 -54 62 0 4458 1349 13 MP
c11
gs
PP
gr
c10
DP
-39 -54 39 -54 -62 0 -31 -54 -31 54 -62 0 39 54 -39 54 
62 0 31 54 31 -54 62 0 4675 1395 13 MP
c11
gs
PP
gr
c10
DP
-39 -54 39 -54 -62 0 -31 -54 -31 54 -62 0 39 54 -39 54 
62 0 31 54 31 -54 62 0 4895 1428 13 MP
c11
gs
PP
gr
c10
DP
-39 -54 39 -54 -62 0 -31 -54 -31 54 -62 0 39 54 -39 54 
62 0 31 54 31 -54 62 0 5133 1466 13 MP
c11
gs
PP
gr
c10
DP
-39 -54 39 -54 -62 0 -31 -54 -31 54 -62 0 39 54 -39 54 
62 0 31 54 31 -54 62 0 5355 1508 13 MP
c11
gs
PP
gr
c10
DP
-39 -54 39 -54 -62 0 -31 -54 -31 54 -62 0 39 54 -39 54 
62 0 31 54 31 -54 62 0 5596 1545 13 MP
c11
gs
PP
gr
c10
DP
-39 -54 39 -54 -62 0 -31 -54 -31 54 -62 0 39 54 -39 54 
62 0 31 54 31 -54 62 0 5832 1586 13 MP
c11
gs
PP
gr
c10
DP
-39 -54 39 -54 -62 0 -31 -54 -31 54 -62 0 39 54 -39 54 
62 0 31 54 31 -54 62 0 6063 1619 13 MP
c11
gs
PP
gr
c10
DP
-39 -54 39 -54 -62 0 -31 -54 -31 54 -62 0 39 54 -39 54 
62 0 31 54 31 -54 62 0 6303 1657 13 MP
c11
gs
PP
gr
c10
DP
-39 -54 39 -54 -62 0 -31 -54 -31 54 -62 0 39 54 -39 54 
62 0 31 54 31 -54 62 0 6546 1697 13 MP
c11
gs
PP
gr
c10
DP
-39 -54 39 -54 -62 0 -31 -54 -31 54 -62 0 39 54 -39 54 
62 0 31 54 31 -54 62 0 6713 1736 13 MP
c11
gs
PP
gr
c10
DP
-39 -54 39 -54 -62 0 -31 -54 -31 54 -62 0 39 54 -39 54 
62 0 31 54 31 -54 62 0 6866 1777 13 MP
c11
gs
PP
gr
c10
DP
-39 -54 39 -54 -62 0 -31 -54 -31 54 -62 0 39 54 -39 54 
62 0 31 54 31 -54 62 0 7030 1808 13 MP
c11
gs
PP
gr
c10
DP
-39 -54 39 -54 -62 0 -31 -54 -31 54 -62 0 39 54 -39 54 
62 0 31 54 31 -54 62 0 7200 1850 13 MP
c11
gs
PP
gr
c10
DP
-39 -54 39 -54 -62 0 -31 -54 -31 54 -62 0 39 54 -39 54 
62 0 31 54 31 -54 62 0 7370 1904 13 MP
c11
gs
PP
gr
c10
DP
-39 -54 39 -54 -62 0 -31 -54 -31 54 -62 0 39 54 -39 54 
62 0 31 54 31 -54 62 0 7555 1934 13 MP
c11
gs
PP
gr
c10
DP
-39 -54 39 -54 -62 0 -31 -54 -31 54 -62 0 39 54 -39 54 
62 0 31 54 31 -54 62 0 7715 1969 13 MP
c11
gs
PP
gr
c10
DP
-39 -54 39 -54 -62 0 -31 -54 -31 54 -62 0 39 54 -39 54 
62 0 31 54 31 -54 62 0 7918 2007 13 MP
c11
gs
PP
gr
c10
DP
-39 -54 39 -54 -62 0 -31 -54 -31 54 -62 0 39 54 -39 54 
62 0 31 54 31 -54 62 0 8096 2063 13 MP
c11
gs
PP
gr
c10
DP
-39 -54 39 -54 -62 0 -31 -54 -31 54 -62 0 39 54 -39 54 
62 0 31 54 31 -54 62 0 8255 2100 13 MP
c11
gs
PP
gr
c10
DP
gs 1361 632 7106 5876 MR c np
1433 824 PD
gr

-39 -54 39 -54 -62 0 -31 -54 -31 54 -62 0 39 54 -39 54 
62 0 31 54 31 -54 62 0 1340 770 13 MP
c11
gs
PP
gr
c10
DP
gs 1361 632 7106 5876 MR c np
gr

0 sg
%%IncludeResource: font AvantGarde-Demi
/AvantGarde-Demi /WindowsLatin1Encoding 360 FMSR

3768  367 mt 
(rcvtest, m=32) s
%%IncludeResource: font AvantGarde-Book
/AvantGarde-Book /WindowsLatin1Encoding 360 FMSR

3774 7295 mt 
(Elapsed Time) s
 376 5101 mt  -90 rotate
(Norm of Gradient) s
90 rotate
%%IncludeResource: font Helvetica
/Helvetica /WindowsLatin1Encoding 300 FMSR

1310 6623 mt 
( ) s
8416  747 mt 
( ) s
12 w
6 w
1 sg
0 1332 2047 0 0 -1332 6350 2033 4 MP
PP
-2047 0 0 1332 2047 0 0 -1332 6350 2033 5 MP stroke
4 w
DO
SO
6 w
0 sg
6350  701 mt 8397  701 L
6350 2033 mt 8397 2033 L
8397 2033 mt 8397  701 L
6350 2033 mt 6350  701 L
6350 2033 mt 8397 2033 L
6350 2033 mt 6350  701 L
6350  701 mt 8397  701 L
6350 2033 mt 8397 2033 L
8397 2033 mt 8397  701 L
6350 2033 mt 6350  701 L
%%IncludeResource: font AvantGarde-Book
/AvantGarde-Book /WindowsLatin1Encoding 360 FMSR

6821 1069 mt 
(DiSCO-S) s
gs 6350 701 2048 1333 MR c np
36 w
c8
362 0 6422 936 2 MP stroke
gr

36 w
c8
gs 6349 682 509 509 MR c np
-215 124 0 -248 215 124 6460 936 4 MP
c11
gs
PP
gr
c8
DP
gr

gs 6350 701 2048 1333 MR c np
gr

0 sg
6821 1500 mt 
(DiSCO-F) s
gs 6350 701 2048 1333 MR c np
c9
362 0 6422 1367 2 MP stroke
gr

c9
gs 6349 1113 509 509 MR c np
0 -170 -170 0 0 170 170 0 6518 1282 5 MP
c11
gs
PP
gr
c9
DP
gr

gs 6350 701 2048 1333 MR c np
gr

0 sg
6821 1930 mt 
(CoCoA+) s
gs 6350 701 2048 1333 MR c np
c10
362 0 6422 1797 2 MP stroke
gr

c10
gs 6349 1543 509 509 MR c np
-39 -54 39 -54 -62 0 -31 -54 -31 54 -62 0 39 54 -39 54 
62 0 31 54 31 -54 62 0 6510 1743 13 MP
c11
gs
PP
gr
c10
DP
gr

gs 6350 701 2048 1333 MR c np
6 w
gr

6 w

end %%Color Dict

eplot
%%EndObject

epage
end

showpage

%%Trailer
%%EOF
