%!PS-Adobe-3.0 EPSF-3.0
%%Creator: MATLAB, The MathWorks, Inc. Version 7.12.0.635 (R2011a). Operating System: Darwin 13.4.0 Darwin Kernel Version 13.4.0: Wed Dec 17 19:05:52 PST 2014; root:xnu-2422.115.10~1/RELEASE_X86_64 x86_64.
%%Title: /Users/Jie/Dropbox/Research/mS2GD/data_and_figures/Pics2/pics/algorithms.eps
%%CreationDate: 03/07/2015  17:52:15
%%DocumentNeededFonts: Helvetica
%%+ AvantGarde-Demi
%%DocumentProcessColors: Cyan Magenta Yellow Black
%%LanguageLevel: 2
%%Pages: 1
%%BoundingBox:    15   251   594   541
%%EndComments

%%BeginProlog
% MathWorks dictionary
/MathWorks 160 dict begin
% definition operators
/bdef {bind def} bind def
/ldef {load def} bind def
/xdef {exch def} bdef
/xstore {exch store} bdef
% operator abbreviations
/c  /clip ldef
/cc /concat ldef
/cp /closepath ldef
/gr /grestore ldef
/gs /gsave ldef
/mt /moveto ldef
/np /newpath ldef
/cm /currentmatrix ldef
/sm /setmatrix ldef
/rm /rmoveto ldef
/rl /rlineto ldef
/s {show newpath} bdef
/sc {setcmykcolor} bdef
/sr /setrgbcolor ldef
/sg /setgray ldef
/w /setlinewidth ldef
/j /setlinejoin ldef
/cap /setlinecap ldef
/rc {rectclip} bdef
/rf {rectfill} bdef
% page state control
/pgsv () def
/bpage {/pgsv save def} bdef
/epage {pgsv restore} bdef
/bplot /gsave ldef
/eplot {stroke grestore} bdef
% orientation switch
/portraitMode 0 def /landscapeMode 1 def /rotateMode 2 def
% coordinate system mappings
/dpi2point 0 def
% font control
/FontSize 0 def
/FMS {/FontSize xstore findfont [FontSize 0 0 FontSize neg 0 0]
  makefont setfont} bdef
/reencode {exch dup where {pop load} {pop StandardEncoding} ifelse
  exch dup 3 1 roll findfont dup length dict begin
  { 1 index /FID ne {def}{pop pop} ifelse } forall
  /Encoding exch def currentdict end definefont pop} bdef
/isroman {findfont /CharStrings get /Agrave known} bdef
/FMSR {3 1 roll 1 index dup isroman {reencode} {pop pop} ifelse
  exch FMS} bdef
/csm {1 dpi2point div -1 dpi2point div scale neg translate
 dup landscapeMode eq {pop -90 rotate}
  {rotateMode eq {90 rotate} if} ifelse} bdef
% line types: solid, dotted, dashed, dotdash
/SO { [] 0 setdash } bdef
/DO { [.5 dpi2point mul 4 dpi2point mul] 0 setdash } bdef
/DA { [6 dpi2point mul] 0 setdash } bdef
/DD { [.5 dpi2point mul 4 dpi2point mul 6 dpi2point mul 4
  dpi2point mul] 0 setdash } bdef
% macros for lines and objects
/L {lineto stroke} bdef
/MP {3 1 roll moveto 1 sub {rlineto} repeat} bdef
/AP {{rlineto} repeat} bdef
/PDlw -1 def
/W {/PDlw currentlinewidth def setlinewidth} def
/PP {closepath eofill} bdef
/DP {closepath stroke} bdef
/MR {4 -2 roll moveto dup  0 exch rlineto exch 0 rlineto
  neg 0 exch rlineto closepath} bdef
/FR {MR stroke} bdef
/PR {MR fill} bdef
/L1i {{currentfile picstr readhexstring pop} image} bdef
/tMatrix matrix def
/MakeOval {newpath tMatrix currentmatrix pop translate scale
0 0 1 0 360 arc tMatrix setmatrix} bdef
/FO {MakeOval stroke} bdef
/PO {MakeOval fill} bdef
/PD {currentlinewidth 2 div 0 360 arc fill
   PDlw -1 eq not {PDlw w /PDlw -1 def} if} def
/FA {newpath tMatrix currentmatrix pop translate scale
  0 0 1 5 -2 roll arc tMatrix setmatrix stroke} bdef
/PA {newpath tMatrix currentmatrix pop	translate 0 0 moveto scale
  0 0 1 5 -2 roll arc closepath tMatrix setmatrix fill} bdef
/FAn {newpath tMatrix currentmatrix pop translate scale
  0 0 1 5 -2 roll arcn tMatrix setmatrix stroke} bdef
/PAn {newpath tMatrix currentmatrix pop translate 0 0 moveto scale
  0 0 1 5 -2 roll arcn closepath tMatrix setmatrix fill} bdef
/vradius 0 def /hradius 0 def /lry 0 def
/lrx 0 def /uly 0 def /ulx 0 def /rad 0 def
/MRR {/vradius xdef /hradius xdef /lry xdef /lrx xdef /uly xdef
  /ulx xdef newpath tMatrix currentmatrix pop ulx hradius add uly
  vradius add translate hradius vradius scale 0 0 1 180 270 arc 
  tMatrix setmatrix lrx hradius sub uly vradius add translate
  hradius vradius scale 0 0 1 270 360 arc tMatrix setmatrix
  lrx hradius sub lry vradius sub translate hradius vradius scale
  0 0 1 0 90 arc tMatrix setmatrix ulx hradius add lry vradius sub
  translate hradius vradius scale 0 0 1 90 180 arc tMatrix setmatrix
  closepath} bdef
/FRR {MRR stroke } bdef
/PRR {MRR fill } bdef
/MlrRR {/lry xdef /lrx xdef /uly xdef /ulx xdef /rad lry uly sub 2 div def
  newpath tMatrix currentmatrix pop ulx rad add uly rad add translate
  rad rad scale 0 0 1 90 270 arc tMatrix setmatrix lrx rad sub lry rad
  sub translate rad rad scale 0 0 1 270 90 arc tMatrix setmatrix
  closepath} bdef
/FlrRR {MlrRR stroke } bdef
/PlrRR {MlrRR fill } bdef
/MtbRR {/lry xdef /lrx xdef /uly xdef /ulx xdef /rad lrx ulx sub 2 div def
  newpath tMatrix currentmatrix pop ulx rad add uly rad add translate
  rad rad scale 0 0 1 180 360 arc tMatrix setmatrix lrx rad sub lry rad
  sub translate rad rad scale 0 0 1 0 180 arc tMatrix setmatrix
  closepath} bdef
/FtbRR {MtbRR stroke } bdef
/PtbRR {MtbRR fill } bdef
/stri 6 array def /dtri 6 array def
/smat 6 array def /dmat 6 array def
/tmat1 6 array def /tmat2 6 array def /dif 3 array def
/asub {/ind2 exch def /ind1 exch def dup dup
  ind1 get exch ind2 get sub exch } bdef
/tri_to_matrix {
  2 0 asub 3 1 asub 4 0 asub 5 1 asub
  dup 0 get exch 1 get 7 -1 roll astore } bdef
/compute_transform {
  dmat dtri tri_to_matrix tmat1 invertmatrix 
  smat stri tri_to_matrix tmat2 concatmatrix } bdef
/ds {stri astore pop} bdef
/dt {dtri astore pop} bdef
/db {2 copy /cols xdef /rows xdef mul dup 3 mul string
  currentfile 
  3 index 0 eq {/ASCIIHexDecode filter}
  {/ASCII85Decode filter 3 index 2 eq {/RunLengthDecode filter} if }
  ifelse exch readstring pop
  dup 0 3 index getinterval /rbmap xdef
  dup 2 index dup getinterval /gbmap xdef
  1 index dup 2 mul exch getinterval /bbmap xdef pop pop}bdef
/it {gs np dtri aload pop moveto lineto lineto cp c
  cols rows 8 compute_transform 
  rbmap gbmap bbmap true 3 colorimage gr}bdef
/il {newpath moveto lineto stroke}bdef
currentdict end def
%%EndProlog

%%BeginSetup
MathWorks begin

0 cap

end
%%EndSetup

%%Page: 1 1
%%BeginPageSetup
%%PageBoundingBox:    15   251   594   541
MathWorks begin
bpage
%%EndPageSetup

%%BeginObject: obj1
bplot

/dpi2point 12 def
portraitMode 0180 6492 csm

    0     0  6949  3475 rc
32 dict begin %Colortable dictionary
/c0 { 0.000000 0.000000 0.000000 sr} bdef
/c1 { 1.000000 1.000000 1.000000 sr} bdef
/c2 { 0.900000 0.000000 0.000000 sr} bdef
/c3 { 0.000000 0.820000 0.000000 sr} bdef
/c4 { 0.000000 0.000000 0.800000 sr} bdef
/c5 { 0.910000 0.820000 0.320000 sr} bdef
/c6 { 1.000000 0.260000 0.820000 sr} bdef
/c7 { 0.000000 0.820000 0.820000 sr} bdef
c0
1 j
1 sg
   0    0 6950 3476 rf
12 w
0 2578 5240 0 0 -2578 1049 2839 4 MP
PP
-5240 0 0 2578 5240 0 0 -2578 1049 2839 5 MP stroke
8 w
DO
SO
12 w
0 sg
1049 2839 mt 6289 2839 L
1049  261 mt 6289  261 L
1049 2839 mt 1049  261 L
6289 2839 mt 6289  261 L
1049 2839 mt 6289 2839 L
1049 2839 mt 1049  261 L
1049 2839 mt 1049 2943 L
1049  261 mt 1049  156 L
%%IncludeResource: font AvantGarde-Demi
/AvantGarde-Demi /ISOLatin1Encoding 192 FMSR

 996 3174 mt 
(0) s
1922 2839 mt 1922 2943 L
1922  261 mt 1922  156 L
1869 3174 mt 
(5) s
2795 2839 mt 2795 2943 L
2795  261 mt 2795  156 L
2688 3174 mt 
(10) s
3669 2839 mt 3669 2943 L
3669  261 mt 3669  156 L
3562 3174 mt 
(15) s
4542 2839 mt 4542 2943 L
4542  261 mt 4542  156 L
4435 3174 mt 
(20) s
5415 2839 mt 5415 2943 L
5415  261 mt 5415  156 L
5308 3174 mt 
(25) s
6289 2839 mt 6289 2943 L
6289  261 mt 6289  156 L
6182 3174 mt 
(30) s
1049 2839 mt 1049 2839 L
1049 2839 mt 1049 2839 L
1049 2839 mt 1049 2839 L
1049 2839 mt 1049 2839 L
1049 2839 mt 1049 2839 L
1049 2839 mt 1049 2839 L
1049 2839 mt 1049 2839 L
1049 2839 mt 1049 2839 L
1049 2839 mt 1049 2839 L
1049 2839 mt 1049 2839 L
1049 2839 mt 1049 2839 L
1049 2839 mt 1049 2839 L
1049 2839 mt 1049 2839 L
1049 2839 mt 1049 2839 L
1049 2839 mt 1049 2839 L
1049 2839 mt 1049 2839 L
1049 2839 mt 1049 2839 L
1049 2839 mt 1049 2839 L
1049 2839 mt  944 2839 L
6289 2839 mt 6393 2839 L
 474 2917 mt 
(10) s
%%IncludeResource: font AvantGarde-Demi
/AvantGarde-Demi /ISOLatin1Encoding 128 FMSR

 689 2787 mt 
(-15) s
1049 2839 mt 1049 2839 L
1049 2839 mt 1049 2839 L
1049 2839 mt 1049 2839 L
1049 2839 mt 1049 2839 L
1049 2839 mt 1049 2839 L
1049 2839 mt 1049 2839 L
1049 2839 mt 1049 2839 L
1049 2839 mt 1049 2839 L
1049 2839 mt 1049 2839 L
1049 2839 mt 1049 2839 L
1049 2839 mt 1049 2839 L
1049 2839 mt 1049 2839 L
1049 2839 mt 1049 2839 L
1049 2839 mt 1049 2839 L
1049 2839 mt 1049 2839 L
1049 2839 mt 1049 2839 L
1049 2839 mt 1049 2839 L
1049 2839 mt 1049 2839 L
1049 1979 mt  944 1979 L
6289 1979 mt 6393 1979 L
%%IncludeResource: font AvantGarde-Demi
/AvantGarde-Demi /ISOLatin1Encoding 192 FMSR

 474 2057 mt 
(10) s
%%IncludeResource: font AvantGarde-Demi
/AvantGarde-Demi /ISOLatin1Encoding 128 FMSR

 689 1927 mt 
(-10) s
1049 2839 mt 1049 2839 L
1049 2839 mt 1049 2839 L
1049 2839 mt 1049 2839 L
1049 2839 mt 1049 2839 L
1049 2839 mt 1049 2839 L
1049 2839 mt 1049 2839 L
1049 2839 mt 1049 2839 L
1049 2839 mt 1049 2839 L
1049 2839 mt 1049 2839 L
1049 2839 mt 1049 2839 L
1049 2839 mt 1049 2839 L
1049 2839 mt 1049 2839 L
1049 2839 mt 1049 2839 L
1049 2839 mt 1049 2839 L
1049 2839 mt 1049 2839 L
1049 2839 mt 1049 2839 L
1049 2839 mt 1049 2839 L
1049 2839 mt 1049 2839 L
1049 1120 mt  944 1120 L
6289 1120 mt 6393 1120 L
%%IncludeResource: font AvantGarde-Demi
/AvantGarde-Demi /ISOLatin1Encoding 192 FMSR

 474 1198 mt 
(10) s
%%IncludeResource: font AvantGarde-Demi
/AvantGarde-Demi /ISOLatin1Encoding 128 FMSR

 689 1068 mt 
(-5) s
1049 2839 mt 1049 2839 L
1049 2839 mt 1049 2839 L
1049 2839 mt 1049 2839 L
1049 2839 mt 1049 2839 L
1049 2839 mt 1049 2839 L
1049 2839 mt 1049 2839 L
1049 2839 mt 1049 2839 L
1049 2839 mt 1049 2839 L
1049 2839 mt 1049 2839 L
1049 2839 mt 1049 2839 L
1049 2839 mt 1049 2839 L
1049 2839 mt 1049 2839 L
1049 2839 mt 1049 2839 L
1049 2839 mt 1049 2839 L
1049 2839 mt 1049 2839 L
1049 2839 mt 1049 2839 L
1049 2839 mt 1049 2839 L
1049 2839 mt 1049 2839 L
1049  261 mt  944  261 L
6289  261 mt 6393  261 L
%%IncludeResource: font AvantGarde-Demi
/AvantGarde-Demi /ISOLatin1Encoding 192 FMSR

 474  339 mt 
(10) s
%%IncludeResource: font AvantGarde-Demi
/AvantGarde-Demi /ISOLatin1Encoding 128 FMSR

 689  209 mt 
(0) s
1049 2839 mt 1049 2839 L
1049 2839 mt 1049 2839 L
1049 2839 mt 1049 2839 L
1049 2839 mt 1049 2839 L
1049 2839 mt 1049 2839 L
1049 2839 mt 1049 2839 L
1049 2839 mt 1049 2839 L
1049 2839 mt 1049 2839 L
1049 2839 mt 1049 2839 L
1049 2839 mt 1049 2839 L
1049 2839 mt 1049 2839 L
1049 2839 mt 1049 2839 L
1049 2839 mt 1049 2839 L
1049 2839 mt 1049 2839 L
1049 2839 mt 1049 2839 L
1049 2839 mt 1049 2839 L
1049 2839 mt 1049 2839 L
1049 2839 mt 1049 2839 L
1049 2839 mt 6289 2839 L
1049  261 mt 6289  261 L
1049 2839 mt 1049  261 L
6289 2839 mt 6289  261 L
gs 1049 261 5241 2579 rc
36 w
/c8 { 0.000000 0.000000 1.000000 sr} bdef
c8
220 250 326 159 298 184 315 227 205 97 245 184 188 57 299 209 
221 148 295 191 316 217 195 69 304 215 275 206 277 112 1049 314 16 MP stroke
/c9 { 0.000000 0.500000 0.000000 sr} bdef
c9
218 72 261 234 203 113 220 162 197 105 261 157 242 179 253 151 
189 66 211 139 181 41 243 165 196 106 241 163 254 182 184 62 
247 172 228 175 229 81 1049 314 20 MP stroke
/c10 { 1.000000 0.000000 0.000000 sr} bdef
c10
175 157 175 127 174 104 175 98 175 208 174 11 175 45 175 40 
174 62 175 103 175 127 174 184 175 16 175 23 174 85 175 126 
175 78 174 33 175 72 175 48 174 86 175 69 175 73 174 80 
175 80 175 76 174 314 1049 314 28 MP stroke
/c11 { 0.000000 0.750000 0.750000 sr} bdef
c11
1 0 175 2 175 -4 174 -6 175 6 175 -4 174 4 175 -2 
175 2 174 1 175 -7 175 0 174 25 175 -24 175 1 174 1 
175 6 175 -7 174 5 175 2 175 -4 174 -6 175 4 175 5 
174 -2 175 0 175 9 174 15 175 18 175 77 174 260 1049 314 32 MP stroke
/c12 { 0.750000 0.000000 0.750000 sr} bdef
c12
1 0 175 2 175 -1 174 2 175 2 175 0 174 4 175 2 
175 0 174 -1 175 4 175 3 174 9 175 -5 175 3 174 4 
175 2 175 6 174 3 175 5 175 5 174 4 175 10 175 9 
174 9 175 12 175 20 174 21 175 22 175 54 174 293 1049 314 32 MP stroke
/c13 { 0.750000 0.750000 0.000000 sr} bdef
c13
1 0 175 9 175 12 174 13 175 16 175 16 174 16 175 14 
175 13 174 12 175 10 175 8 174 7 175 8 175 10 174 15 
175 22 175 27 174 32 175 33 175 33 174 31 175 29 175 26 
174 25 175 26 175 32 174 37 175 41 175 46 174 105 1049 314 32 MP stroke
gr

36 w
c13
gs 1144 244 3521 2369 rc
0 j
0 -114 -114 0 0 114 114 0 1269 369 5 MP
/c14 { 1.000000 1.000000 0.900000 sr} bdef
c14
gs
PP
gr
c8
DP
0 -114 -114 0 0 114 114 0 2043 859 5 MP
c14
gs
PP
gr
c8
DP
0 -114 -114 0 0 114 114 0 2875 1415 5 MP
c14
gs
PP
gr
c8
DP
0 -114 -114 0 0 114 114 0 3607 1865 5 MP
c14
gs
PP
gr
c8
DP
0 -114 -114 0 0 114 114 0 4425 2373 5 MP
c14
gs
PP
gr
c8
DP
gr

c8
gs 1049 261 5241 2579 rc
1326 426 PD
gr

gs 1144 244 365 365 rc
0 j
0 -114 -114 0 0 114 114 0 1269 369 5 MP
c14
gs
PP
gr
c8
DP
gr

gs 1049 261 5241 2579 rc
gr

gs 867 132 4405 2818 rc
c14
  72   72 1049  314 PO
  72   72 1753  742 PO
  72   72 2432 1149 PO
  72   72 3052 1461 PO
  72   72 3705 1817 PO
  72   72 4405 2258 PO
  72   72 5089 2767 PO
c9
  72   72 1049  314 FO
  72   72 1753  742 FO
  72   72 2432 1149 FO
  72   72 3052 1461 FO
  72   72 3705 1817 FO
  72   72 4405 2258 FO
  72   72 5089 2767 FO
gr

c9
gs 1049 261 5241 2579 rc
1049 314 PD
gr

gs 867 132 365 365 rc
c14
  72   72 1049  314 PO
c9
  72   72 1049  314 FO
gr

gs 1049 261 5241 2579 rc
gr

gs 1216 522 4557 2343 rc
0 j
-41 -31 15 -50 -43 30 -42 -30 15 50 -41 31 52 0 16 49 
17 -49 52 0 1329 681 11 MP
c14
gs
PP
gr
c10
DP
-41 -31 15 -50 -43 30 -42 -30 15 50 -41 31 52 0 16 49 
17 -49 52 0 1853 914 11 MP
c14
gs
PP
gr
c10
DP
-41 -31 15 -50 -43 30 -42 -30 15 50 -41 31 52 0 16 49 
17 -49 52 0 2377 1117 11 MP
c14
gs
PP
gr
c10
DP
-41 -31 15 -50 -43 30 -42 -30 15 50 -41 31 52 0 16 49 
17 -49 52 0 2901 1300 11 MP
c14
gs
PP
gr
c10
DP
-41 -31 15 -50 -43 30 -42 -30 15 50 -41 31 52 0 16 49 
17 -49 52 0 3425 1534 11 MP
c14
gs
PP
gr
c10
DP
-41 -31 15 -50 -43 30 -42 -30 15 50 -41 31 52 0 16 49 
17 -49 52 0 3949 1861 11 MP
c14
gs
PP
gr
c10
DP
-41 -31 15 -50 -43 30 -42 -30 15 50 -41 31 52 0 16 49 
17 -49 52 0 4473 2066 11 MP
c14
gs
PP
gr
c10
DP
-41 -31 15 -50 -43 30 -42 -30 15 50 -41 31 52 0 16 49 
17 -49 52 0 4997 2330 11 MP
c14
gs
PP
gr
c10
DP
-41 -31 15 -50 -43 30 -42 -30 15 50 -41 31 52 0 16 49 
17 -49 52 0 5521 2659 11 MP
c14
gs
PP
gr
c10
DP
gr

c10
gs 1049 261 5241 2579 rc
1398 704 PD
gs 1216 522 365 365 rc
0 j
-41 -31 15 -50 -43 30 -42 -30 15 50 -41 31 52 0 16 49 
17 -49 52 0 1329 681 11 MP
c14
gs
PP
gr
c10
DP
gr

gr

gs 1041 392 5432 488 rc
c11
1151  574 mt 1295  574 L
1223  502 mt 1223  646 L
2025  693 mt 2169  693 L
2097  621 mt 2097  765 L
2898  690 mt 3042  690 L
2970  618 mt 2970  762 L
3771  697 mt 3915  697 L
3843  625 mt 3843  769 L
4645  692 mt 4789  692 L
4717  620 mt 4717  764 L
5518  693 mt 5662  693 L
5590  621 mt 5590  765 L
1173  524 mt 1273  624 L
1273  524 mt 1173  624 L
2047  643 mt 2147  743 L
2147  643 mt 2047  743 L
2920  640 mt 3020  740 L
3020  640 mt 2920  740 L
3793  647 mt 3893  747 L
3893  647 mt 3793  747 L
4667  642 mt 4767  742 L
4767  642 mt 4667  742 L
5540  643 mt 5640  743 L
5640  643 mt 5540  743 L
gr

c11
gs 1049 261 5241 2579 rc
1223 574 PD
gr

gs 1041 392 365 365 rc
1151  574 mt 1295  574 L
1223  502 mt 1223  646 L
1173  524 mt 1273  624 L
1273  524 mt 1173  624 L
gr

gs 1049 261 5241 2579 rc
gr

gs 1391 501 5082 499 rc
0 j
72 95 -72 95 -72 -95 72 -95 1573 778 5 MP
c14
gs
PP
gr
c12
DP
72 95 -72 95 -72 -95 72 -95 2271 840 5 MP
c14
gs
PP
gr
c12
DP
72 95 -72 95 -72 -95 72 -95 2970 868 5 MP
c14
gs
PP
gr
c12
DP
72 95 -72 95 -72 -95 72 -95 3669 884 5 MP
c14
gs
PP
gr
c12
DP
72 95 -72 95 -72 -95 72 -95 4367 895 5 MP
c14
gs
PP
gr
c12
DP
72 95 -72 95 -72 -95 72 -95 5066 901 5 MP
c14
gs
PP
gr
c12
DP
72 95 -72 95 -72 -95 72 -95 5765 909 5 MP
c14
gs
PP
gr
c12
DP
gr

c12
gs 1049 261 5241 2579 rc
1573 683 PD
gs 1391 501 365 365 rc
0 j
72 95 -72 95 -72 -95 72 -95 1573 778 5 MP
c14
gs
PP
gr
c12
DP
gr

gr

gs 1740 393 4733 826 rc
c13
1872  525 mt 1972  625 L
1972  525 mt 1872  625 L
2396  602 mt 2496  702 L
2496  602 mt 2396  702 L
2920  695 mt 3020  795 L
3020  695 mt 2920  795 L
3444  787 mt 3544  887 L
3544  787 mt 3444  887 L
3968  834 mt 4068  934 L
4068  834 mt 3968  934 L
4492  857 mt 4592  957 L
4592  857 mt 4492  957 L
5016  892 mt 5116  992 L
5116  892 mt 5016  992 L
5540  938 mt 5640 1038 L
5640  938 mt 5540 1038 L
6064  979 mt 6164 1079 L
6164  979 mt 6064 1079 L
gr

c13
gs 1049 261 5241 2579 rc
1922 575 PD
gs 1740 393 365 365 rc
1872  525 mt 1972  625 L
1972  525 mt 1872  625 L
gr

gr

0 sg
%%IncludeResource: font AvantGarde-Demi
/AvantGarde-Demi /ISOLatin1Encoding 240 FMSR

2122 3410 mt 
(Number of Effective Passes) s
 251 2182 mt  -90 rotate
(P\(x\) - P\(x) s
90 rotate
%%IncludeResource: font AvantGarde-Demi
/AvantGarde-Demi /ISOLatin1Encoding 192 FMSR

 371 1093 mt  -90 rotate
(*) s
90 rotate
%%IncludeResource: font AvantGarde-Demi
/AvantGarde-Demi /ISOLatin1Encoding 240 FMSR

 251 1009 mt  -90 rotate
(\)) s
90 rotate
%%IncludeResource: font Helvetica
/Helvetica /ISOLatin1Encoding 120 FMSR

1020 2890 mt 
( ) s
6261  311 mt 
( ) s
12 w
6 w
1 sg
0 1554 1262 0 0 -1554 1097 2788 4 MP
PP
-1262 0 0 1554 1262 0 0 -1554 1097 2788 5 MP stroke
4 w
DO
SO
6 w
0 sg
1097 2788 mt 2359 2788 L
1097 1234 mt 2359 1234 L
1097 2788 mt 1097 1234 L
2359 2788 mt 2359 1234 L
1097 2788 mt 2359 2788 L
1097 2788 mt 1097 1234 L
1097 2788 mt 2359 2788 L
1097 1234 mt 2359 1234 L
1097 2788 mt 1097 1234 L
2359 2788 mt 2359 1234 L
%%IncludeResource: font AvantGarde-Demi
/AvantGarde-Demi /ISOLatin1Encoding 192 FMSR

1550 1453 mt 
(mS2GD) s
gs 1097 1234 1263 1555 rc
36 w
c8
348 0 1166 1379 2 MP stroke
gr

36 w
c8
gs 1158 1197 365 365 rc
0 j
0 -114 -114 0 0 114 114 0 1283 1322 5 MP
c14
gs
PP
gr
c8
DP
gr

gs 1097 1234 1263 1555 rc
gr

0 sg
1550 1706 mt 
(S2GD) s
gs 1097 1234 1263 1555 rc
c9
348 0 1166 1631 2 MP stroke
gs 1158 1449 365 365 rc
c14
  72   72 1340 1631 PO
c9
  72   72 1340 1631 FO
gr

gr

c9
0 sg
1550 1959 mt 
(SAG) s
gs 1097 1234 1263 1555 rc
c10
348 0 1166 1884 2 MP stroke
gs 1158 1702 365 365 rc
0 j
-41 -31 15 -50 -43 30 -42 -30 15 50 -41 31 52 0 16 49 
17 -49 52 0 1271 1861 11 MP
c14
gs
PP
gr
c10
DP
gr

gr

c10
0 sg
1550 2212 mt 
(SGDcon) s
gs 1097 1234 1263 1555 rc
c11
348 0 1166 2137 2 MP stroke
gs 1158 1955 365 365 rc
1268 2137 mt 1412 2137 L
1340 2065 mt 1340 2209 L
1290 2087 mt 1390 2187 L
1390 2087 mt 1290 2187 L
gr

gr

c11
0 sg
1550 2465 mt 
(SGD+) s
gs 1097 1234 1263 1555 rc
c12
348 0 1166 2390 2 MP stroke
gs 1158 2208 365 365 rc
0 j
72 95 -72 95 -72 -95 72 -95 1340 2485 5 MP
c14
gs
PP
gr
c12
DP
gr

gr

c12
0 sg
1550 2718 mt 
(FISTA) s
gs 1097 1234 1263 1555 rc
c13
348 0 1166 2642 2 MP stroke
gr

c13
gs 1158 2460 365 365 rc
1290 2592 mt 1390 2692 L
1390 2592 mt 1290 2692 L
gr

gs 1097 1234 1263 1555 rc
6 w
gr

6 w

end %%Color Dict

eplot
%%EndObject

epage
end

showpage

%%Trailer
%%EOF
