%!PS-Adobe-3.0 EPSF-3.0
%%Creator: MATLAB, The MathWorks, Inc. Version 7.12.0.635 (R2011a). Operating System: Darwin 13.4.0 Darwin Kernel Version 13.4.0: Wed Dec 17 19:05:52 PST 2014; root:xnu-2422.115.10~1/RELEASE_X86_64 x86_64.
%%Title: /Users/Jie/Dropbox/Research/mS2GD/data_and_figures/pic/parallel.eps
%%CreationDate: 03/07/2015  17:37:31
%%DocumentNeededFonts: Helvetica
%%+ AvantGarde-Demi
%%DocumentProcessColors: Cyan Magenta Yellow Black
%%LanguageLevel: 2
%%Pages: 1
%%BoundingBox:    15   261   594   531
%%EndComments

%%BeginProlog
% MathWorks dictionary
/MathWorks 160 dict begin
% definition operators
/bdef {bind def} bind def
/ldef {load def} bind def
/xdef {exch def} bdef
/xstore {exch store} bdef
% operator abbreviations
/c  /clip ldef
/cc /concat ldef
/cp /closepath ldef
/gr /grestore ldef
/gs /gsave ldef
/mt /moveto ldef
/np /newpath ldef
/cm /currentmatrix ldef
/sm /setmatrix ldef
/rm /rmoveto ldef
/rl /rlineto ldef
/s {show newpath} bdef
/sc {setcmykcolor} bdef
/sr /setrgbcolor ldef
/sg /setgray ldef
/w /setlinewidth ldef
/j /setlinejoin ldef
/cap /setlinecap ldef
/rc {rectclip} bdef
/rf {rectfill} bdef
% page state control
/pgsv () def
/bpage {/pgsv save def} bdef
/epage {pgsv restore} bdef
/bplot /gsave ldef
/eplot {stroke grestore} bdef
% orientation switch
/portraitMode 0 def /landscapeMode 1 def /rotateMode 2 def
% coordinate system mappings
/dpi2point 0 def
% font control
/FontSize 0 def
/FMS {/FontSize xstore findfont [FontSize 0 0 FontSize neg 0 0]
  makefont setfont} bdef
/reencode {exch dup where {pop load} {pop StandardEncoding} ifelse
  exch dup 3 1 roll findfont dup length dict begin
  { 1 index /FID ne {def}{pop pop} ifelse } forall
  /Encoding exch def currentdict end definefont pop} bdef
/isroman {findfont /CharStrings get /Agrave known} bdef
/FMSR {3 1 roll 1 index dup isroman {reencode} {pop pop} ifelse
  exch FMS} bdef
/csm {1 dpi2point div -1 dpi2point div scale neg translate
 dup landscapeMode eq {pop -90 rotate}
  {rotateMode eq {90 rotate} if} ifelse} bdef
% line types: solid, dotted, dashed, dotdash
/SO { [] 0 setdash } bdef
/DO { [.5 dpi2point mul 4 dpi2point mul] 0 setdash } bdef
/DA { [6 dpi2point mul] 0 setdash } bdef
/DD { [.5 dpi2point mul 4 dpi2point mul 6 dpi2point mul 4
  dpi2point mul] 0 setdash } bdef
% macros for lines and objects
/L {lineto stroke} bdef
/MP {3 1 roll moveto 1 sub {rlineto} repeat} bdef
/AP {{rlineto} repeat} bdef
/PDlw -1 def
/W {/PDlw currentlinewidth def setlinewidth} def
/PP {closepath eofill} bdef
/DP {closepath stroke} bdef
/MR {4 -2 roll moveto dup  0 exch rlineto exch 0 rlineto
  neg 0 exch rlineto closepath} bdef
/FR {MR stroke} bdef
/PR {MR fill} bdef
/L1i {{currentfile picstr readhexstring pop} image} bdef
/tMatrix matrix def
/MakeOval {newpath tMatrix currentmatrix pop translate scale
0 0 1 0 360 arc tMatrix setmatrix} bdef
/FO {MakeOval stroke} bdef
/PO {MakeOval fill} bdef
/PD {currentlinewidth 2 div 0 360 arc fill
   PDlw -1 eq not {PDlw w /PDlw -1 def} if} def
/FA {newpath tMatrix currentmatrix pop translate scale
  0 0 1 5 -2 roll arc tMatrix setmatrix stroke} bdef
/PA {newpath tMatrix currentmatrix pop	translate 0 0 moveto scale
  0 0 1 5 -2 roll arc closepath tMatrix setmatrix fill} bdef
/FAn {newpath tMatrix currentmatrix pop translate scale
  0 0 1 5 -2 roll arcn tMatrix setmatrix stroke} bdef
/PAn {newpath tMatrix currentmatrix pop translate 0 0 moveto scale
  0 0 1 5 -2 roll arcn closepath tMatrix setmatrix fill} bdef
/vradius 0 def /hradius 0 def /lry 0 def
/lrx 0 def /uly 0 def /ulx 0 def /rad 0 def
/MRR {/vradius xdef /hradius xdef /lry xdef /lrx xdef /uly xdef
  /ulx xdef newpath tMatrix currentmatrix pop ulx hradius add uly
  vradius add translate hradius vradius scale 0 0 1 180 270 arc 
  tMatrix setmatrix lrx hradius sub uly vradius add translate
  hradius vradius scale 0 0 1 270 360 arc tMatrix setmatrix
  lrx hradius sub lry vradius sub translate hradius vradius scale
  0 0 1 0 90 arc tMatrix setmatrix ulx hradius add lry vradius sub
  translate hradius vradius scale 0 0 1 90 180 arc tMatrix setmatrix
  closepath} bdef
/FRR {MRR stroke } bdef
/PRR {MRR fill } bdef
/MlrRR {/lry xdef /lrx xdef /uly xdef /ulx xdef /rad lry uly sub 2 div def
  newpath tMatrix currentmatrix pop ulx rad add uly rad add translate
  rad rad scale 0 0 1 90 270 arc tMatrix setmatrix lrx rad sub lry rad
  sub translate rad rad scale 0 0 1 270 90 arc tMatrix setmatrix
  closepath} bdef
/FlrRR {MlrRR stroke } bdef
/PlrRR {MlrRR fill } bdef
/MtbRR {/lry xdef /lrx xdef /uly xdef /ulx xdef /rad lrx ulx sub 2 div def
  newpath tMatrix currentmatrix pop ulx rad add uly rad add translate
  rad rad scale 0 0 1 180 360 arc tMatrix setmatrix lrx rad sub lry rad
  sub translate rad rad scale 0 0 1 0 180 arc tMatrix setmatrix
  closepath} bdef
/FtbRR {MtbRR stroke } bdef
/PtbRR {MtbRR fill } bdef
/stri 6 array def /dtri 6 array def
/smat 6 array def /dmat 6 array def
/tmat1 6 array def /tmat2 6 array def /dif 3 array def
/asub {/ind2 exch def /ind1 exch def dup dup
  ind1 get exch ind2 get sub exch } bdef
/tri_to_matrix {
  2 0 asub 3 1 asub 4 0 asub 5 1 asub
  dup 0 get exch 1 get 7 -1 roll astore } bdef
/compute_transform {
  dmat dtri tri_to_matrix tmat1 invertmatrix 
  smat stri tri_to_matrix tmat2 concatmatrix } bdef
/ds {stri astore pop} bdef
/dt {dtri astore pop} bdef
/db {2 copy /cols xdef /rows xdef mul dup 3 mul string
  currentfile 
  3 index 0 eq {/ASCIIHexDecode filter}
  {/ASCII85Decode filter 3 index 2 eq {/RunLengthDecode filter} if }
  ifelse exch readstring pop
  dup 0 3 index getinterval /rbmap xdef
  dup 2 index dup getinterval /gbmap xdef
  1 index dup 2 mul exch getinterval /bbmap xdef pop pop}bdef
/it {gs np dtri aload pop moveto lineto lineto cp c
  cols rows 8 compute_transform 
  rbmap gbmap bbmap true 3 colorimage gr}bdef
/il {newpath moveto lineto stroke}bdef
currentdict end def
%%EndProlog

%%BeginSetup
MathWorks begin

0 cap

end
%%EndSetup

%%Page: 1 1
%%BeginPageSetup
%%PageBoundingBox:    15   261   594   531
MathWorks begin
bpage
%%EndPageSetup

%%BeginObject: obj1
bplot

/dpi2point 12 def
portraitMode 0180 6372 csm

    0     0  6949  3235 rc
32 dict begin %Colortable dictionary
/c0 { 0.000000 0.000000 0.000000 sr} bdef
/c1 { 1.000000 1.000000 1.000000 sr} bdef
/c2 { 0.900000 0.000000 0.000000 sr} bdef
/c3 { 0.000000 0.820000 0.000000 sr} bdef
/c4 { 0.000000 0.000000 0.800000 sr} bdef
/c5 { 0.910000 0.820000 0.320000 sr} bdef
/c6 { 1.000000 0.260000 0.820000 sr} bdef
/c7 { 0.000000 0.820000 0.820000 sr} bdef
c0
1 j
1 sg
   0    0 6950 3236 rf
12 w
0 2356 5240 0 0 -2356 1049 2599 4 MP
PP
-5240 0 0 2356 5240 0 0 -2356 1049 2599 5 MP stroke
8 w
DO
SO
12 w
0 sg
1049 2599 mt 6289 2599 L
1049  243 mt 6289  243 L
1049 2599 mt 1049  243 L
6289 2599 mt 6289  243 L
1049 2599 mt 6289 2599 L
1049 2599 mt 1049  243 L
1049 2599 mt 1049 2703 L
1049  243 mt 1049  138 L
%%IncludeResource: font AvantGarde-Demi
/AvantGarde-Demi /ISOLatin1Encoding 192 FMSR

 996 2934 mt 
(0) s
1922 2599 mt 1922 2703 L
1922  243 mt 1922  138 L
1869 2934 mt 
(5) s
2795 2599 mt 2795 2703 L
2795  243 mt 2795  138 L
2688 2934 mt 
(10) s
3669 2599 mt 3669 2703 L
3669  243 mt 3669  138 L
3562 2934 mt 
(15) s
4542 2599 mt 4542 2703 L
4542  243 mt 4542  138 L
4435 2934 mt 
(20) s
5415 2599 mt 5415 2703 L
5415  243 mt 5415  138 L
5308 2934 mt 
(25) s
6289 2599 mt 6289 2703 L
6289  243 mt 6289  138 L
6182 2934 mt 
(30) s
1049 2599 mt 1049 2599 L
1049 2599 mt 1049 2599 L
1049 2599 mt 1049 2599 L
1049 2599 mt 1049 2599 L
1049 2599 mt 1049 2599 L
1049 2599 mt 1049 2599 L
1049 2599 mt 1049 2599 L
1049 2599 mt 1049 2599 L
1049 2599 mt 1049 2599 L
1049 2599 mt 1049 2599 L
1049 2599 mt 1049 2599 L
1049 2599 mt 1049 2599 L
1049 2599 mt 1049 2599 L
1049 2599 mt 1049 2599 L
1049 2599 mt 1049 2599 L
1049 2599 mt 1049 2599 L
1049 2599 mt 1049 2599 L
1049 2599 mt 1049 2599 L
1049 2599 mt  944 2599 L
6289 2599 mt 6393 2599 L
 474 2677 mt 
(10) s
%%IncludeResource: font AvantGarde-Demi
/AvantGarde-Demi /ISOLatin1Encoding 128 FMSR

 689 2547 mt 
(-15) s
1049 2599 mt 1049 2599 L
1049 2599 mt 1049 2599 L
1049 2599 mt 1049 2599 L
1049 2599 mt 1049 2599 L
1049 2599 mt 1049 2599 L
1049 2599 mt 1049 2599 L
1049 2599 mt 1049 2599 L
1049 2599 mt 1049 2599 L
1049 2599 mt 1049 2599 L
1049 2599 mt 1049 2599 L
1049 2599 mt 1049 2599 L
1049 2599 mt 1049 2599 L
1049 2599 mt 1049 2599 L
1049 2599 mt 1049 2599 L
1049 2599 mt 1049 2599 L
1049 2599 mt 1049 2599 L
1049 2599 mt 1049 2599 L
1049 2599 mt 1049 2599 L
1049 1813 mt  944 1813 L
6289 1813 mt 6393 1813 L
%%IncludeResource: font AvantGarde-Demi
/AvantGarde-Demi /ISOLatin1Encoding 192 FMSR

 474 1891 mt 
(10) s
%%IncludeResource: font AvantGarde-Demi
/AvantGarde-Demi /ISOLatin1Encoding 128 FMSR

 689 1761 mt 
(-10) s
1049 2599 mt 1049 2599 L
1049 2599 mt 1049 2599 L
1049 2599 mt 1049 2599 L
1049 2599 mt 1049 2599 L
1049 2599 mt 1049 2599 L
1049 2599 mt 1049 2599 L
1049 2599 mt 1049 2599 L
1049 2599 mt 1049 2599 L
1049 2599 mt 1049 2599 L
1049 2599 mt 1049 2599 L
1049 2599 mt 1049 2599 L
1049 2599 mt 1049 2599 L
1049 2599 mt 1049 2599 L
1049 2599 mt 1049 2599 L
1049 2599 mt 1049 2599 L
1049 2599 mt 1049 2599 L
1049 2599 mt 1049 2599 L
1049 2599 mt 1049 2599 L
1049 1028 mt  944 1028 L
6289 1028 mt 6393 1028 L
%%IncludeResource: font AvantGarde-Demi
/AvantGarde-Demi /ISOLatin1Encoding 192 FMSR

 474 1106 mt 
(10) s
%%IncludeResource: font AvantGarde-Demi
/AvantGarde-Demi /ISOLatin1Encoding 128 FMSR

 689  976 mt 
(-5) s
1049 2599 mt 1049 2599 L
1049 2599 mt 1049 2599 L
1049 2599 mt 1049 2599 L
1049 2599 mt 1049 2599 L
1049 2599 mt 1049 2599 L
1049 2599 mt 1049 2599 L
1049 2599 mt 1049 2599 L
1049 2599 mt 1049 2599 L
1049 2599 mt 1049 2599 L
1049 2599 mt 1049 2599 L
1049 2599 mt 1049 2599 L
1049 2599 mt 1049 2599 L
1049 2599 mt 1049 2599 L
1049 2599 mt 1049 2599 L
1049 2599 mt 1049 2599 L
1049 2599 mt 1049 2599 L
1049 2599 mt 1049 2599 L
1049 2599 mt 1049 2599 L
1049  243 mt  944  243 L
6289  243 mt 6393  243 L
%%IncludeResource: font AvantGarde-Demi
/AvantGarde-Demi /ISOLatin1Encoding 192 FMSR

 474  321 mt 
(10) s
%%IncludeResource: font AvantGarde-Demi
/AvantGarde-Demi /ISOLatin1Encoding 128 FMSR

 689  191 mt 
(0) s
1049 2599 mt 1049 2599 L
1049 2599 mt 1049 2599 L
1049 2599 mt 1049 2599 L
1049 2599 mt 1049 2599 L
1049 2599 mt 1049 2599 L
1049 2599 mt 1049 2599 L
1049 2599 mt 1049 2599 L
1049 2599 mt 1049 2599 L
1049 2599 mt 1049 2599 L
1049 2599 mt 1049 2599 L
1049 2599 mt 1049 2599 L
1049 2599 mt 1049 2599 L
1049 2599 mt 1049 2599 L
1049 2599 mt 1049 2599 L
1049 2599 mt 1049 2599 L
1049 2599 mt 1049 2599 L
1049 2599 mt 1049 2599 L
1049 2599 mt 1049 2599 L
1049 2599 mt 6289 2599 L
1049  243 mt 6289  243 L
1049 2599 mt 1049  243 L
6289 2599 mt 6289  243 L
gs 1049 243 5241 2357 rc
36 w
/c8 { 0.000000 0.000000 1.000000 sr} bdef
c8
218 63 261 216 203 104 220 148 197 96 261 144 242 163 253 138 
189 60 211 127 181 38 243 150 196 97 241 149 254 167 184 57 
247 157 228 159 229 75 1049 291 20 MP stroke
/c9 { 0.000000 0.500000 0.000000 sr} bdef
c9
106 182 118 159 102 111 145 144 132 160 140 198 97 59 111 141 
91 33 133 173 102 108 132 154 140 194 93 45 136 181 123 171 
123 95 1049 291 18 MP stroke
/c10 { 1.000000 0.000000 0.000000 sr} bdef
c10
47 110 51 135 61 197 49 75 52 123 47 78 61 150 57 153 
59 180 46 36 50 91 44 18 57 171 48 71 56 140 59 172 
45 29 58 155 54 139 53 85 1049 291 21 MP stroke
/c11 { 0.000000 0.750000 0.750000 sr} bdef
c11
39 277 27 63 30 110 26 53 39 212 35 170 37 199 24 31 
28 87 23 14 35 172 26 58 34 169 38 201 23 26 36 184 
31 153 32 129 1049 291 19 MP stroke
/c12 { 0.750000 0.000000 0.750000 sr} bdef
c12
25 205 28 231 15 158 21 184 13 95 26 186 17 173 26 181 
27 220 14 122 26 200 24 234 23 119 1049 291 14 MP stroke
/c13 { 0.750000 0.750000 0.000000 sr} bdef
c13
10 162 15 245 8 93 20 254 12 207 20 235 22 278 9 129 
20 263 18 276 18 166 1049 291 12 MP stroke
gr

36 w
c13
gs 1096 184 4394 2598 rc
0 j
0 -114 -114 0 0 114 114 0 1221 309 5 MP
/c14 { 1.000000 1.000000 0.900000 sr} bdef
c14
gs
PP
gr
c8
DP
0 -114 -114 0 0 114 114 0 1880 682 5 MP
c14
gs
PP
gr
c8
DP
0 -114 -114 0 0 114 114 0 2571 1095 5 MP
c14
gs
PP
gr
c8
DP
0 -114 -114 0 0 114 114 0 3206 1410 5 MP
c14
gs
PP
gr
c8
DP
0 -114 -114 0 0 114 114 0 3890 1771 5 MP
c14
gs
PP
gr
c8
DP
0 -114 -114 0 0 114 114 0 4568 2159 5 MP
c14
gs
PP
gr
c8
DP
0 -114 -114 0 0 114 114 0 5250 2542 5 MP
c14
gs
PP
gr
c8
DP
gr

c8
gs 1049 243 5241 2357 rc
1278 366 PD
gr

gs 1096 184 365 365 rc
0 j
0 -114 -114 0 0 114 114 0 1221 309 5 MP
c14
gs
PP
gr
c8
DP
gr

gs 1049 243 5241 2357 rc
gs 1113 375 1817 1955 rc
c14
  72   72 1295  557 PO
  72   72 1796 1131 PO
  72   72 2233 1586 PO
  72   72 2747 2147 PO
c9
  72   72 1295  557 FO
  72   72 1796 1131 FO
  72   72 2233 1586 FO
  72   72 2747 2147 FO
gr

c9
1295 557 PD
gs 1113 375 365 365 rc
c14
  72   72 1295  557 PO
c9
  72   72 1295  557 FO
gr

gr

c9
gs 1032 488 1156 2049 rc
0 j
-41 -31 15 -50 -43 30 -42 -30 15 50 -41 31 52 0 16 49 
17 -49 52 0 1145 647 11 MP
c14
gs
PP
gr
c10
DP
-41 -31 15 -50 -43 30 -42 -30 15 50 -41 31 52 0 16 49 
17 -49 52 0 1410 1230 11 MP
c14
gs
PP
gr
c10
DP
-41 -31 15 -50 -43 30 -42 -30 15 50 -41 31 52 0 16 49 
17 -49 52 0 1666 1708 11 MP
c14
gs
PP
gr
c10
DP
-41 -31 15 -50 -43 30 -42 -30 15 50 -41 31 52 0 16 49 
17 -49 52 0 1936 2331 11 MP
c14
gs
PP
gr
c10
DP
gr

c10
gs 1049 243 5241 2357 rc
1214 670 PD
gr

gs 1032 488 365 365 rc
0 j
-41 -31 15 -50 -43 30 -42 -30 15 50 -41 31 52 0 16 49 
17 -49 52 0 1145 647 11 MP
c14
gs
PP
gr
c10
DP
gr

gs 1049 243 5241 2357 rc
gr

gs 989 601 740 1841 rc
c11
1099  783 mt 1243  783 L
1171  711 mt 1171  855 L
1283 1484 mt 1427 1484 L
1355 1412 mt 1355 1556 L
1474 2259 mt 1618 2259 L
1546 2187 mt 1546 2331 L
1121  733 mt 1221  833 L
1221  733 mt 1121  833 L
1305 1434 mt 1405 1534 L
1405 1434 mt 1305 1534 L
1496 2209 mt 1596 2309 L
1596 2209 mt 1496 2309 L
gr

c11
gs 1049 243 5241 2357 rc
1171 783 PD
gr

gs 989 601 365 365 rc
1099  783 mt 1243  783 L
1171  711 mt 1171  855 L
1121  733 mt 1221  833 L
1221  733 mt 1121  833 L
gr

gs 1049 243 5241 2357 rc
gr

gs 940 662 524 1684 rc
0 j
72 95 -72 95 -72 -95 72 -95 1122 939 5 MP
c14
gs
PP
gr
c12
DP
72 95 -72 95 -72 -95 72 -95 1206 1635 5 MP
c14
gs
PP
gr
c12
DP
72 95 -72 95 -72 -95 72 -95 1281 2258 5 MP
c14
gs
PP
gr
c12
DP
gr

c12
gs 1049 243 5241 2357 rc
1122 844 PD
gr

gs 940 662 365 365 rc
0 j
72 95 -72 95 -72 -95 72 -95 1122 939 5 MP
c14
gs
PP
gr
c12
DP
gr

gs 1049 243 5241 2357 rc
gr

gs 954 1221 450 1561 rc
c13
1086 1353 mt 1186 1453 L
1186 1353 mt 1086 1453 L
1138 2049 mt 1238 2149 L
1238 2049 mt 1138 2149 L
1171 2549 mt 1271 2649 L
1271 2549 mt 1171 2649 L
gr

c13
gs 1049 243 5241 2357 rc
1136 1403 PD
gr

gs 954 1221 365 365 rc
1086 1353 mt 1186 1453 L
1186 1353 mt 1086 1453 L
gr

gs 1049 243 5241 2357 rc
gr

0 sg
%%IncludeResource: font AvantGarde-Demi
/AvantGarde-Demi /ISOLatin1Encoding 240 FMSR

1921 3170 mt 
(Number of Effective Passes / b) s
 251 2053 mt  -90 rotate
(P\(x\) - P\(x) s
90 rotate
%%IncludeResource: font AvantGarde-Demi
/AvantGarde-Demi /ISOLatin1Encoding 192 FMSR

 371  964 mt  -90 rotate
(*) s
90 rotate
%%IncludeResource: font AvantGarde-Demi
/AvantGarde-Demi /ISOLatin1Encoding 240 FMSR

 251  880 mt  -90 rotate
(\)) s
90 rotate
%%IncludeResource: font Helvetica
/Helvetica /ISOLatin1Encoding 120 FMSR

1020 2649 mt 
( ) s
6261  292 mt 
( ) s
12 w
6 w
1 sg
0 1554 962 0 0 -1554 5255 1864 4 MP
PP
-962 0 0 1554 962 0 0 -1554 5255 1864 5 MP stroke
4 w
DO
SO
6 w
0 sg
5255 1864 mt 6217 1864 L
5255  310 mt 6217  310 L
5255 1864 mt 5255  310 L
6217 1864 mt 6217  310 L
5255 1864 mt 6217 1864 L
5255 1864 mt 5255  310 L
5255 1864 mt 6217 1864 L
5255  310 mt 6217  310 L
5255 1864 mt 5255  310 L
6217 1864 mt 6217  310 L
%%IncludeResource: font AvantGarde-Demi
/AvantGarde-Demi /ISOLatin1Encoding 192 FMSR

5668  529 mt 
(b=1) s
gs 5255 310 963 1555 rc
36 w
c8
318 0 5318 455 2 MP stroke
gr

36 w
c8
gs 5295 273 365 365 rc
0 j
0 -114 -114 0 0 114 114 0 5420 398 5 MP
c14
gs
PP
gr
c8
DP
gr

gs 5255 310 963 1555 rc
gr

0 sg
5668  782 mt 
(b=2) s
gs 5255 310 963 1555 rc
c9
318 0 5318 707 2 MP stroke
gs 5295 525 365 365 rc
c14
  72   72 5477  707 PO
c9
  72   72 5477  707 FO
gr

gr

c9
0 sg
5668 1035 mt 
(b=4) s
gs 5255 310 963 1555 rc
c10
318 0 5318 960 2 MP stroke
gs 5295 778 365 365 rc
0 j
-41 -31 15 -50 -43 30 -42 -30 15 50 -41 31 52 0 16 49 
17 -49 52 0 5408 937 11 MP
c14
gs
PP
gr
c10
DP
gr

gr

c10
0 sg
5668 1288 mt 
(b=8) s
gs 5255 310 963 1555 rc
c11
318 0 5318 1213 2 MP stroke
gs 5295 1031 365 365 rc
5405 1213 mt 5549 1213 L
5477 1141 mt 5477 1285 L
5427 1163 mt 5527 1263 L
5527 1163 mt 5427 1263 L
gr

gr

c11
0 sg
5668 1541 mt 
(b=16) s
gs 5255 310 963 1555 rc
c12
318 0 5318 1466 2 MP stroke
gs 5295 1284 365 365 rc
0 j
72 95 -72 95 -72 -95 72 -95 5477 1561 5 MP
c14
gs
PP
gr
c12
DP
gr

gr

c12
0 sg
5668 1794 mt 
(b=32) s
gs 5255 310 963 1555 rc
c13
318 0 5318 1718 2 MP stroke
gr

c13
gs 5295 1536 365 365 rc
5427 1668 mt 5527 1768 L
5527 1668 mt 5427 1768 L
gr

gs 5255 310 963 1555 rc
6 w
gr

6 w

end %%Color Dict

eplot
%%EndObject

epage
end

showpage

%%Trailer
%%EOF
